MD5Version 10 // Parameters used during export: Reorient: False; Scale: 1.0
commandline ""

numFrames 30
numJoints 29
frameRate 24
numAnimatedComponents 174

hierarchy {
  "Origin" -1 63 0 //
  "RightShoulder_Dummy" 0 63 6 //
  "RightShoulder" 1 63 12 //
  "RightArm_Dummy" 2 63 18 //
  "RightArm" 3 63 24 //
  "RightArmRoll" 4 63 30 //
  "RightForeArm" 5 63 36 //
  "RightHand" 6 63 42 //
  "RightHandIndex1" 7 63 48 //
  "RightHandIndex2" 8 63 54 //
  "RightHandIndex3" 9 63 60 //
  "RightHandIndex4" 10 63 66 //
  "RightHandRing1" 7 63 72 //
  "RightHandRing2" 12 63 78 //
  "RightHandRing3" 13 63 84 //
  "RightHandRing4" 14 63 90 //
  "RightHandThumb1" 7 63 96 //
  "RightHandThumb2" 16 63 102 //
  "RightHandThumb3" 17 63 108 //
  "RightHandMiddle1" 7 63 114 //
  "RightHandMiddle2" 19 63 120 //
  "RightHandMiddle3" 20 63 126 //
  "RightHandMiddle4" 21 63 132 //
  "RightHandPinky1" 7 63 138 //
  "RightHandPinky2" 23 63 144 //
  "RightHandPinky3" 24 63 150 //
  "RightHandPinky4" 25 63 156 //
  "rightpad" 0 63 162 //
  "Melee" 0 63 168 //
}

bounds {
  ( -1.3818937540 -22.0332183838 -11.3636646271 ) ( 20.9481849670 -5.7942371368 8.1285114288 )
  ( -1.3818937540 -21.9192466736 -10.2822265625 ) ( 21.2851161957 -5.8787746429 8.1517009735 )
  ( -1.3818937540 -20.7240104675 -6.5840787888 ) ( 21.2213001251 -6.2811021805 7.9420862198 )
  ( -1.3818937540 -18.7136726379 -5.6077384949 ) ( 22.1852569580 -6.4600806236 11.2646389008 )
  ( -1.3818937540 -17.6908798218 -4.6082715988 ) ( 22.4474773407 -6.4600806236 13.8992538452 )
  ( -1.3818937540 -16.8109493256 -3.2227029800 ) ( 21.8382492065 -6.4600806236 15.9999618530 )
  ( -1.3818937540 -15.5736217499 -0.9658770561 ) ( 20.5891361237 -6.3134441376 17.7227287292 )
  ( -1.3818937540 -14.2710962296 0.3517316580 ) ( 19.0099620819 -6.0446300507 18.7432899475 )
  ( -1.3818937540 -13.1283159256 0.3517316580 ) ( 17.9730739594 -5.8146338463 20.0974998474 )
  ( -1.3818937540 -12.7025480270 0.3517316580 ) ( 17.8114356995 -5.7317566872 20.7392978668 )
  ( -1.3818937540 -12.7512664795 0.3517316580 ) ( 18.2472152710 -5.7471466064 20.1780395508 )
  ( -1.3818937540 -12.8898935318 0.3517316580 ) ( 20.0285854340 -5.7933750153 18.8480186462 )
  ( -1.3818937540 -13.0641193390 0.3517316580 ) ( 22.5585365295 -5.8524441719 18.2538490295 )
  ( -1.3818937540 -13.1917495728 0.3517316580 ) ( 24.7018508911 -5.7696762085 17.4425086975 )
  ( -1.3818937540 -13.3323421478 -0.0320796967 ) ( 25.8064727783 -5.6006393433 16.5813045502 )
  ( -1.3818937540 -13.3481330872 -0.4307112694 ) ( 26.5528984070 -5.1340103149 15.2878303528 )
  ( -1.3818937540 -12.6266794205 -1.8578729630 ) ( 27.6481018066 -4.0642929077 11.6919641495 )
  ( -1.3818937540 -11.9712800980 -5.8405003548 ) ( 31.9063453674 -2.9554190636 7.2011456490 )
  ( -1.3818937540 -12.0673618317 -7.7266325951 ) ( 33.4072799683 -2.0758302212 7.1987266541 )
  ( -1.3818937540 -12.0945777893 -8.2819499969 ) ( 33.5166931152 -1.8291630745 7.1933808327 )
  ( -1.3818937540 -12.0298252106 -7.6103401184 ) ( 33.0887298584 -2.1277160645 7.2105154991 )
  ( -1.3818937540 -12.5576725006 -5.3593826294 ) ( 30.3272609711 -2.7805404663 7.2553896904 )
  ( -1.3818937540 -14.1995983124 -2.9718170166 ) ( 24.5862655640 -4.0249938965 12.4428091049 )
  ( -1.3818937540 -14.9495019913 -4.3273286819 ) ( 21.9926166534 -5.6413764954 14.7432041168 )
  ( -1.3818937540 -15.2810955048 -5.3969249725 ) ( 20.1893615723 -6.4041261673 15.0196838379 )
  ( -1.3818937540 -16.3976936340 -6.4405498505 ) ( 19.1236667633 -6.4600806236 14.3876075745 )
  ( -1.3818937540 -19.0648708344 -6.2926573753 ) ( 18.3861255646 -6.4241929054 11.6673803329 )
  ( -1.3818937540 -21.5247421265 -6.8235373497 ) ( 19.4045600891 -6.2795681953 8.1110715866 )
  ( -1.3818937540 -22.0427150726 -10.2716293335 ) ( 20.6913146973 -5.9146642685 8.1475658417 )
  ( -1.3818937540 -22.0332183838 -11.3636646271 ) ( 20.9481849670 -5.7942371368 8.1285114288 )
}

baseframe {
  ( 0.0000000000 0.0000000000 0.0000000000 ) ( -0.7071068287 -0.0000000000 -0.0000000000 )
  ( -0.0186605453 4.5159912109 1.4360997677 ) ( 0.0000280102 0.0000000016 -1.0000000000 )
  ( -2.0367097855 -1.0987091064 0.5481596589 ) ( 0.0000083447 0.0000000002 -0.0000279347 )
  ( 2.5132143497 0.1486579478 3.5487740040 ) ( -0.0000000000 -0.0000000000 -0.0000000000 )
  ( -1.0394111872 1.6535054445 2.9115278721 ) ( -0.0000195275 -0.7070870399 0.0000196410 )
  ( -8.3812847137 0.0000042481 0.0122467289 ) ( -0.0000000199 0.0000001187 -0.0000001589 )
  ( -3.9075412750 0.0000038572 0.0064787311 ) ( -0.0000000000 -0.0000002980 -0.0000000000 )
  ( -9.0582580566 0.0000030984 0.0137990611 ) ( -0.0000195275 0.7071262598 0.0000195286 )
  ( -2.4562108517 -0.4589804113 4.9792232513 ) ( 0.0000195005 -0.7071262598 -0.0000194994 )
  ( -1.4808013439 -0.0000023665 0.0022553869 ) ( 0.0001794795 -0.0001792844 0.1336774677 )
  ( -0.9798917770 -0.0000008648 0.0011381970 ) ( 0.0759933963 0.7029330134 0.0758283958 )
  ( 0.0011322881 -0.0000015907 1.2384006977 ) ( 0.0000000372 0.0000000035 0.0000000379 )
  ( -0.0923869684 -0.4588496685 4.9064965248 ) ( 0.0429671630 -0.7058849931 0.0428026877 )
  ( -1.8562849760 -0.0000013817 0.0025038412 ) ( 0.0001730661 -0.0001778290 0.1480355263 )
  ( -1.0458492041 -0.0000023897 0.0010347852 ) ( 0.0000889879 -0.0001018705 0.1002773046 )
  ( -1.5055357218 -0.0000026549 0.0011810474 ) ( 0.0000114150 0.7071009874 -0.0000114465 )
  ( -2.1882109642 -0.0633600801 2.5236830711 ) ( 0.0967313573 -0.4675333202 0.1567362249 )
  ( -1.6791052818 -0.0000239015 0.0014968514 ) ( 0.0000000014 -0.0000001944 -0.0000000186 )
  ( -1.2707813978 0.0000282526 0.0011651963 ) ( 0.0000001495 0.7071062922 -0.0000001442 )
  ( -1.2061427832 -0.4589325786 6.2291550636 ) ( 0.0000194864 -0.7071262598 -0.0000194854 )
  ( -1.4808018208 -0.0000020948 0.0022557802 ) ( 0.0001794997 -0.0001792818 0.1336775273 )
  ( -0.9798946381 -0.0000022332 0.0011384857 ) ( 0.0759933889 0.7029330134 0.0758283883 )
  ( 0.0011323692 -0.0000017502 1.2384005785 ) ( 0.0000000149 0.0000000035 0.0000000388 )
  ( 0.9575448036 -0.4587714672 3.6564393044 ) ( 0.0429671444 -0.7058849931 0.0428026579 )
  ( -1.8562816381 -0.0000014087 0.0025037199 ) ( 0.0001730594 -0.0001778291 0.1480355561 )
  ( -1.0458487272 -0.0000009410 0.0010346614 ) ( 0.0000889888 -0.0001018699 0.1002773046 )
  ( -1.5055395365 -0.0000035905 0.0011810367 ) ( 0.0000114884 0.7071009874 -0.0000113619 )
  ( -0.4129891396 8.1527709961 8.3131628036 ) ( 0.0000279307 0.0000000016 -1.0000000000 )
  ( 0.0000000000 0.0000000000 0.0000000000 ) ( 0.7071067095 0.0000000000 -0.7071068287 )
}

frame 0 {
  -0.0000000251 -0.0000000089 0.0000013374 -0.7071068287 -0.0000000188 -0.0000000124
  -0.0175175872 4.5148844719 1.4526960850 -0.0000001064 0.0000000004 -1.0000000000
  -2.0376806259 -1.0987175703 0.5451019406 -0.0000000014 -0.0000001751 -0.0000000857
  2.5079936981 0.1487963647 3.5524599552 -0.0000000275 0.0000000224 0.0000000745
  -1.0437760353 1.6534525156 2.9099991322 0.0919475183 -0.6236754656 0.0919475183
  -8.3812913895 0.0000036731 -0.0005167350 0.0000000014 0.0000000036 0.0000001568
  -3.9075496197 0.0000009909 0.0005270541 0.0000004051 0.4231272340 0.5289086699
  -9.0582656860 -0.0000013113 0.0000083447 0.1307646483 0.6702280045 -0.3235573173
  -2.4121787548 -0.4690734744 4.9682669640 0.2278127223 -0.6577842236 0.2557729185
  -1.4861807823 -0.0092604160 0.0023763180 -0.0182543006 0.0115489010 0.4644549489
  -0.9848700166 -0.0127555132 0.0012280047 0.3776761889 0.5943309069 0.4060390890
  0.0011344403 -0.0000020266 1.2383975983 -0.0000005588 0.0000000638 -0.0000000289
  -0.0485565849 -0.4682635963 4.8929109573 0.2945401669 -0.6570017338 0.2687330544
  -1.8586747646 -0.0117373466 0.0021863878 0.0182136633 -0.0123659251 0.5519972444
  -1.0443670750 -0.0123009682 0.0005882531 0.0186417848 -0.0115625458 0.5112479925
  -1.5055371523 -0.0000058562 0.0011833310 0.0000105096 0.7071008682 -0.0000123795
  -2.1457803249 -0.0792678669 2.5121209621 0.0795319006 -0.4358265102 0.3166429698
  -1.6636128426 -0.0215007216 -0.0294201374 -0.1323003173 -0.3390547335 0.1692510098
  -1.2707836628 0.0000313520 0.0011672974 -0.0000000421 0.7071065903 -0.0000001778
  -1.1617157459 -0.4687233567 6.2216267586 0.4803776741 -0.5438483357 0.4272537827
  -1.4778456688 -0.0012516975 0.0014481544 0.0268109776 -0.0268564131 0.2610144913
  -0.9766025543 -0.0043349266 0.0003546178 0.2762081325 0.6432811022 0.2330487967
  0.0011335611 -0.0000023842 1.2383971214 -0.0000005141 -0.0000000009 -0.0000000522
  1.0011165142 -0.4596720040 3.6390306950 0.1633753777 -0.7046147585 0.1056701168
  -1.8531141281 0.0007317066 0.0014575720 0.0384743810 -0.0210312735 0.2334485650
  -1.0480554104 -0.0147867203 0.0012030602 0.0431203507 0.0045896429 0.6846181750
  -1.5055353642 -0.0000061989 0.0011810064 0.0000105077 0.7071008682 -0.0000123911
  -0.4064104557 8.1463708878 8.3328666687 0.0000000743 -0.0000006263 -1.0000000000
  11.2120428085 -10.2532491684 16.8074169159 -0.6769390702 -0.2143609673 0.6505261660
}

frame 1 {
  -0.0000000251 -0.0000000089 0.0000013374 -0.7071068287 -0.0000000188 -0.0000000124
  -0.0175175872 4.5148844719 1.4526960850 -0.0000001064 0.0000000004 -1.0000000000
  -2.0376806259 -1.0987175703 0.5451019406 -0.0000000014 -0.0000001751 -0.0000000857
  2.5079936981 0.1487963647 3.5524599552 -0.0000000275 0.0000000224 0.0000000745
  -1.0437763929 1.6534525156 2.9099991322 0.1569456458 -0.6292141676 0.0623211414
  -8.3812894821 0.0000038147 -0.0005166233 0.0000000019 0.0000000028 0.0000001476
  -3.9075505733 -0.0000004321 0.0005261265 0.0000005020 0.4397985041 0.5058913231
  -9.0582666397 0.0000001192 0.0000064373 0.0982500836 0.6625785232 -0.2910715044
  -2.4121799469 -0.4690745771 4.9682679176 0.2278127372 -0.6577842236 0.2557729483
  -1.4861793518 -0.0092620850 0.0023760796 -0.0182543267 0.0115489103 0.4644549489
  -0.9848693609 -0.0127536058 0.0012259483 0.3776762187 0.5943309069 0.4060391486
  0.0011334419 -0.0000004768 1.2383971214 -0.0000005215 0.0000000126 -0.0000000130
  -0.0485575795 -0.4682646096 4.8929138184 0.2945401371 -0.6570016146 0.2687330842
  -1.8586750031 -0.0117354393 0.0021884441 0.0182136614 -0.0123659112 0.5519973040
  -1.0443696976 -0.0123019218 0.0005896091 0.0186418574 -0.0115624536 0.5112479925
  -1.5055341721 -0.0000069141 0.0011826754 0.0000105027 0.7071008682 -0.0000123740
  -2.1457817554 -0.0792673826 2.5121219158 0.0795318931 -0.4358264208 0.3166430295
  -1.6636099815 -0.0214992166 -0.0294208825 -0.1323003471 -0.3390546441 0.1692509949
  -1.2707843781 0.0000308752 0.0011670589 -0.0000000632 0.7071065903 -0.0000001422
  -1.1617169380 -0.4687235653 6.2216267586 0.4803777039 -0.5438483357 0.4272538424
  -1.4778441191 -0.0012531281 0.0014461558 0.0268110074 -0.0268564932 0.2610144317
  -0.9766054153 -0.0043368340 0.0003545880 0.2762081325 0.6432811022 0.2330486774
  0.0011315346 -0.0000026226 1.2383990288 -0.0000005141 -0.0000000512 -0.0000000540
  1.0011153221 -0.4596713781 3.6390311718 0.1633753926 -0.7046147585 0.1056701392
  -1.8531155586 0.0007328987 0.0014575422 0.0384743921 -0.0210313313 0.2334485948
  -1.0480582714 -0.0147876740 0.0012006760 0.0431203730 0.0045896424 0.6846182346
  -1.5055379868 -0.0000028759 0.0011824369 0.0000105195 0.7071008682 -0.0000123990
  -0.4064104557 8.1463708878 8.3328666687 0.0000000743 -0.0000006263 -1.0000000000
  12.8277978897 -9.2324075699 16.8648777008 -0.6465042233 -0.2450608462 0.6433575749
}

frame 2 {
  -0.0000000251 -0.0000000089 0.0000013374 -0.7071068287 -0.0000000188 -0.0000000124
  -0.0175175872 4.5148844719 1.4526960850 -0.0000001064 0.0000000004 -1.0000000000
  -2.0376806259 -1.0987175703 0.5451019406 -0.0000000014 -0.0000001751 -0.0000000857
  2.5079936981 0.1487963647 3.5524599552 -0.0000000275 0.0000000224 0.0000000745
  -1.0437771082 1.6534518003 2.9099981785 0.3733110726 -0.6090977788 0.0174693558
  -8.3812913895 0.0000026524 -0.0005165413 0.0000000030 -0.0000000005 0.0000001267
  -3.9075479507 -0.0000014305 0.0005258024 0.0000002892 0.4939127862 0.3983056545
  -9.0582647324 -0.0000002384 0.0000061393 0.0306723136 0.6448838711 -0.1352499723
  -2.4121789932 -0.4690759778 4.9682655334 0.2278126925 -0.6577841640 0.2557729781
  -1.4861813784 -0.0092621967 0.0023758411 -0.0182543397 0.0115488861 0.4644548893
  -0.9848670959 -0.0127534270 0.0012271404 0.3776761889 0.5943308473 0.4060390890
  0.0011332035 -0.0000018477 1.2384001017 -0.0000005420 0.0000000214 -0.0000000233
  -0.0485556126 -0.4682663977 4.8929114342 0.2945401073 -0.6570017338 0.2687331140
  -1.8586761951 -0.0117337108 0.0021860600 0.0182136800 -0.0123659139 0.5519973040
  -1.0443691015 -0.0123014450 0.0005885363 0.0186418686 -0.0115624825 0.5112479925
  -1.5055357218 -0.0000061989 0.0011806488 0.0000104912 0.7071008682 -0.0000123812
  -2.1457812786 -0.0792684257 2.5121202469 0.0795318931 -0.4358264506 0.3166429996
  -1.6636085510 -0.0215002894 -0.0294198990 -0.1323003024 -0.3390546441 0.1692510098
  -1.2707856894 0.0000320673 0.0011662841 -0.0000000711 0.7071065903 -0.0000001765
  -1.1617150307 -0.4687247276 6.2216253281 0.4803775847 -0.5438482761 0.4272537827
  -1.4778443575 -0.0012511015 0.0014458299 0.0268109757 -0.0268564709 0.2610144913
  -0.9766073227 -0.0043352842 0.0003556311 0.2762082815 0.6432809830 0.2330487370
  0.0011333227 -0.0000005960 1.2383983135 -0.0000005346 -0.0000000149 -0.0000000447
  1.0011155605 -0.4596728086 3.6390306950 0.1633754075 -0.7046147585 0.1056701615
  -1.8531140089 0.0007341802 0.0014579296 0.0384743884 -0.0210313257 0.2334485948
  -1.0480585098 -0.0147866011 0.0012004375 0.0431203619 0.0045896140 0.6846182346
  -1.5055361986 -0.0000038147 0.0011820793 0.0000105353 0.7071008682 -0.0000123924
  -0.4064104557 8.1463708878 8.3328666687 0.0000000743 -0.0000006263 -1.0000000000
  16.8800201416 -5.8211474419 16.7452526093 -0.5448250175 -0.3281226158 0.6001710296
}

frame 3 {
  -0.0000000251 -0.0000000089 0.0000013374 -0.7071068287 -0.0000000188 -0.0000000124
  -0.0175175872 4.5148844719 1.4526960850 -0.0000001064 0.0000000004 -1.0000000000
  -2.0376806259 -1.0987175703 0.5451019406 -0.0000000014 -0.0000001751 -0.0000000857
  2.5079936981 0.1487963647 3.5524599552 -0.0000000275 0.0000000224 0.0000000745
  -1.0437777042 1.6534503698 2.9099981785 0.6236557961 -0.4913045764 -0.0063083246
  -8.3812913895 0.0000033379 -0.0005168915 -0.0000000037 -0.0000000000 0.0000001267
  -3.9075474739 -0.0000001788 0.0005266666 0.0000002725 0.5026811361 0.2726247907
  -9.0582647324 0.0000000894 0.0000069737 -0.0162555482 0.6692963839 0.1085547060
  -2.4121785164 -0.4690755010 4.9682674408 0.2278126776 -0.6577842236 0.2557729483
  -1.4861822128 -0.0092611313 0.0023770332 -0.0182543248 0.0115489177 0.4644548893
  -0.9848701358 -0.0127559900 0.0012269020 0.3776762187 0.5943308473 0.4060390592
  0.0011333227 -0.0000009239 1.2384004593 -0.0000005532 0.0000000261 -0.0000000093
  -0.0485569835 -0.4682622552 4.8929104805 0.2945401073 -0.6570016146 0.2687330842
  -1.8586761951 -0.0117334723 0.0021874309 0.0182137098 -0.0123658581 0.5519973040
  -1.0443680286 -0.0123041561 0.0005888939 0.0186418407 -0.0115623875 0.5112479925
  -1.5055371523 -0.0000061914 0.0011815727 0.0000105208 0.7071008682 -0.0000123733
  -2.1457812786 -0.0792679191 2.5121197701 0.0795318931 -0.4358264208 0.3166430295
  -1.6636137962 -0.0215010643 -0.0294185877 -0.1323003769 -0.3390546739 0.1692509502
  -1.2707841396 0.0000331402 0.0011642575 -0.0000000553 0.7071065903 -0.0000001475
  -1.1617144346 -0.4687244892 6.2216277122 0.4803776443 -0.5438482165 0.4272538126
  -1.4778463840 -0.0012509525 0.0014456511 0.0268109962 -0.0268564858 0.2610144317
  -0.9766047001 -0.0043339524 0.0003553629 0.2762082219 0.6432811022 0.2330486774
  0.0011329055 -0.0000013709 1.2383980751 -0.0000005178 -0.0000000317 -0.0000000410
  1.0011161566 -0.4596726298 3.6390321255 0.1633753777 -0.7046147585 0.1056701392
  -1.8531136513 0.0007324219 0.0014580488 0.0384744033 -0.0210313164 0.2334485948
  -1.0480593443 -0.0147873014 0.0012016892 0.0431203470 0.0045896475 0.6846182346
  -1.5055345297 -0.0000041872 0.0011814684 0.0000104928 0.7071008682 -0.0000123792
  -0.4064104557 8.1463708878 8.3328666687 0.0000000743 -0.0000006263 -1.0000000000
  20.3517913818 -0.9841334820 16.0133647919 -0.4071804285 -0.4149762690 0.5083332062
}

frame 4 {
  -0.0000000251 -0.0000000089 0.0000013374 -0.7071068287 -0.0000000188 -0.0000000124
  -0.0175175872 4.5148844719 1.4526960850 -0.0000001064 0.0000000004 -1.0000000000
  -2.0376806259 -1.0987175703 0.5451019406 -0.0000000014 -0.0000001751 -0.0000000857
  2.5079936981 0.1487963647 3.5524599552 -0.0000000275 0.0000000224 0.0000000745
  -1.0437777042 1.6534496546 2.9099981785 0.7389940619 -0.3970699012 -0.0381923281
  -8.3812913895 0.0000030249 -0.0005162358 0.0000000149 -0.0000000000 0.0000001257
  -3.9075450897 -0.0000005662 0.0005280972 0.0000002436 0.4896439910 0.2801400423
  -9.0582647324 0.0000003278 0.0000068247 -0.0637224242 0.6927996874 0.2101762295
  -2.4121799469 -0.4690737724 4.9682655334 0.2278127372 -0.6577841640 0.2557729483
  -1.4861791134 -0.0092597008 0.0023746490 -0.0182544105 0.0115488861 0.4644548893
  -0.9848693609 -0.0127544403 0.0012278557 0.3776761889 0.5943308473 0.4060391486
  0.0011334419 -0.0000036955 1.2383985519 -0.0000005420 0.0000000112 -0.0000000186
  -0.0485563278 -0.4682631493 4.8929114342 0.2945401073 -0.6570016146 0.2687331438
  -1.8586752415 -0.0117335320 0.0021860600 0.0182136670 -0.0123659391 0.5519972444
  -1.0443680286 -0.0123029947 0.0005872250 0.0186417568 -0.0115625178 0.5112479925
  -1.5055373907 -0.0000057220 0.0011832714 0.0000105261 0.7071008682 -0.0000123621
  -2.1457817554 -0.0792676210 2.5121195316 0.0795318931 -0.4358264208 0.3166430295
  -1.6636102200 -0.0215017200 -0.0294209719 -0.1323003024 -0.3390546739 0.1692509651
  -1.2707812786 0.0000329018 0.0011658669 -0.0000000652 0.7071065903 -0.0000001752
  -1.1617169380 -0.4687231779 6.2216248512 0.4803777337 -0.5438483357 0.4272538424
  -1.4778447151 -0.0012528896 0.0014462471 0.0268109608 -0.0268564541 0.2610143423
  -0.9766047001 -0.0043350458 0.0003538132 0.2762081623 0.6432810426 0.2330486178
  0.0011334419 -0.0000028610 1.2383980751 -0.0000005476 -0.0000000373 -0.0000000596
  1.0011155605 -0.4596710801 3.6390299797 0.1633753926 -0.7046147585 0.1056701392
  -1.8531152010 0.0007339716 0.0014588833 0.0384743735 -0.0210313816 0.2334485650
  -1.0480573177 -0.0147875547 0.0012009144 0.0431203805 0.0045895367 0.6846181750
  -1.5055351257 -0.0000048429 0.0011820793 0.0000105169 0.7071008682 -0.0000124069
  -0.4064104557 8.1463708878 8.3328666687 0.0000000743 -0.0000006263 -1.0000000000
  21.2760772705 3.0674376488 14.9636220932 -0.3167441189 -0.4750638902 0.4135023057
}

frame 5 {
  -0.0000000251 -0.0000000089 0.0000013374 -0.7071068287 -0.0000000188 -0.0000000124
  -0.0175175872 4.5148844719 1.4526960850 -0.0000001064 0.0000000004 -1.0000000000
  -2.0376806259 -1.0987175703 0.5451019406 -0.0000000014 -0.0000001751 -0.0000000857
  2.5079936981 0.1487963647 3.5524599552 -0.0000000275 0.0000000224 0.0000000745
  -1.0437775850 1.6534491777 2.9099981785 0.7865297198 -0.3337673843 -0.0692131072
  -8.3812913895 0.0000027074 -0.0005161054 -0.0000000000 0.0000000037 0.0000001527
  -3.9075474739 0.0000021160 0.0005254745 0.0000002712 0.4913158119 0.3522760272
  -9.0582666397 0.0000005960 0.0000064373 -0.1098615974 0.7038446069 0.2009672374
  -2.4121809006 -0.4690752029 4.9682655334 0.2278126925 -0.6577842236 0.2557729185
  -1.4861791134 -0.0092601776 0.0023770332 -0.0182543490 0.0115488619 0.4644549191
  -0.9848704338 -0.0127556324 0.0012254715 0.3776762187 0.5943308473 0.4060391188
  0.0011324883 -0.0000027865 1.2383968830 -0.0000005336 -0.0000000093 -0.0000000249
  -0.0485568047 -0.4682641029 4.8929109573 0.2945401073 -0.6570016742 0.2687330544
  -1.8586778641 -0.0117373466 0.0021891594 0.0182136893 -0.0123658776 0.5519973040
  -1.0443673134 -0.0123014450 0.0005886555 0.0186418034 -0.0115624759 0.5112479925
  -1.5055367947 -0.0000047684 0.0011816025 0.0000105123 0.7071008682 -0.0000123621
  -2.1457822323 -0.0792665482 2.5121197701 0.0795318857 -0.4358264804 0.3166429400
  -1.6636115313 -0.0215029716 -0.0294203758 -0.1323003471 -0.3390546143 0.1692509502
  -1.2707817554 0.0000321865 0.0011624098 -0.0000000790 0.7071065903 -0.0000001370
  -1.1617159843 -0.4687230587 6.2216238976 0.4803777039 -0.5438483357 0.4272538126
  -1.4778442383 -0.0012527704 0.0014460087 0.0268109515 -0.0268564411 0.2610143721
  -0.9766039848 -0.0043358803 0.0003576279 0.2762083113 0.6432810426 0.2330487370
  0.0011329651 -0.0000021011 1.2383985519 -0.0000005395 -0.0000000186 -0.0000000768
  1.0011157990 -0.4596713781 3.6390302181 0.1633754075 -0.7046147585 0.1056701615
  -1.8531136513 0.0007345676 0.0014610291 0.0384743661 -0.0210313760 0.2334485650
  -1.0480577946 -0.0147857666 0.0012013912 0.0431204103 0.0045894729 0.6846181750
  -1.5055341721 -0.0000044107 0.0011823177 0.0000104945 0.7071008682 -0.0000124016
  -0.4064104557 8.1463708878 8.3328666687 0.0000000743 -0.0000006263 -1.0000000000
  20.7310142517 6.9186377525 13.4700117111 -0.2532443106 -0.5405095816 0.3174008429
}

frame 6 {
  -0.0000000251 -0.0000000089 0.0000013374 -0.7071068287 -0.0000000188 -0.0000000124
  -0.0175175872 4.5148844719 1.4526960850 -0.0000001064 0.0000000004 -1.0000000000
  -2.0376806259 -1.0987175703 0.5451019406 -0.0000000014 -0.0000001751 -0.0000000857
  2.5079936981 0.1487963647 3.5524599552 -0.0000000275 0.0000000224 0.0000000745
  -1.0437772274 1.6534484625 2.9099981785 0.8242827654 -0.2297058403 -0.1004602909
  -8.3812913895 0.0000035763 -0.0005165935 0.0000000009 0.0000000009 0.0000001378
  -3.9075486660 0.0000010431 0.0005274117 0.0000002732 0.4533476532 0.4111586809
  -9.0582656860 0.0000002384 0.0000069141 -0.1502442360 0.7414965034 0.1706193537
  -2.4121787548 -0.4690746069 4.9682664871 0.2278127372 -0.6577842236 0.2557729483
  -1.4861783981 -0.0092592239 0.0023767948 -0.0182543360 0.0115489177 0.4644548595
  -0.9848691225 -0.0127539635 0.0012260675 0.3776760995 0.5943309069 0.4060390592
  0.0011330843 -0.0000030994 1.2384002209 -0.0000005309 0.0000000084 -0.0000000112
  -0.0485552549 -0.4682627916 4.8929123878 0.2945401371 -0.6570017338 0.2687330544
  -1.8586757183 -0.0117368698 0.0021893978 0.0182136893 -0.0123658543 0.5519973040
  -1.0443689823 -0.0123009682 0.0005865097 0.0186418127 -0.0115624126 0.5112479925
  -1.5055366755 -0.0000060797 0.0011820793 0.0000105212 0.7071008682 -0.0000123799
  -2.1457812786 -0.0792667866 2.5121221542 0.0795319378 -0.4358264804 0.3166429698
  -1.6636118889 -0.0215020180 -0.0294220448 -0.1323003471 -0.3390546441 0.1692509800
  -1.2707834244 0.0000312328 0.0011653900 -0.0000000655 0.7071065903 -0.0000001478
  -1.1617161036 -0.4687229395 6.2216258049 0.4803776741 -0.5438483357 0.4272538126
  -1.4778441191 -0.0012486577 0.0014456511 0.0268109608 -0.0268564839 0.2610144317
  -0.9766035080 -0.0043377876 0.0003561974 0.2762081623 0.6432810426 0.2330486923
  0.0011339188 -0.0000011921 1.2383980751 -0.0000005364 -0.0000000037 -0.0000000633
  1.0011146069 -0.4596714973 3.6390318871 0.1633753926 -0.7046147585 0.1056701541
  -1.8531146049 0.0007328987 0.0014605522 0.0384743661 -0.0210312475 0.2334486097
  -1.0480585098 -0.0147886276 0.0012010336 0.0431202278 0.0045896485 0.6846182346
  -1.5055346489 -0.0000042915 0.0011803508 0.0000104510 0.7071008682 -0.0000124108
  -0.4064104557 8.1463708878 8.3328666687 0.0000000743 -0.0000006263 -1.0000000000
  19.6564235687 11.3945579529 11.3287467957 -0.1719227731 -0.6264550090 0.2012996376
}

frame 7 {
  -0.0000000251 -0.0000000089 0.0000013374 -0.7071068287 -0.0000000188 -0.0000000124
  -0.0175175872 4.5148844719 1.4526960850 -0.0000001064 0.0000000004 -1.0000000000
  -2.0376806259 -1.0987175703 0.5451019406 -0.0000000014 -0.0000001751 -0.0000000857
  2.5079936981 0.1487963647 3.5524599552 -0.0000000275 0.0000000224 0.0000000745
  -1.0437767506 1.6534482241 2.9099972248 0.8439924717 -0.1049625576 -0.1217099875
  -8.3812904358 0.0000027418 -0.0005167127 0.0000000061 0.0000000037 0.0000001322
  -3.9075489044 -0.0000003576 0.0005267859 0.0000002808 0.3862596154 0.4173484445
  -9.0582647324 0.0000016093 0.0000050068 -0.1614410132 0.8019226789 0.1441939175
  -2.4121794701 -0.4690726399 4.9682660103 0.2278126925 -0.6577842236 0.2557729483
  -1.4861783981 -0.0092612505 0.0023771375 -0.0182543471 0.0115489438 0.4644548595
  -0.9848694801 -0.0127545595 0.0012254715 0.3776761889 0.5943308473 0.4060391188
  0.0011327267 -0.0000027120 1.2383997440 -0.0000005551 0.0000000268 -0.0000000128
  -0.0485564284 -0.4682619572 4.8929114342 0.2945401669 -0.6570016742 0.2687331140
  -1.8586755991 -0.0117359161 0.0021857619 0.0182136465 -0.0123658571 0.5519973040
  -1.0443701744 -0.0123019218 0.0005894937 0.0186417550 -0.0115624582 0.5112479329
  -1.5055369139 -0.0000057817 0.0011810660 0.0000105035 0.7071008682 -0.0000123766
  -2.1457834244 -0.0792668462 2.5121202469 0.0795318782 -0.4358264208 0.3166429698
  -1.6636111736 -0.0215005875 -0.0294196010 -0.1323003620 -0.3390546143 0.1692509949
  -1.2707839012 0.0000336170 0.0011658669 -0.0000000184 0.7071065903 -0.0000001343
  -1.1617157459 -0.4687218368 6.2216272354 0.4803777039 -0.5438483357 0.4272538424
  -1.4778439999 -0.0012499094 0.0014438927 0.0268109720 -0.0268564802 0.2610145211
  -0.9766048193 -0.0043354034 0.0003556162 0.2762081921 0.6432810426 0.2330488414
  0.0011330247 -0.0000016689 1.2383992672 -0.0000005234 -0.0000000400 -0.0000000559
  1.0011147261 -0.4596696794 3.6390316486 0.1633753926 -0.7046147585 0.1056701168
  -1.8531150818 0.0007343292 0.0014562011 0.0384744555 -0.0210313331 0.2334485650
  -1.0480567217 -0.0147848129 0.0012023449 0.0431204475 0.0045897239 0.6846182942
  -1.5055370331 -0.0000057220 0.0011825562 0.0000104997 0.7071008682 -0.0000124148
  -0.4064104557 8.1463708878 8.3328666687 0.0000000743 -0.0000006263 -1.0000000000
  18.3255729675 15.3506383896 9.2542181015 -0.0913898721 -0.7034442425 0.0907662585
}

frame 8 {
  -0.0000000251 -0.0000000089 0.0000013374 -0.7071068287 -0.0000000188 -0.0000000124
  -0.0175175872 4.5148844719 1.4526960850 -0.0000001064 0.0000000004 -1.0000000000
  -2.0376806259 -1.0987175703 0.5451019406 -0.0000000014 -0.0000001751 -0.0000000857
  2.5079936981 0.1487963647 3.5524599552 -0.0000000275 0.0000000224 0.0000000745
  -1.0437762737 1.6534479856 2.9099972248 0.8463618755 -0.0083821239 -0.1303804815
  -8.3812904358 0.0000026226 -0.0005171299 -0.0000000093 0.0000000056 0.0000001425
  -3.9075458050 0.0000014305 0.0005271435 0.0000003319 0.3257016838 0.3835308552
  -9.0582647324 0.0000014603 0.0000071526 -0.1434933990 0.8520929813 0.1321155727
  -2.4121804237 -0.4690753222 4.9682679176 0.2278126925 -0.6577842236 0.2557729483
  -1.4861793518 -0.0092616677 0.0023762584 -0.0182543248 0.0115488907 0.4644549489
  -0.9848687649 -0.0127537251 0.0012253523 0.3776763082 0.5943308473 0.4060391784
  0.0011342764 -0.0000035763 1.2383998632 -0.0000005600 0.0000000251 -0.0000000014
  -0.0485550463 -0.4682646990 4.8929142952 0.2945401371 -0.6570016146 0.2687331140
  -1.8586764336 -0.0117396116 0.0021868944 0.0182136539 -0.0123659205 0.5519973040
  -1.0443668365 -0.0123039037 0.0005879402 0.0186418016 -0.0115624992 0.5112480521
  -1.5055344105 -0.0000057220 0.0011809468 0.0000105070 0.7071008682 -0.0000123763
  -2.1457819939 -0.0792685151 2.5121223927 0.0795318931 -0.4358264804 0.3166430295
  -1.6636092663 -0.0215005875 -0.0294183865 -0.1323003620 -0.3390546143 0.1692510545
  -1.2707839012 0.0000329018 0.0011653900 -0.0000000738 0.7071065903 -0.0000002213
  -1.1617164612 -0.4687229395 6.2216267586 0.4803777039 -0.5438483357 0.4272537827
  -1.4778447151 -0.0012524724 0.0014456511 0.0268109608 -0.0268564932 0.2610144615
  -0.9766063690 -0.0043337941 0.0003553629 0.2762081921 0.6432811022 0.2330486923
  0.0011323839 -0.0000025481 1.2383993864 -0.0000005150 -0.0000000340 -0.0000000515
  1.0011146069 -0.4596717954 3.6390328407 0.1633753479 -0.7046147585 0.1056701466
  -1.8531162739 0.0007319450 0.0014594197 0.0384743921 -0.0210313071 0.2334484756
  -1.0480577946 -0.0147862434 0.0012007952 0.0431204028 0.0045896485 0.6846182346
  -1.5055346489 -0.0000058413 0.0011817217 0.0000104925 0.7071008682 -0.0000124079
  -0.4064104557 8.1463708878 8.3328666687 0.0000000743 -0.0000006263 -1.0000000000
  17.3559455872 17.7965126038 7.9089312553 -0.0376875214 -0.7486453652 0.0189610813
}

frame 9 {
  -0.0000000251 -0.0000000089 0.0000013374 -0.7071068287 -0.0000000188 -0.0000000124
  -0.0175175872 4.5148844719 1.4526960850 -0.0000001064 0.0000000004 -1.0000000000
  -2.0376806259 -1.0987175703 0.5451019406 -0.0000000014 -0.0000001751 -0.0000000857
  2.5079936981 0.1487963647 3.5524599552 -0.0000000275 0.0000000224 0.0000000745
  -1.0437761545 1.6534479856 2.9099972248 0.8446620703 0.0259517692 -0.1322924197
  -8.3812894821 0.0000039935 -0.0005173683 -0.0000000023 -0.0000000000 0.0000001397
  -3.9075493813 0.0000016689 0.0005261898 0.0000002537 0.3022977412 0.3636326790
  -9.0582647324 0.0000007749 0.0000065565 -0.1313600689 0.8695276380 0.1289915591
  -2.4121794701 -0.4690735936 4.9682655334 0.2278127223 -0.6577842832 0.2557729185
  -1.4861822128 -0.0092610121 0.0023766756 -0.0182543322 0.0115488935 0.4644548297
  -0.9848694801 -0.0127587318 0.0012260675 0.3776762187 0.5943309069 0.4060391188
  0.0011348724 -0.0000016689 1.2383991480 -0.0000005295 0.0000000279 -0.0000000140
  -0.0485566854 -0.4682637453 4.8929114342 0.2945401371 -0.6570017338 0.2687330842
  -1.8586740494 -0.0117336512 0.0021872520 0.0182136390 -0.0123658832 0.5519973040
  -1.0443673134 -0.0123032331 0.0005883873 0.0186417364 -0.0115624862 0.5112478137
  -1.5055329800 -0.0000041723 0.0011822730 0.0000105059 0.7071008682 -0.0000123743
  -2.1457805634 -0.0792668462 2.5121216774 0.0795319304 -0.4358264804 0.3166430295
  -1.6636114120 -0.0215001106 -0.0294219591 -0.1323003620 -0.3390547633 0.1692510098
  -1.2707819939 0.0000333786 0.0011658669 -0.0000001054 0.7071065903 -0.0000002186
  -1.1617151499 -0.4687224627 6.2216248512 0.4803776741 -0.5438483357 0.4272537529
  -1.4778442383 -0.0012541562 0.0014455020 0.0268109925 -0.0268564951 0.2610144317
  -0.9766058922 -0.0043338239 0.0003551245 0.2762081623 0.6432811022 0.2330487221
  0.0011335611 -0.0000013709 1.2383999825 -0.0000005134 -0.0000000317 -0.0000000512
  1.0011163950 -0.4596706629 3.6390318871 0.1633754075 -0.7046147585 0.1056701243
  -1.8531147242 0.0007331371 0.0014596283 0.0384743884 -0.0210313275 0.2334485501
  -1.0480568409 -0.0147848129 0.0012010336 0.0431203991 0.0045895679 0.6846182346
  -1.5055336952 -0.0000046492 0.0011811256 0.0000104872 0.7071008682 -0.0000123680
  -0.4064104557 8.1463708878 8.3328666687 0.0000000743 -0.0000006263 -1.0000000000
  17.0368232727 18.5612430573 7.4756441116 -0.0204320364 -0.7622106075 -0.0037534107
}

frame 10 {
  -0.0000000251 -0.0000000089 0.0000013374 -0.7071068287 -0.0000000188 -0.0000000124
  -0.0175175872 4.5148844719 1.4526960850 -0.0000001064 0.0000000004 -1.0000000000
  -2.0376806259 -1.0987175703 0.5451019406 -0.0000000014 -0.0000001751 -0.0000000857
  2.5079936981 0.1487963647 3.5524599552 -0.0000000275 0.0000000224 0.0000000745
  -1.0437762737 1.6534479856 2.9099972248 0.8473194242 0.0091920532 -0.1251680255
  -8.3812913895 0.0000026226 -0.0005165339 0.0000000028 0.0000000037 0.0000001378
  -3.9075512886 0.0000002384 0.0005259514 0.0000002751 0.2946722209 0.3719635904
  -9.0582666397 -0.0000002384 0.0000070930 -0.1377813071 0.8665275574 0.1323370486
  -2.4121773243 -0.4690725803 4.9682655334 0.2278127223 -0.6577841640 0.2557729483
  -1.4861810207 -0.0092632174 0.0023767948 -0.0182543099 0.0115489075 0.4644549489
  -0.9848691225 -0.0127531290 0.0012261868 0.3776762187 0.5943309665 0.4060391188
  0.0011309385 -0.0000028610 1.2384006977 -0.0000005479 0.0000000214 -0.0000000084
  -0.0485548079 -0.4682627320 4.8929104805 0.2945400774 -0.6570016146 0.2687330544
  -1.8586738110 -0.0117366314 0.0021893978 0.0182136837 -0.0123659223 0.5519973040
  -1.0443682671 -0.0123010874 0.0005898476 0.0186418351 -0.0115625216 0.5112479329
  -1.5055376291 -0.0000053942 0.0011811256 0.0000105053 0.7071008682 -0.0000123733
  -2.1457788944 -0.0792658329 2.5121197701 0.0795318931 -0.4358264208 0.3166430295
  -1.6636116505 -0.0215015411 -0.0294194818 -0.1323003620 -0.3390546441 0.1692509204
  -1.2707846165 0.0000333786 0.0011653900 -0.0000001001 0.7071065903 -0.0000001528
  -1.1617127657 -0.4687231183 6.2216229439 0.4803776443 -0.5438482761 0.4272537529
  -1.4778461456 -0.0012526512 0.0014455318 0.0268109888 -0.0268565100 0.2610144317
  -0.9766049385 -0.0043368638 0.0003553629 0.2762081921 0.6432811022 0.2330488116
  0.0011338592 -0.0000020862 1.2384006977 -0.0000005205 -0.0000000298 -0.0000000554
  1.0011168718 -0.4596700072 3.6390295029 0.1633753628 -0.7046147585 0.1056701466
  -1.8531142473 0.0007331371 0.0014588833 0.0384744033 -0.0210313015 0.2334485203
  -1.0480582714 -0.0147862434 0.0011991262 0.0431204066 0.0045896224 0.6846181750
  -1.5055360794 -0.0000040531 0.0011832714 0.0000105077 0.7071008682 -0.0000123838
  -0.4064104557 8.1463708878 8.3328666687 0.0000000743 -0.0000006263 -1.0000000000
  17.6297607422 17.8951206207 7.4560084343 -0.0379306599 -0.7609423399 0.0139491102
}

frame 11 {
  -0.0000000251 -0.0000000089 0.0000013374 -0.7071068287 -0.0000000188 -0.0000000124
  -0.0175175872 4.5148844719 1.4526960850 -0.0000001064 0.0000000004 -1.0000000000
  -2.0376806259 -1.0987175703 0.5451019406 -0.0000000014 -0.0000001751 -0.0000000857
  2.5079936981 0.1487963647 3.5524599552 -0.0000000275 0.0000000224 0.0000000745
  -1.0437763929 1.6534479856 2.9099972248 0.8527331948 -0.0361695252 -0.1073406413
  -8.3812913895 0.0000022650 -0.0005162954 0.0000000019 -0.0000000037 0.0000001430
  -3.9075489044 0.0000009537 0.0005261898 0.0000002870 0.2616827786 0.3903636932
  -9.0582675934 -0.0000007153 0.0000059605 -0.1555931121 0.8587362766 0.1434378177
  -2.4121761322 -0.4690755010 4.9682669640 0.2278127223 -0.6577841640 0.2557729483
  -1.4861775637 -0.0092585087 0.0023748875 -0.0182543602 0.0115489513 0.4644549191
  -0.9848690033 -0.0127536654 0.0012270808 0.3776761591 0.5943309665 0.4060391784
  0.0011335611 -0.0000021458 1.2384042740 -0.0000005204 0.0000000279 -0.0000000207
  -0.0485538244 -0.4682642221 4.8929095268 0.2945401073 -0.6570016742 0.2687331140
  -1.8586753607 -0.0117387772 0.0021890402 0.0182137135 -0.0123658748 0.5519973636
  -1.0443673134 -0.0123009682 0.0005898476 0.0186418910 -0.0115624443 0.5112480521
  -1.5055350065 -0.0000055134 0.0011796355 0.0000105014 0.7071008682 -0.0000123767
  -2.1457774639 -0.0792688727 2.5121212006 0.0795318931 -0.4358264208 0.3166429698
  -1.6636115313 -0.0215010643 -0.0294215381 -0.1323004365 -0.3390547037 0.1692510098
  -1.2707843781 0.0000333786 0.0011658669 -0.0000000053 0.7071065903 -0.0000001607
  -1.1617126465 -0.4687232971 6.2216243744 0.4803777039 -0.5438483357 0.4272538424
  -1.4778449535 -0.0012502074 0.0014456511 0.0268110037 -0.0268564988 0.2610145211
  -0.9766056538 -0.0043351650 0.0003564358 0.2762082517 0.6432811022 0.2330487669
  0.0011327863 -0.0000012517 1.2384002209 -0.0000005071 -0.0000000368 -0.0000000540
  1.0011178255 -0.4596708417 3.6390311718 0.1633754075 -0.7046147585 0.1056701541
  -1.8531141281 0.0007324219 0.0014548302 0.0384743549 -0.0210313126 0.2334485650
  -1.0480586290 -0.0147891045 0.0012021065 0.0431203581 0.0045895856 0.6846182346
  -1.5055329800 -0.0000071526 0.0011805296 0.0000105452 0.7071008682 -0.0000123713
  -0.4064104557 8.1463708878 8.3328666687 0.0000000743 -0.0000006263 -1.0000000000
  19.3543796539 15.8163671494 7.3878397942 -0.0913976058 -0.7537633181 0.0698859915
}

frame 12 {
  -0.0000000251 -0.0000000089 0.0000013374 -0.7071068287 -0.0000000188 -0.0000000124
  -0.0175175872 4.5148844719 1.4526960850 -0.0000001064 0.0000000004 -1.0000000000
  -2.0376806259 -1.0987175703 0.5451019406 -0.0000000014 -0.0000001751 -0.0000000857
  2.5079936981 0.1487963647 3.5524599552 -0.0000000275 0.0000000224 0.0000000745
  -1.0437766314 1.6534479856 2.9099972248 0.8558418155 -0.0865528807 -0.0898598507
  -8.3812904358 0.0000026226 -0.0005167127 -0.0000000009 -0.0000000028 0.0000001406
  -3.9075500965 0.0000007153 0.0005264282 0.0000003108 0.1888297647 0.3952349424
  -9.0582675934 0.0000000000 0.0000069141 -0.1768521369 0.8504491448 0.1623167247
  -2.4121785164 -0.4690753818 4.9682669640 0.2278127223 -0.6577842236 0.2557729483
  -1.4861800671 -0.0092582703 0.0023769736 -0.0182543304 0.0115489187 0.4644548595
  -0.9848686457 -0.0127509832 0.0012263060 0.3776762486 0.5943309069 0.4060390890
  0.0011315346 -0.0000025034 1.2383973598 -0.0000005695 0.0000000400 -0.0000000149
  -0.0485535860 -0.4682655334 4.8929138184 0.2945401073 -0.6570016146 0.2687330842
  -1.8586738110 -0.0117349625 0.0021867752 0.0182136986 -0.0123658506 0.5519973040
  -1.0443677902 -0.0123033524 0.0005868673 0.0186418425 -0.0115624797 0.5112479925
  -1.5055364370 -0.0000048578 0.0011836290 0.0000105007 0.7071008682 -0.0000123802
  -2.1457786560 -0.0792690814 2.5121219158 0.0795319155 -0.4358264506 0.3166430295
  -1.6636109352 -0.0215003490 -0.0294224322 -0.1323003173 -0.3390546441 0.1692510098
  -1.2707853317 0.0000329018 0.0011706948 -0.0000000718 0.7071065903 -0.0000001607
  -1.1617133617 -0.4687243402 6.2216272354 0.4803776443 -0.5438483357 0.4272537827
  -1.4778456688 -0.0012496710 0.0014426708 0.0268109869 -0.0268564839 0.2610144317
  -0.9766044617 -0.0043368340 0.0003548265 0.2762082219 0.6432810426 0.2330486327
  0.0011329353 -0.0000019073 1.2384014130 -0.0000005122 -0.0000000359 -0.0000000484
  1.0011165142 -0.4596726894 3.6390318871 0.1633753628 -0.7046146989 0.1056701764
  -1.8531160355 0.0007300377 0.0014600754 0.0384743810 -0.0210313015 0.2334485203
  -1.0480580330 -0.0147862434 0.0011999607 0.0431203693 0.0045896084 0.6846181750
  -1.5055332184 -0.0000033379 0.0011804104 0.0000105156 0.7071008682 -0.0000123963
  -0.4064104557 8.1463708878 8.3328666687 0.0000000743 -0.0000006263 -1.0000000000
  21.6770763397 12.5719079971 7.2741389275 -0.1707397699 -0.7332304716 0.1575436592
}

frame 13 {
  -0.0000000251 -0.0000000089 0.0000013374 -0.7071068287 -0.0000000188 -0.0000000124
  -0.0175175872 4.5148844719 1.4526960850 -0.0000001064 0.0000000004 -1.0000000000
  -2.0376806259 -1.0987175703 0.5451019406 -0.0000000014 -0.0000001751 -0.0000000857
  2.5079936981 0.1487963647 3.5524599552 -0.0000000275 0.0000000224 0.0000000745
  -1.0437767506 1.6534482241 2.9099972248 0.8565097451 -0.1186556444 -0.0786085799
  -8.3812913895 0.0000029802 -0.0005168021 0.0000000147 -0.0000000033 0.0000001425
  -3.9075503349 -0.0000001192 0.0005270839 0.0000002804 0.0961008072 0.3713633716
  -9.0582666397 -0.0000002384 0.0000076294 -0.1941155940 0.8401497602 0.1839245409
  -2.4121809006 -0.4690724909 4.9682655334 0.2278126925 -0.6577842236 0.2557729483
  -1.4861798286 -0.0092601776 0.0023779869 -0.0182543620 0.0115488991 0.4644549489
  -0.9848682880 -0.0127538443 0.0012249947 0.3776761591 0.5943309069 0.4060392082
  0.0011330843 -0.0000028610 1.2383996248 -0.0000005310 0.0000000214 -0.0000000184
  -0.0485571623 -0.4682634771 4.8929123878 0.2945401073 -0.6570016146 0.2687330842
  -1.8586754799 -0.0117387772 0.0021875501 0.0182136297 -0.0123658329 0.5519973040
  -1.0443673134 -0.0123019218 0.0005903840 0.0186417047 -0.0115624219 0.5112479329
  -1.5055382252 -0.0000055730 0.0011827350 0.0000105004 0.7071008682 -0.0000123788
  -2.1457810402 -0.0792672336 2.5121226311 0.0795319006 -0.4358264208 0.3166429698
  -1.6636114120 -0.0215010531 -0.0294217393 -0.1323003471 -0.3390546441 0.1692510247
  -1.2707819939 0.0000319481 0.0011656284 -0.0000000764 0.7071065903 -0.0000001370
  -1.1617176533 -0.4687233865 6.2216253281 0.4803775847 -0.5438482761 0.4272538126
  -1.4778451920 -0.0012532473 0.0014445782 0.0268110074 -0.0268564448 0.2610145211
  -0.9766039848 -0.0043344498 0.0003547668 0.2762082219 0.6432811022 0.2330487520
  0.0011330284 -0.0000016689 1.2383997440 -0.0000005215 -0.0000000432 -0.0000000405
  1.0011149645 -0.4596712589 3.6390318871 0.1633753926 -0.7046147585 0.1056701392
  -1.8531162739 0.0007348061 0.0014569759 0.0384744182 -0.0210313071 0.2334486097
  -1.0480570793 -0.0147879124 0.0012001991 0.0431204215 0.0045897006 0.6846181750
  -1.5055360794 -0.0000057220 0.0011818409 0.0000104997 0.7071008682 -0.0000123700
  -0.4064104557 8.1463708878 8.3328666687 0.0000000743 -0.0000006263 -1.0000000000
  23.6483631134 8.9969987869 7.1467771530 -0.2525404096 -0.6971261501 0.2556866109
}

frame 14 {
  -0.0000000251 -0.0000000089 0.0000013374 -0.7071068287 -0.0000000188 -0.0000000124
  -0.0175175872 4.5148844719 1.4526960850 -0.0000001064 0.0000000004 -1.0000000000
  -2.0376806259 -1.0987175703 0.5451019406 -0.0000000014 -0.0000001751 -0.0000000857
  2.5079936981 0.1487963647 3.5524599552 -0.0000000275 0.0000000224 0.0000000745
  -1.0437768698 1.6534482241 2.9099972248 0.8558775187 -0.1401845664 -0.0741471276
  -8.3812913895 0.0000033379 -0.0005164146 0.0000000056 -0.0000000021 0.0000001397
  -3.9075489044 0.0000005960 0.0005258769 0.0000002693 0.0234208442 0.3524836302
  -9.0582647324 0.0000007153 0.0000076294 -0.2175647467 0.8185701370 0.1967955530
  -2.4121797085 -0.4690741599 4.9682655334 0.2278127223 -0.6577842236 0.2557729781
  -1.4861807823 -0.0092611313 0.0023780465 -0.0182543583 0.0115489103 0.4644549191
  -0.9848698378 -0.0127543211 0.0012252033 0.3776761889 0.5943308473 0.4060391486
  0.0011317134 -0.0000019073 1.2383955717 -0.0000005625 0.0000000640 -0.0000000065
  -0.0485562682 -0.4682650268 4.8929104805 0.2945401073 -0.6570017338 0.2687330544
  -1.8586771488 -0.0117363930 0.0021885633 0.0182136614 -0.0123658748 0.5519972444
  -1.0443687439 -0.0123052597 0.0005888641 0.0186417680 -0.0115624759 0.5112479329
  -1.5055363178 -0.0000048578 0.0011796877 0.0000105083 0.7071008682 -0.0000123819
  -2.1457803249 -0.0792688429 2.5121226311 0.0795318633 -0.4358264208 0.3166429698
  -1.6636109352 -0.0215001106 -0.0294215363 -0.1323003024 -0.3390545845 0.1692510247
  -1.2707824707 0.0000317097 0.0011644363 -0.0000000659 0.7071065903 -0.0000001739
  -1.1617145538 -0.4687240124 6.2216258049 0.4803776741 -0.5438483357 0.4272537827
  -1.4778436422 -0.0012531430 0.0014452934 0.0268109906 -0.0268564597 0.2610144615
  -0.9766039848 -0.0043358803 0.0003551841 0.2762081623 0.6432811022 0.2330487370
  0.0011356771 -0.0000025034 1.2383954525 -0.0000005253 -0.0000000265 -0.0000000549
  1.0011161566 -0.4596711397 3.6390299797 0.1633753479 -0.7046146989 0.1056701764
  -1.8531138897 0.0007321835 0.0014584064 0.0384743400 -0.0210313126 0.2334485501
  -1.0480577946 -0.0147907734 0.0012036562 0.0431203321 0.0045895851 0.6846181750
  -1.5055361986 -0.0000045300 0.0011810660 0.0000105077 0.7071008682 -0.0000123674
  -0.4064104557 8.1463708878 8.3328666687 0.0000000743 -0.0000006263 -1.0000000000
  24.6589260101 5.9563994408 7.0378599167 -0.3188616335 -0.6520593166 0.3456076086
}

frame 15 {
  -0.0000000251 -0.0000000089 0.0000013374 -0.7071068287 -0.0000000188 -0.0000000124
  -0.0175175872 4.5148844719 1.4526960850 -0.0000001064 0.0000000004 -1.0000000000
  -2.0376806259 -1.0987175703 0.5451019406 -0.0000000014 -0.0000001751 -0.0000000857
  2.5079936981 0.1487963647 3.5524599552 -0.0000000275 0.0000000224 0.0000000745
  -1.0437769890 1.6534482241 2.9099972248 0.8556188941 -0.1527025700 -0.0695907772
  -8.3812923431 0.0000019073 -0.0005171001 0.0000000021 -0.0000000009 0.0000001453
  -3.9075498581 0.0000009537 0.0005274713 0.0000002619 -0.0493340008 0.3410271406
  -9.0582628250 0.0000016689 0.0000072718 -0.2633538246 0.7729009986 0.1853428185
  -2.4121804237 -0.4690734148 4.9682660103 0.2278127074 -0.6577842832 0.2557729185
  -1.4861787558 -0.0092647076 0.0023770034 -0.0182543341 0.0115489326 0.4644548893
  -0.9848688245 -0.0127519369 0.0012271777 0.3776762486 0.5943310261 0.4060390890
  0.0011336207 -0.0000018477 1.2383983135 -0.0000005281 0.0000000427 -0.0000000051
  -0.0485574156 -0.4682638943 4.8929109573 0.2945401371 -0.6570017338 0.2687330842
  -1.8586753607 -0.0117336512 0.0021871179 0.0182136744 -0.0123658758 0.5519973040
  -1.0443694592 -0.0123019218 0.0005883053 0.0186417978 -0.0115624890 0.5112479329
  -1.5055360794 -0.0000047684 0.0011811554 0.0000105004 0.7071008682 -0.0000123766
  -2.1457829475 -0.0792666972 2.5121204853 0.0795319229 -0.4358264506 0.3166429996
  -1.6636137962 -0.0215022564 -0.0294224322 -0.1323002428 -0.3390547335 0.1692509800
  -1.2707849741 0.0000319481 0.0011649132 -0.0000000948 0.7071065903 -0.0000001725
  -1.1617163420 -0.4687229395 6.2216258049 0.4803776741 -0.5438483357 0.4272537827
  -1.4778443575 -0.0012535336 0.0014463961 0.0268109944 -0.0268564634 0.2610144019
  -0.9766070843 -0.0043323040 0.0003546327 0.2762082219 0.6432810426 0.2330486923
  0.0011339188 -0.0000032708 1.2383971214 -0.0000004992 -0.0000000354 -0.0000000484
  1.0011148453 -0.4596712589 3.6390309334 0.1633754075 -0.7046147585 0.1056701541
  -1.8531153202 0.0007345080 0.0014582574 0.0384744182 -0.0210313331 0.2334485501
  -1.0480560064 -0.0147853792 0.0012010336 0.0431203991 0.0045896112 0.6846182346
  -1.5055363178 -0.0000046492 0.0011818632 0.0000104714 0.7071008682 -0.0000123874
  -0.4064104557 8.1463708878 8.3328666687 0.0000000743 -0.0000006263 -1.0000000000
  25.1180553436 2.8241591454 6.6428484917 -0.3974164426 -0.5809818506 0.4508745372
}

frame 16 {
  -0.0000000251 -0.0000000089 0.0000013374 -0.7071068287 -0.0000000188 -0.0000000124
  -0.0175175872 4.5148844719 1.4526960850 -0.0000001064 0.0000000004 -1.0000000000
  -2.0376806259 -1.0987175703 0.5451019406 -0.0000000014 -0.0000001751 -0.0000000857
  2.5079936981 0.1487963647 3.5524599552 -0.0000000275 0.0000000224 0.0000000745
  -1.0437768698 1.6534482241 2.9099972248 0.8603851199 -0.1444021761 -0.0412308760
  -8.3812904358 0.0000033975 -0.0005168319 -0.0000000033 0.0000000037 0.0000001471
  -3.9075503349 -0.0000004768 0.0005269647 0.0000002372 -0.1172313616 0.2883720994
  -9.0582695007 -0.0000001043 0.0000075102 -0.3132552207 0.6782714128 0.1382192224
  -2.4121794701 -0.4690735340 4.9682645798 0.2278127223 -0.6577841640 0.2557729185
  -1.4861804247 -0.0092621855 0.0023763776 -0.0182543211 0.0115489243 0.4644548893
  -0.9848697186 -0.0127517805 0.0012267828 0.3776761889 0.5943308473 0.4060390890
  0.0011326969 -0.0000022799 1.2384005785 -0.0000005346 0.0000000249 -0.0000000140
  -0.0485567823 -0.4682631791 4.8929123878 0.2945401967 -0.6570017338 0.2687330842
  -1.8586759567 -0.0117372610 0.0021879077 0.0182136968 -0.0123658860 0.5519973040
  -1.0443673134 -0.0123051405 0.0005889535 0.0186418388 -0.0115624592 0.5112480521
  -1.5055364370 -0.0000054142 0.0011821464 0.0000104978 0.7071008682 -0.0000123838
  -2.1457817554 -0.0792668462 2.5121204853 0.0795319080 -0.4358264804 0.3166429698
  -1.6636127234 -0.0215020180 -0.0294201374 -0.1323003620 -0.3390546441 0.1692510247
  -1.2707822323 0.0000324249 0.0011659861 -0.0000000685 0.7071065903 -0.0000001528
  -1.1617159843 -0.4687232971 6.2216277122 0.4803776741 -0.5438483357 0.4272538126
  -1.4778445959 -0.0012500584 0.0014468282 0.0268109757 -0.0268564504 0.2610144317
  -0.9766048193 -0.0043326318 0.0003553331 0.2762081325 0.6432811618 0.2330487370
  0.0011333823 -0.0000022650 1.2383992672 -0.0000005001 -0.0000000317 -0.0000000447
  1.0011156797 -0.4596707821 3.6390330791 0.1633753926 -0.7046147585 0.1056701392
  -1.8531124592 0.0007331297 0.0014584512 0.0384743810 -0.0210313331 0.2334484607
  -1.0480585098 -0.0147859454 0.0012015514 0.0431203581 0.0045896051 0.6846181154
  -1.5055373907 -0.0000036508 0.0011824388 0.0000104946 0.7071008682 -0.0000124072
  -0.4064104557 8.1463708878 8.3328666687 0.0000000743 -0.0000006263 -1.0000000000
  24.9358177185 -1.2140523195 5.8002276421 -0.5073040128 -0.4445997477 0.5856698155
}

frame 17 {
  -0.0000000251 -0.0000000089 0.0000013374 -0.7071068287 -0.0000000188 -0.0000000124
  -0.0175175872 4.5148844719 1.4526960850 -0.0000001064 0.0000000004 -1.0000000000
  -2.0376806259 -1.0987175703 0.5451019406 -0.0000000014 -0.0000001751 -0.0000000857
  2.5079936981 0.1487963647 3.5524599552 -0.0000000275 0.0000000224 0.0000000745
  -1.0437767506 1.6534482241 2.9099972248 0.8673938513 -0.1283574998 0.0139637673
  -8.3812913895 0.0000031590 -0.0005167723 -0.0000000107 -0.0000000028 0.0000001416
  -3.9075503349 0.0000000894 0.0005266666 0.0000001278 -0.1308789849 0.2086732835
  -9.0582656860 0.0000003576 0.0000065565 -0.3382594585 0.5312039256 0.0735323951
  -2.4121799469 -0.4690732956 4.9682669640 0.2278127223 -0.6577842236 0.2557729185
  -1.4861794710 -0.0092613101 0.0023766756 -0.0182542820 0.0115489308 0.4644549489
  -0.9848703146 -0.0127527714 0.0012269020 0.3776762486 0.5943308473 0.4060392082
  0.0011318624 -0.0000020564 1.2383999825 -0.0000005607 0.0000000549 -0.0000000047
  -0.0485567451 -0.4682630301 4.8929123878 0.2945401371 -0.6570016146 0.2687330544
  -1.8586757183 -0.0117337704 0.0021880269 0.0182137005 -0.0123658944 0.5519972444
  -1.0443669558 -0.0123022795 0.0005878806 0.0186418630 -0.0115624731 0.5112479329
  -1.5055363178 -0.0000050664 0.0011819005 0.0000105109 0.7071008682 -0.0000123795
  -2.1457822323 -0.0792667940 2.5121223927 0.0795319304 -0.4358265102 0.3166429400
  -1.6636116505 -0.0215018690 -0.0294216275 -0.1323003024 -0.3390546441 0.1692509502
  -1.2707830667 0.0000372529 0.0011667013 -0.0000000843 0.7071065903 -0.0000001923
  -1.1617159843 -0.4687216878 6.2216248512 0.4803776741 -0.5438483357 0.4272537529
  -1.4778445959 -0.0012522042 0.0014456511 0.0268109664 -0.0268564094 0.2610144913
  -0.9766035676 -0.0043369532 0.0003568530 0.2762081921 0.6432812214 0.2330488414
  0.0011329055 -0.0000016689 1.2383993864 -0.0000005029 -0.0000000298 -0.0000000447
  1.0011146069 -0.4596700072 3.6390316486 0.1633753777 -0.7046148181 0.1056701392
  -1.8531155586 0.0007339716 0.0014588237 0.0384743921 -0.0210313350 0.2334485948
  -1.0480589867 -0.0147852898 0.0012019724 0.0431204140 0.0045896098 0.6846182346
  -1.5055356026 -0.0000033379 0.0011803210 0.0000104695 0.7071008682 -0.0000124056
  -0.4064104557 8.1463708878 8.3328666687 0.0000000743 -0.0000006263 -1.0000000000
  23.5176887512 -4.7842922211 4.8725962639 -0.5979171991 -0.2635546923 0.6918272972
}

frame 18 {
  -0.0000000251 -0.0000000089 0.0000013374 -0.7071068287 -0.0000000188 -0.0000000124
  -0.0175175872 4.5148844719 1.4526960850 -0.0000001064 0.0000000004 -1.0000000000
  -2.0376806259 -1.0987175703 0.5451019406 -0.0000000014 -0.0000001751 -0.0000000857
  2.5079936981 0.1487963647 3.5524599552 -0.0000000275 0.0000000224 0.0000000745
  -1.0437766314 1.6534482241 2.9099972248 0.8714379668 -0.1137890592 0.0716268793
  -8.3812894821 0.0000019073 -0.0005168915 0.0000000028 -0.0000000012 0.0000001388
  -3.9075486660 0.0000003874 0.0005274117 0.0000000878 -0.0988086984 0.1315443218
  -9.0582656860 0.0000003576 0.0000065565 -0.3386928439 0.3999444842 0.0379700437
  -2.4121799469 -0.4690735340 4.9682655334 0.2278127223 -0.6577842236 0.2557729483
  -1.4861800671 -0.0092575550 0.0023779273 -0.0182543043 0.0115489094 0.4644548595
  -0.9848700762 -0.0127523541 0.0012265444 0.3776762784 0.5943309665 0.4060390592
  0.0011303425 -0.0000028014 1.2383968830 -0.0000005686 0.0000000224 -0.0000000168
  -0.0485568643 -0.4682632983 4.8929109573 0.2945401371 -0.6570016146 0.2687331140
  -1.8586747646 -0.0117359161 0.0021848083 0.0182136968 -0.0123658283 0.5519972444
  -1.0443675518 -0.0123023987 0.0005856156 0.0186418239 -0.0115623930 0.5112479329
  -1.5055381060 -0.0000053644 0.0011816621 0.0000105011 0.7071008682 -0.0000123779
  -2.1457819939 -0.0792662799 2.5121197701 0.0795318931 -0.4358264804 0.3166430295
  -1.6636127234 -0.0215002596 -0.0294213891 -0.1323003322 -0.3390546143 0.1692509800
  -1.2707839012 0.0000321269 0.0011661053 -0.0000000803 0.7071065903 -0.0000001752
  -1.1617177725 -0.4687226117 6.2216253281 0.4803776443 -0.5438482761 0.4272537231
  -1.4778447151 -0.0012526512 0.0014467239 0.0268109739 -0.0268563982 0.2610145211
  -0.9766037464 -0.0043357611 0.0003561676 0.2762081921 0.6432811022 0.2330487669
  0.0011370778 -0.0000017881 1.2383997440 -0.0000005165 -0.0000000298 -0.0000000512
  1.0011148453 -0.4596700072 3.6390309334 0.1633753628 -0.7046147585 0.1056701243
  -1.8531157970 0.0007338524 0.0014593005 0.0384743810 -0.0210313220 0.2334485799
  -1.0480561256 -0.0147862434 0.0012031049 0.0431203544 0.0045896238 0.6846181750
  -1.5055365562 -0.0000047684 0.0011831224 0.0000104866 0.7071008682 -0.0000124082
  -0.4064104557 8.1463708878 8.3328666687 0.0000000743 -0.0000006263 -1.0000000000
  21.9828548431 -6.5532913208 4.1623988152 -0.6368266344 -0.1265746206 0.7351562977
}

frame 19 {
  -0.0000000251 -0.0000000089 0.0000013374 -0.7071068287 -0.0000000188 -0.0000000124
  -0.0175175872 4.5148844719 1.4526960850 -0.0000001064 0.0000000004 -1.0000000000
  -2.0376806259 -1.0987175703 0.5451019406 -0.0000000014 -0.0000001751 -0.0000000857
  2.5079936981 0.1487963647 3.5524599552 -0.0000000275 0.0000000224 0.0000000745
  -1.0437765121 1.6534482241 2.9099972248 0.8722533584 -0.1066015065 0.0983448327
  -8.3812904358 0.0000038147 -0.0005171299 -0.0000000233 0.0000000158 0.0000001406
  -3.9075498581 -0.0000007004 0.0005263090 0.0000000401 -0.0738661289 0.0939001143
  -9.0582685471 0.0000001192 0.0000081062 -0.3352773786 0.3500424623 0.0346369632
  -2.4121825695 -0.4690741301 4.9682650566 0.2278127223 -0.6577842236 0.2557729185
  -1.4861810207 -0.0092582703 0.0023728013 -0.0182543062 0.0115489298 0.4644548893
  -0.9848691821 -0.0127541721 0.0012269020 0.3776762187 0.5943308473 0.4060390890
  0.0011337996 -0.0000023097 1.2383995056 -0.0000005513 0.0000000037 -0.0000000149
  -0.0485562682 -0.4682636261 4.8929104805 0.2945401371 -0.6570016742 0.2687330544
  -1.8586759567 -0.0117359161 0.0021900535 0.0182136893 -0.0123658953 0.5519972444
  -1.0443673134 -0.0123028755 0.0005865097 0.0186418388 -0.0115625430 0.5112479925
  -1.5055369139 -0.0000050068 0.0011810660 0.0000105011 0.7071008682 -0.0000123687
  -2.1457834244 -0.0792672634 2.5121197701 0.0795319006 -0.4358265102 0.3166430295
  -1.6636109352 -0.0214999914 -0.0294202566 -0.1323003769 -0.3390547335 0.1692510545
  -1.2707837820 0.0000303388 0.0011646748 -0.0000000803 0.7071065903 -0.0000001620
  -1.1617176533 -0.4687232971 6.2216243744 0.4803776741 -0.5438483357 0.4272538126
  -1.4778449535 -0.0012509227 0.0014478862 0.0268109944 -0.0268564876 0.2610144317
  -0.9766051769 -0.0043367147 0.0003563166 0.2762081325 0.6432811022 0.2330487669
  0.0011312068 -0.0000022650 1.2383999825 -0.0000004973 -0.0000000242 -0.0000000466
  1.0011153221 -0.4596710205 3.6390309334 0.1633753926 -0.7046147585 0.1056701019
  -1.8531155586 0.0007336140 0.0014583170 0.0384743661 -0.0210313350 0.2334486097
  -1.0480568409 -0.0147855282 0.0012036413 0.0431203544 0.0045895693 0.6846182942
  -1.5055364370 -0.0000052452 0.0011805594 0.0000104728 0.7071008682 -0.0000123858
  -0.4064104557 8.1463708878 8.3328666687 0.0000000743 -0.0000006263 -1.0000000000
  21.4283103943 -6.9822559357 3.8993372917 -0.6449532509 -0.0811054185 0.7435560822
}

frame 20 {
  -0.0000000251 -0.0000000089 0.0000013374 -0.7071068287 -0.0000000188 -0.0000000124
  -0.0175175872 4.5148844719 1.4526960850 -0.0000001064 0.0000000004 -1.0000000000
  -2.0376806259 -1.0987175703 0.5451019406 -0.0000000014 -0.0000001751 -0.0000000857
  2.5079936981 0.1487963647 3.5524599552 -0.0000000275 0.0000000224 0.0000000745
  -1.0437767506 1.6534482241 2.9099972248 0.8695766330 -0.1296784580 0.0481394082
  -8.3812904358 0.0000033379 -0.0005166531 0.0000000019 0.0000000056 0.0000001341
  -3.9075493813 -0.0000009388 0.0005266666 0.0000001765 -0.1356642395 0.1978388131
  -9.0582637787 0.0000016689 0.0000094175 -0.3526222408 0.4153815806 -0.0110942796
  -2.4121794701 -0.4690746069 4.9682650566 0.2278126925 -0.6577841640 0.2557729483
  -1.4861810207 -0.0092601776 0.0023775101 -0.0182543434 0.0115488330 0.4644549489
  -0.9848701954 -0.0127532184 0.0012278557 0.3776763082 0.5943307281 0.4060391188
  0.0011310279 -0.0000023693 1.2383989096 -0.0000005681 0.0000000163 -0.0000000140
  -0.0485538244 -0.4682633579 4.8929100037 0.2945401073 -0.6570016146 0.2687330842
  -1.8586771488 -0.0117383003 0.0021879375 0.0182136875 -0.0123658860 0.5519972444
  -1.0443685055 -0.0123008490 0.0005914867 0.0186418667 -0.0115624499 0.5112479329
  -1.5055381060 -0.0000048280 0.0011808872 0.0000104971 0.7071008682 -0.0000123805
  -2.1457796097 -0.0792672485 2.5121183395 0.0795319080 -0.4358264208 0.3166430295
  -1.6636122465 -0.0215009153 -0.0294223428 -0.1323003322 -0.3390546441 0.1692509651
  -1.2707839012 0.0000355840 0.0011675358 -0.0000000751 0.7071065903 -0.0000001923
  -1.1617127657 -0.4687234461 6.2216229439 0.4803776443 -0.5438482761 0.4272538126
  -1.4778442383 -0.0012539625 0.0014453828 0.0268110000 -0.0268564690 0.2610144913
  -0.9766047001 -0.0043342113 0.0003554821 0.2762082517 0.6432810426 0.2330487818
  0.0011310279 -0.0000019670 1.2383985519 -0.0000005043 -0.0000000168 -0.0000000474
  1.0011167526 -0.4596714973 3.6390304565 0.1633753777 -0.7046147585 0.1056701615
  -1.8531137705 0.0007333755 0.0014562607 0.0384743847 -0.0210313443 0.2334485203
  -1.0480577946 -0.0147864819 0.0012028366 0.0431203917 0.0045896377 0.6846181750
  -1.5055348873 -0.0000057220 0.0011852607 0.0000105182 0.7071008682 -0.0000123634
  -0.4064104557 8.1463708878 8.3328666687 0.0000000743 -0.0000006263 -1.0000000000
  21.7238082886 -6.4388313293 4.0031781197 -0.6425082088 -0.1344105452 0.7282516360
}

frame 21 {
  -0.0000000251 -0.0000000089 0.0000013374 -0.7071068287 -0.0000000188 -0.0000000124
  -0.0175175872 4.5148844719 1.4526960850 -0.0000001064 0.0000000004 -1.0000000000
  -2.0376806259 -1.0987175703 0.5451019406 -0.0000000014 -0.0000001751 -0.0000000857
  2.5079936981 0.1487963647 3.5524599552 -0.0000000275 0.0000000224 0.0000000745
  -1.0437769890 1.6534484625 2.9099972248 0.8546531200 -0.1881722957 -0.0233518239
  -8.3812904358 0.0000034571 -0.0005171299 0.0000000037 -0.0000000037 0.0000001341
  -3.9075496197 0.0000004545 0.0005278289 0.0000003292 -0.1616044790 0.3928623497
  -9.0582656860 -0.0000010729 0.0000076890 -0.3869508207 0.5460910797 -0.0515434109
  -2.4121811390 -0.4690741003 4.9682674408 0.2278127074 -0.6577841640 0.2557729781
  -1.4861779213 -0.0092588663 0.0023772418 -0.0182543546 0.0115489522 0.4644549489
  -0.9848690629 -0.0127536058 0.0012256205 0.3776761889 0.5943308473 0.4060391188
  0.0011325777 -0.0000025183 1.2383992672 -0.0000005551 0.0000000298 -0.0000000037
  -0.0485584438 -0.4682640433 4.8929114342 0.2945401371 -0.6570016146 0.2687330544
  -1.8586746454 -0.0117341280 0.0021875352 0.0182136782 -0.0123659512 0.5519972444
  -1.0443663597 -0.0123021603 0.0005887896 0.0186418612 -0.0115625169 0.5112479329
  -1.5055385828 -0.0000053048 0.0011808872 0.0000105080 0.7071008682 -0.0000123753
  -2.1457827091 -0.0792673230 2.5121202469 0.0795318931 -0.4358264208 0.3166429698
  -1.6636116505 -0.0215017572 -0.0294209123 -0.1323003322 -0.3390546441 0.1692510098
  -1.2707835436 0.0000325441 0.0011660457 -0.0000000580 0.7071065903 -0.0000001976
  -1.1617171764 -0.4687229395 6.2216262817 0.4803776741 -0.5438483357 0.4272538424
  -1.4778447151 -0.0012509525 0.0014459565 0.0268109981 -0.0268564988 0.2610144019
  -0.9766039848 -0.0043355227 0.0003546476 0.2762082517 0.6432811022 0.2330487072
  0.0011321306 -0.0000020862 1.2383981943 -0.0000005215 -0.0000000475 -0.0000000522
  1.0011146069 -0.4596708417 3.6390314102 0.1633753926 -0.7046147585 0.1056701615
  -1.8531160355 0.0007333755 0.0014584593 0.0384744108 -0.0210313108 0.2334486693
  -1.0480570793 -0.0147848129 0.0012020767 0.0431203544 0.0045896554 0.6846182942
  -1.5055341721 -0.0000067949 0.0011827201 0.0000104997 0.7071008682 -0.0000124207
  -0.4064104557 8.1463708878 8.3328666687 0.0000000743 -0.0000006263 -1.0000000000
  22.3993625641 -4.3393774033 4.4282937050 -0.6162031293 -0.2934329510 0.6601229310
}

frame 22 {
  -0.0000000251 -0.0000000089 0.0000013374 -0.7071068287 -0.0000000188 -0.0000000124
  -0.0175175872 4.5148844719 1.4526960850 -0.0000001064 0.0000000004 -1.0000000000
  -2.0376806259 -1.0987175703 0.5451019406 -0.0000000014 -0.0000001751 -0.0000000857
  2.5079936981 0.1487963647 3.5524599552 -0.0000000275 0.0000000224 0.0000000745
  -1.0437774658 1.6534487009 2.9099981785 0.8245060444 -0.2752172351 -0.0550020710
  -8.3812923431 0.0000040829 -0.0005166233 0.0000000149 -0.0000000037 0.0000001267
  -3.9075446129 0.0000036657 0.0005302429 0.0000004723 -0.0338875949 0.5821889043
  -9.0582656860 -0.0000009835 0.0000076294 -0.4072566628 0.6465342045 -0.0389902294
  -2.4121797085 -0.4690742493 4.9682655334 0.2278126925 -0.6577842236 0.2557729483
  -1.4861809015 -0.0092610531 0.0023763217 -0.0182543397 0.0115489215 0.4644549191
  -0.9848704934 -0.0127530545 0.0012266636 0.3776761889 0.5943309665 0.4060391784
  0.0011329949 -0.0000018477 1.2383981943 -0.0000005394 0.0000000270 -0.0000000105
  -0.0485564470 -0.4682638943 4.8929109573 0.2945401073 -0.6570016742 0.2687330842
  -1.8586765528 -0.0117368512 0.0021871328 0.0182136577 -0.0123658879 0.5519973040
  -1.0443676710 -0.0123024099 0.0005885214 0.0186418053 -0.0115624573 0.5112479925
  -1.5055360794 -0.0000049071 0.0011816509 0.0000105029 0.7071008682 -0.0000123784
  -2.1457817554 -0.0792669356 2.5121202469 0.0795319453 -0.4358264804 0.3166430295
  -1.6636106968 -0.0215014219 -0.0294202715 -0.1323003173 -0.3390546441 0.1692510396
  -1.2707829475 0.0000296831 0.0011651516 -0.0000000948 0.7071065903 -0.0000001791
  -1.1617157459 -0.4687227905 6.2216267586 0.4803776741 -0.5438483357 0.4272538126
  -1.4778447151 -0.0012505054 0.0014463663 0.0268109553 -0.0268564653 0.2610144019
  -0.9766047001 -0.0043357611 0.0003552437 0.2762082517 0.6432810426 0.2330487669
  0.0011331886 -0.0000021756 1.2384006977 -0.0000005097 -0.0000000340 -0.0000000512
  1.0011159182 -0.4596710205 3.6390330791 0.1633753926 -0.7046147585 0.1056701466
  -1.8531136513 0.0007355809 0.0014584661 0.0384743959 -0.0210313275 0.2334485948
  -1.0480585098 -0.0147869140 0.0012016892 0.0431203805 0.0045896210 0.6846181750
  -1.5055377483 -0.0000059260 0.0011819601 0.0000104925 0.7071008682 -0.0000123835
  -0.4064104557 8.1463708878 8.3328666687 0.0000000743 -0.0000006263 -1.0000000000
  22.1935558319 -0.6163592339 5.4509654045 -0.5367877483 -0.4880687594 0.5209172964
}

frame 23 {
  -0.0000000251 -0.0000000089 0.0000013374 -0.7071068287 -0.0000000188 -0.0000000124
  -0.0175175872 4.5148844719 1.4526960850 -0.0000001064 0.0000000004 -1.0000000000
  -2.0376806259 -1.0987175703 0.5451019406 -0.0000000014 -0.0000001751 -0.0000000857
  2.5079936981 0.1487963647 3.5524599552 -0.0000000275 0.0000000224 0.0000000745
  -1.0437775850 1.6534491777 2.9099981785 0.7867684364 -0.3558484614 -0.0365725793
  -8.3812904358 0.0000036508 -0.0005169511 -0.0000000037 -0.0000000075 0.0000001416
  -3.9075484276 -0.0000008345 0.0005254745 0.0000005779 0.2052720636 0.6607008576
  -9.0582656860 0.0000016391 0.0000077486 -0.3621842265 0.6777427793 -0.0239912681
  -2.4121799469 -0.4690740108 4.9682664871 0.2278127521 -0.6577842832 0.2557728887
  -1.4861795902 -0.0092613697 0.0023775101 -0.0182543471 0.0115489215 0.4644548595
  -0.9848704934 -0.0127552748 0.0012261868 0.3776762187 0.5943309665 0.4060390890
  0.0011329651 -0.0000017881 1.2383983135 -0.0000005346 0.0000000112 -0.0000000130
  -0.0485560894 -0.4682627022 4.8929114342 0.2945401371 -0.6570016146 0.2687330842
  -1.8586781025 -0.0117377043 0.0021865368 0.0182136819 -0.0123659028 0.5519973040
  -1.0443664789 -0.0123057365 0.0005878210 0.0186418630 -0.0115624890 0.5112479329
  -1.5055361986 -0.0000049472 0.0011817813 0.0000105017 0.7071008682 -0.0000123800
  -2.1457817554 -0.0792663395 2.5121204853 0.0795319155 -0.4358264506 0.3166429996
  -1.6636102200 -0.0215015411 -0.0294196159 -0.1323003769 -0.3390545845 0.1692509949
  -1.2707833052 0.0000307560 0.0011656284 -0.0000000843 0.7071065903 -0.0000001818
  -1.1617150307 -0.4687224925 6.2216262817 0.4803777039 -0.5438483357 0.4272538424
  -1.4778444767 -0.0012534261 0.0014461279 0.0268109739 -0.0268564336 0.2610144317
  -0.9766056538 -0.0043340921 0.0003556944 0.2762081027 0.6432811022 0.2330486923
  0.0011330843 -0.0000013709 1.2383985519 -0.0000005327 -0.0000000377 -0.0000000475
  1.0011162758 -0.4596698284 3.6390323639 0.1633753479 -0.7046147585 0.1056701466
  -1.8531150818 0.0007362813 0.0014567375 0.0384744033 -0.0210312903 0.2334485501
  -1.0480585098 -0.0147841722 0.0012024045 0.0431203879 0.0045896471 0.6846181750
  -1.5055346489 -0.0000031590 0.0011816025 0.0000104611 0.7071008682 -0.0000124306
  -0.4064104557 8.1463708878 8.3328666687 0.0000000743 -0.0000006263 -1.0000000000
  20.5780525208 2.4468243122 6.9559512138 -0.4500401318 -0.6061233282 0.3908774257
}

frame 24 {
  -0.0000000251 -0.0000000089 0.0000013374 -0.7071068287 -0.0000000188 -0.0000000124
  -0.0175175872 4.5148844719 1.4526960850 -0.0000001064 0.0000000004 -1.0000000000
  -2.0376806259 -1.0987175703 0.5451019406 -0.0000000014 -0.0000001751 -0.0000000857
  2.5079936981 0.1487963647 3.5524599552 -0.0000000275 0.0000000224 0.0000000745
  -1.0437777042 1.6534496546 2.9099981785 0.7446576953 -0.4139883220 0.0041442062
  -8.3812923431 0.0000032783 -0.0005156994 -0.0000000037 -0.0000000075 0.0000001248
  -3.9075472355 -0.0000005364 0.0005259514 0.0000003863 0.4387476742 0.6144564748
  -9.0582656860 0.0000018477 0.0000071526 -0.2597406209 0.6525828838 -0.0499071032
  -2.4121818542 -0.4690737128 4.9682641029 0.2278126925 -0.6577842236 0.2557729483
  -1.4861788750 -0.0092619658 0.0023770332 -0.0182543341 0.0115489289 0.4644549191
  -0.9848694801 -0.0127545595 0.0012269020 0.3776762486 0.5943308473 0.4060391188
  0.0011330843 -0.0000017881 1.2383959293 -0.0000005495 0.0000000186 -0.0000000177
  -0.0485577583 -0.4682630897 4.8929109573 0.2945401073 -0.6570015550 0.2687331438
  -1.8586752415 -0.0117348433 0.0021871328 0.0182136148 -0.0123658618 0.5519973040
  -1.0443669558 -0.0123021603 0.0005894899 0.0186417438 -0.0115623986 0.5112479329
  -1.5055369139 -0.0000053048 0.0011820197 0.0000105044 0.7071008682 -0.0000123795
  -2.1457822323 -0.0792672634 2.5121192932 0.0795318931 -0.4358264208 0.3166429698
  -1.6636121273 -0.0215013027 -0.0294206291 -0.1323003024 -0.3390546143 0.1692510396
  -1.2707831860 0.0000307560 0.0011658669 -0.0000000948 0.7071065903 -0.0000001844
  -1.1617168188 -0.4687226415 6.2216238976 0.4803776443 -0.5438482761 0.4272538424
  -1.4778456688 -0.0012533069 0.0014460087 0.0268110093 -0.0268564671 0.2610144913
  -0.9766051769 -0.0043382645 0.0003551245 0.2762083113 0.6432810426 0.2330487520
  0.0011332631 -0.0000022054 1.2383966446 -0.0000005104 -0.0000000210 -0.0000000484
  1.0011148453 -0.4596697688 3.6390304565 0.1633753777 -0.7046146989 0.1056701541
  -1.8531161547 0.0007313192 0.0014588833 0.0384744070 -0.0210312866 0.2334486544
  -1.0480582714 -0.0147845745 0.0012017488 0.0431203544 0.0045896331 0.6846182346
  -1.5055360794 -0.0000059605 0.0011822283 0.0000104866 0.7071008682 -0.0000123865
  -0.4064104557 8.1463708878 8.3328666687 0.0000000743 -0.0000006263 -1.0000000000
  19.0169715881 3.4530072212 8.3980808258 -0.4173506200 -0.6389289498 0.3445940316
}

frame 25 {
  -0.0000000251 -0.0000000089 0.0000013374 -0.7071068287 -0.0000000188 -0.0000000124
  -0.0175175872 4.5148844719 1.4526960850 -0.0000001064 0.0000000004 -1.0000000000
  -2.0376806259 -1.0987175703 0.5451019406 -0.0000000014 -0.0000001751 -0.0000000857
  2.5079936981 0.1487963647 3.5524599552 -0.0000000275 0.0000000224 0.0000000745
  -1.0437777042 1.6534503698 2.9099981785 0.6597249508 -0.4884980023 0.0371195115
  -8.3812904358 0.0000029504 -0.0005159378 -0.0000000019 0.0000000112 0.0000001341
  -3.9075469971 -0.0000014305 0.0005266666 0.0000003429 0.6111882925 0.5062124729
  -9.0582647324 0.0000008717 0.0000061989 -0.1233673915 0.5981936455 -0.1268623173
  -2.4121794701 -0.4690746665 4.9682664871 0.2278126925 -0.6577842236 0.2557728887
  -1.4861803055 -0.0092608929 0.0023763776 -0.0182543881 0.0115489354 0.4644548893
  -0.9848685265 -0.0127530098 0.0012270212 0.3776761591 0.5943308473 0.4060391784
  0.0011337996 -0.0000028610 1.2383968830 -0.0000005476 0.0000000065 -0.0000000037
  -0.0485557318 -0.4682641923 4.8929128647 0.2945401073 -0.6570016146 0.2687331140
  -1.8586773872 -0.0117370486 0.0021871328 0.0182136800 -0.0123659000 0.5519973040
  -1.0443652868 -0.0123039484 0.0005890131 0.0186418239 -0.0115624769 0.5112479925
  -1.5055344105 -0.0000059307 0.0011815429 0.0000105016 0.7071008682 -0.0000123795
  -2.1457815170 -0.0792678595 2.5121221542 0.0795319080 -0.4358264208 0.3166429698
  -1.6636109352 -0.0215013027 -0.0294202268 -0.1323003620 -0.3390546143 0.1692510396
  -1.2707852125 0.0000333786 0.0011656284 -0.0000000500 0.7071065903 -0.0000001739
  -1.1617143154 -0.4687234759 6.2216277122 0.4803777039 -0.5438482761 0.4272538126
  -1.4778444767 -0.0012525320 0.0014461279 0.0268109757 -0.0268564746 0.2610144317
  -0.9766061306 -0.0043362379 0.0003550053 0.2762081921 0.6432811022 0.2330486923
  0.0011331216 -0.0000019670 1.2383990288 -0.0000005132 -0.0000000270 -0.0000000531
  1.0011162758 -0.4596710801 3.6390318871 0.1633753926 -0.7046147585 0.1056701392
  -1.8531156778 0.0007338747 0.0014582872 0.0384744219 -0.0210312810 0.2334485650
  -1.0480585098 -0.0147898942 0.0012013391 0.0431203768 0.0045896750 0.6846182346
  -1.5055370331 -0.0000041127 0.0011819601 0.0000105190 0.7071008682 -0.0000124126
  -0.4064104557 8.1463708878 8.3328666687 0.0000000743 -0.0000006263 -1.0000000000
  17.7793846130 2.2223017216 10.0342693329 -0.4480761886 -0.6116333604 0.3782464862
}

frame 26 {
  -0.0000000251 -0.0000000089 0.0000013374 -0.7071068287 -0.0000000188 -0.0000000124
  -0.0175175872 4.5148844719 1.4526960850 -0.0000001064 0.0000000004 -1.0000000000
  -2.0376806259 -1.0987175703 0.5451019406 -0.0000000014 -0.0000001751 -0.0000000857
  2.5079936981 0.1487963647 3.5524599552 -0.0000000275 0.0000000224 0.0000000745
  -1.0437773466 1.6534515619 2.9099981785 0.4758405685 -0.6031649113 0.0453784131
  -8.3812913895 0.0000033379 -0.0005165339 -0.0000000019 -0.0000000112 0.0000001565
  -3.9075484276 -0.0000016689 0.0005259514 0.0000003748 0.6693089604 0.4432125688
  -9.0582656860 0.0000012815 0.0000061989 0.0004505554 0.5723897219 -0.2467487156
  -2.4121797085 -0.4690734446 4.9682664871 0.2278126925 -0.6577842236 0.2557729781
  -1.4861803055 -0.0092640705 0.0023768544 -0.0182543360 0.0115489177 0.4644548893
  -0.9848697782 -0.0127536952 0.0012266338 0.3776762486 0.5943309665 0.4060391486
  0.0011332035 -0.0000029504 1.2383987904 -0.0000005583 0.0000000312 -0.0000000121
  -0.0485563278 -0.4682628512 4.8929133415 0.2945401371 -0.6570016146 0.2687331140
  -1.8586745262 -0.0117371185 0.0021876395 0.0182136670 -0.0123658730 0.5519973040
  -1.0443686247 -0.0123028047 0.0005888864 0.0186418016 -0.0115624759 0.5112479329
  -1.5055371523 -0.0000045141 0.0011817366 0.0000105039 0.7071008682 -0.0000123769
  -2.1457817554 -0.0792658478 2.5121216774 0.0795318931 -0.4358264208 0.3166429698
  -1.6636118889 -0.0215015411 -0.0294210911 -0.1323003471 -0.3390546143 0.1692510098
  -1.2707850933 0.0000298023 0.0011670589 -0.0000000738 0.7071065903 -0.0000001264
  -1.1617153883 -0.4687225819 6.2216272354 0.4803776443 -0.5438482761 0.4272537827
  -1.4778439999 -0.0012494819 0.0014461875 0.0268109888 -0.0268564709 0.2610144317
  -0.9766066074 -0.0043334607 0.0003553629 0.2762082517 0.6432811022 0.2330487818
  0.0011330247 -0.0000027469 1.2383956909 -0.0000005146 -0.0000000299 -0.0000000519
  1.0011161566 -0.4596704245 3.6390318871 0.1633753926 -0.7046147585 0.1056701690
  -1.8531156778 0.0007338524 0.0014584363 0.0384743847 -0.0210313182 0.2334485203
  -1.0480567217 -0.0147850066 0.0012015700 0.0431203879 0.0045896065 0.6846182942
  -1.5055351257 -0.0000048652 0.0011816025 0.0000105123 0.7071008682 -0.0000123884
  -0.4064104557 8.1463708878 8.3328666687 0.0000000743 -0.0000006263 -1.0000000000
  16.2371120453 -1.3812429905 12.2373056412 -0.5309082866 -0.5198476911 0.4709975123
}

frame 27 {
  -0.0000000251 -0.0000000089 0.0000013374 -0.7071068287 -0.0000000188 -0.0000000124
  -0.0175175872 4.5148844719 1.4526960850 -0.0000001064 0.0000000004 -1.0000000000
  -2.0376806259 -1.0987175703 0.5451019406 -0.0000000014 -0.0000001751 -0.0000000857
  2.5079936981 0.1487963647 3.5524599552 -0.0000000275 0.0000000224 0.0000000745
  -1.0437767506 1.6534522772 2.9099991322 0.2521648407 -0.6578847170 0.0363590494
  -8.3812904358 0.0000031292 -0.0005169660 -0.0000000041 -0.0000000016 0.0000001350
  -3.9075527191 0.0000004768 0.0005268604 0.0000005091 0.5668394566 0.5138730407
  -9.0582656860 0.0000014305 0.0000070930 0.0539296567 0.6255207062 -0.3238123059
  -2.4121794701 -0.4690751731 4.9682655334 0.2278127223 -0.6577842236 0.2557729483
  -1.4861779213 -0.0092610121 0.0023772269 -0.0182543471 0.0115488898 0.4644548595
  -0.9848691821 -0.0127561688 0.0012262464 0.3776761889 0.5943307877 0.4060391486
  0.0011338592 -0.0000031274 1.2383995056 -0.0000005635 0.0000000326 -0.0000000073
  -0.0485568643 -0.4682636857 4.8929114342 0.2945401669 -0.6570016742 0.2687331140
  -1.8586755991 -0.0117350817 0.0021881461 0.0182136819 -0.0123658646 0.5519973040
  -1.0443685055 -0.0123035908 0.0005889535 0.0186418276 -0.0115624657 0.5112479329
  -1.5055387020 -0.0000050813 0.0011814199 0.0000105044 0.7071008682 -0.0000123752
  -2.1457815170 -0.0792667270 2.5121202469 0.0795319080 -0.4358264208 0.3166430295
  -1.6636102200 -0.0215009451 -0.0294207335 -0.1323003322 -0.3390546143 0.1692509800
  -1.2707866430 0.0000321865 0.0011658370 -0.0000000823 0.7071065903 -0.0000001933
  -1.1617156267 -0.4687235355 6.2216258049 0.4803776741 -0.5438483357 0.4272538126
  -1.4778444767 -0.0012518167 0.0014458895 0.0268109851 -0.0268565174 0.2610144317
  -0.9766038656 -0.0043365955 0.0003544986 0.2762081921 0.6432810426 0.2330487370
  0.0011332035 -0.0000024438 1.2383989096 -0.0000005309 -0.0000000237 -0.0000000596
  1.0011154413 -0.4596710205 3.6390306950 0.1633753777 -0.7046147585 0.1056701541
  -1.8531128168 0.0007328987 0.0014588833 0.0384744182 -0.0210313313 0.2334486246
  -1.0480575562 -0.0147871971 0.0012016296 0.0431203507 0.0045896098 0.6846182346
  -1.5055348873 -0.0000046491 0.0011818409 0.0000105287 0.7071008682 -0.0000123937
  -0.4064104557 8.1463708878 8.3328666687 0.0000000743 -0.0000006263 -1.0000000000
  14.0322599411 -5.9772014618 14.5594196320 -0.6185687184 -0.3764756024 0.5743074417
}

frame 28 {
  -0.0000000251 -0.0000000089 0.0000013374 -0.7071068287 -0.0000000188 -0.0000000124
  -0.0175175872 4.5148844719 1.4526960850 -0.0000001064 0.0000000004 -1.0000000000
  -2.0376806259 -1.0987175703 0.5451019406 -0.0000000014 -0.0000001751 -0.0000000857
  2.5079936981 0.1487963647 3.5524599552 -0.0000000275 0.0000000224 0.0000000745
  -1.0437761545 1.6534525156 2.9099991322 0.1251202375 -0.6369547248 0.0692250058
  -8.3812913895 0.0000034720 -0.0005166829 0.0000000028 0.0000000005 0.0000001532
  -3.9075460434 0.0000008941 0.0005260855 0.0000003889 0.4563710093 0.5379309654
  -9.0582647324 0.0000005960 0.0000059605 0.1056321487 0.6646379828 -0.3290618360
  -2.4121789932 -0.4690745473 4.9682660103 0.2278126925 -0.6577841640 0.2557729483
  -1.4861800671 -0.0092604160 0.0023764074 -0.0182543788 0.0115489373 0.4644549191
  -0.9848695993 -0.0127559900 0.0012270808 0.3776761293 0.5943309069 0.4060391486
  0.0011335611 -0.0000020266 1.2383987904 -0.0000005495 0.0000000546 -0.0000000224
  -0.0485552400 -0.4682619572 4.8929114342 0.2945401073 -0.6570016146 0.2687330842
  -1.8586778641 -0.0117359161 0.0021880865 0.0182136800 -0.0123658897 0.5519974232
  -1.0443665981 -0.0123023987 0.0005886108 0.0186417960 -0.0115624573 0.5112480521
  -1.5055375099 -0.0000051856 0.0011817813 0.0000105050 0.7071008682 -0.0000123772
  -2.1457805634 -0.0792646855 2.5121209621 0.0795318782 -0.4358264506 0.3166429996
  -1.6636104584 -0.0214993954 -0.0294213146 -0.1323003322 -0.3390545547 0.1692509651
  -1.2707843781 0.0000326633 0.0011672974 -0.0000000685 0.7071065903 -0.0000001686
  -1.1617146730 -0.4687225819 6.2216248512 0.4803777039 -0.5438483357 0.4272537827
  -1.4778428078 -0.0012507439 0.0014470816 0.0268109851 -0.0268564671 0.2610144317
  -0.9766061306 -0.0043373108 0.0003553778 0.2762082517 0.6432810426 0.2330488116
  0.0011335611 -0.0000007153 1.2384009361 -0.0000005327 -0.0000000186 -0.0000000615
  1.0011166334 -0.4596700668 3.6390306950 0.1633753479 -0.7046147585 0.1056701541
  -1.8531141281 0.0007348061 0.0014584064 0.0384743772 -0.0210313853 0.2334485948
  -1.0480573177 -0.0147862434 0.0012015104 0.0431204140 0.0045895563 0.6846182346
  -1.5055356026 -0.0000042915 0.0011817217 0.0000104839 0.7071008682 -0.0000123884
  -0.4064104557 8.1463708878 8.3328666687 0.0000000743 -0.0000006263 -1.0000000000
  11.9761409760 -9.2113237381 16.2376441956 -0.6652234793 -0.2564797401 0.6341603398
}

frame 29 {
  -0.0000000251 -0.0000000089 0.0000013374 -0.7071068287 -0.0000000188 -0.0000000124
  -0.0175175872 4.5148844719 1.4526960850 -0.0000001064 0.0000000004 -1.0000000000
  -2.0376806259 -1.0987175703 0.5451019406 -0.0000000014 -0.0000001751 -0.0000000857
  2.5079936981 0.1487963647 3.5524599552 -0.0000000275 0.0000000224 0.0000000745
  -1.0437760353 1.6534525156 2.9099991322 0.0919475183 -0.6236754656 0.0919475183
  -8.3812913895 0.0000036731 -0.0005167350 0.0000000014 0.0000000036 0.0000001568
  -3.9075496197 0.0000009909 0.0005270541 0.0000004051 0.4231272340 0.5289086699
  -9.0582656860 -0.0000013113 0.0000083447 0.1307646483 0.6702280045 -0.3235573173
  -2.4121787548 -0.4690734744 4.9682669640 0.2278127223 -0.6577842236 0.2557729185
  -1.4861807823 -0.0092604160 0.0023763180 -0.0182543006 0.0115489010 0.4644549489
  -0.9848700166 -0.0127555132 0.0012280047 0.3776761889 0.5943309069 0.4060390890
  0.0011344403 -0.0000020266 1.2383975983 -0.0000005588 0.0000000638 -0.0000000289
  -0.0485565849 -0.4682635963 4.8929109573 0.2945401669 -0.6570017338 0.2687330544
  -1.8586747646 -0.0117373466 0.0021863878 0.0182136633 -0.0123659251 0.5519972444
  -1.0443670750 -0.0123009682 0.0005882531 0.0186417848 -0.0115625458 0.5112479925
  -1.5055371523 -0.0000058562 0.0011833310 0.0000105096 0.7071008682 -0.0000123795
  -2.1457803249 -0.0792678669 2.5121209621 0.0795319006 -0.4358265102 0.3166429698
  -1.6636128426 -0.0215007216 -0.0294201374 -0.1323003173 -0.3390547335 0.1692510098
  -1.2707836628 0.0000313520 0.0011672974 -0.0000000421 0.7071065903 -0.0000001778
  -1.1617157459 -0.4687233567 6.2216267586 0.4803776741 -0.5438483357 0.4272537827
  -1.4778456688 -0.0012516975 0.0014481544 0.0268109776 -0.0268564131 0.2610144913
  -0.9766025543 -0.0043349266 0.0003546178 0.2762081325 0.6432811022 0.2330487967
  0.0011335611 -0.0000023842 1.2383971214 -0.0000005141 -0.0000000009 -0.0000000522
  1.0011165142 -0.4596720040 3.6390306950 0.1633753777 -0.7046147585 0.1056701168
  -1.8531141281 0.0007317066 0.0014575720 0.0384743810 -0.0210312735 0.2334485650
  -1.0480554104 -0.0147867203 0.0012030602 0.0431203507 0.0045896429 0.6846181750
  -1.5055353642 -0.0000061989 0.0011810064 0.0000105077 0.7071008682 -0.0000123911
  -0.4064104557 8.1463708878 8.3328666687 0.0000000743 -0.0000006263 -1.0000000000
  11.2120428085 -10.2532491684 16.8074169159 -0.6769390702 -0.2143609673 0.6505261660
}

