MD5Version 10 // Parameters used during export: Reorient: False; Scale: 1.0
commandline ""

numFrames 10
numJoints 29
frameRate 24
numAnimatedComponents 174

hierarchy {
  "Origin" -1 63 0 //
  "RightShoulder_Dummy" 0 63 6 //
  "RightShoulder" 1 63 12 //
  "RightArm_Dummy" 2 63 18 //
  "RightArm" 3 63 24 //
  "RightArmRoll" 4 63 30 //
  "RightForeArm" 5 63 36 //
  "RightHand" 6 63 42 //
  "RightHandIndex1" 7 63 48 //
  "RightHandIndex2" 8 63 54 //
  "RightHandIndex3" 9 63 60 //
  "RightHandIndex4" 10 63 66 //
  "RightHandRing1" 7 63 72 //
  "RightHandRing2" 12 63 78 //
  "RightHandRing3" 13 63 84 //
  "RightHandRing4" 14 63 90 //
  "RightHandThumb1" 7 63 96 //
  "RightHandThumb2" 16 63 102 //
  "RightHandThumb3" 17 63 108 //
  "RightHandMiddle1" 7 63 114 //
  "RightHandMiddle2" 19 63 120 //
  "RightHandMiddle3" 20 63 126 //
  "RightHandMiddle4" 21 63 132 //
  "RightHandPinky1" 7 63 138 //
  "RightHandPinky2" 23 63 144 //
  "RightHandPinky3" 24 63 150 //
  "RightHandPinky4" 25 63 156 //
  "rightpad" 0 63 162 //
  "Melee" 0 63 168 //
}

bounds {
  ( -1.3818937540 -20.8310317993 -3.5795269012 ) ( 17.8668708801 -6.4600806236 13.0972557068 )
  ( -1.3818937540 -19.6109962463 -3.8937015533 ) ( 17.3650398254 -6.4394936562 15.1235504150 )
  ( -1.3818937540 -15.8021888733 -4.3380165100 ) ( 16.2149353027 -6.4600806236 18.8254127502 )
  ( -1.3818937540 -17.7251529694 -4.5042266846 ) ( 15.0622119904 -6.2532949448 17.8606719971 )
  ( -1.3818937540 -19.1377773285 -4.2933692932 ) ( 14.8122005463 -5.5140233040 15.8384828568 )
  ( -1.3818937540 -20.1430244446 -4.9146099091 ) ( 15.1861772537 -5.9137048721 14.1826143265 )
  ( -1.4546208382 -21.2238578796 -4.5867090225 ) ( 16.6785564423 -6.3533253670 10.4659147263 )
  ( -1.4758923054 -22.3258037567 -6.5534687042 ) ( 19.1470603943 -6.4043931961 8.1421070099 )
  ( -1.3818937540 -22.2217273712 -10.1405267715 ) ( 20.5697860718 -5.9555168152 8.1328020096 )
  ( -1.3818937540 -22.0332183838 -11.3636646271 ) ( 20.9481849670 -5.7942371368 8.1285114288 )
}

baseframe {
  ( 0.0000000000 0.0000000000 0.0000000000 ) ( -0.7071068287 -0.0000000000 -0.0000000000 )
  ( -0.0186605453 4.5159912109 1.4360997677 ) ( 0.0000280102 0.0000000016 -1.0000000000 )
  ( -2.0367097855 -1.0987091064 0.5481596589 ) ( 0.0000083447 0.0000000002 -0.0000279347 )
  ( 2.5132143497 0.1486579478 3.5487740040 ) ( -0.0000000000 -0.0000000000 -0.0000000000 )
  ( -1.0394111872 1.6535054445 2.9115278721 ) ( -0.0000195275 -0.7070870399 0.0000196410 )
  ( -8.3812847137 0.0000042481 0.0122467289 ) ( -0.0000000199 0.0000001187 -0.0000001589 )
  ( -3.9075412750 0.0000038572 0.0064787311 ) ( -0.0000000000 -0.0000002980 -0.0000000000 )
  ( -9.0582580566 0.0000030984 0.0137990611 ) ( -0.0000195275 0.7071262598 0.0000195286 )
  ( -2.4562108517 -0.4589804113 4.9792232513 ) ( 0.0000195005 -0.7071262598 -0.0000194994 )
  ( -1.4808013439 -0.0000023665 0.0022553869 ) ( 0.0001794795 -0.0001792844 0.1336774677 )
  ( -0.9798917770 -0.0000008648 0.0011381970 ) ( 0.0759933963 0.7029330134 0.0758283958 )
  ( 0.0011322881 -0.0000015907 1.2384006977 ) ( 0.0000000372 0.0000000035 0.0000000379 )
  ( -0.0923869684 -0.4588496685 4.9064965248 ) ( 0.0429671630 -0.7058849931 0.0428026877 )
  ( -1.8562849760 -0.0000013817 0.0025038412 ) ( 0.0001730661 -0.0001778290 0.1480355263 )
  ( -1.0458492041 -0.0000023897 0.0010347852 ) ( 0.0000889879 -0.0001018705 0.1002773046 )
  ( -1.5055357218 -0.0000026549 0.0011810474 ) ( 0.0000114150 0.7071009874 -0.0000114465 )
  ( -2.1882109642 -0.0633600801 2.5236830711 ) ( 0.0967313573 -0.4675333202 0.1567362249 )
  ( -1.6791052818 -0.0000239015 0.0014968514 ) ( 0.0000000014 -0.0000001944 -0.0000000186 )
  ( -1.2707813978 0.0000282526 0.0011651963 ) ( 0.0000001495 0.7071062922 -0.0000001442 )
  ( -1.2061427832 -0.4589325786 6.2291550636 ) ( 0.0000194864 -0.7071262598 -0.0000194854 )
  ( -1.4808018208 -0.0000020948 0.0022557802 ) ( 0.0001794997 -0.0001792818 0.1336775273 )
  ( -0.9798946381 -0.0000022332 0.0011384857 ) ( 0.0759933889 0.7029330134 0.0758283883 )
  ( 0.0011323692 -0.0000017502 1.2384005785 ) ( 0.0000000149 0.0000000035 0.0000000388 )
  ( 0.9575448036 -0.4587714672 3.6564393044 ) ( 0.0429671444 -0.7058849931 0.0428026579 )
  ( -1.8562816381 -0.0000014087 0.0025037199 ) ( 0.0001730594 -0.0001778291 0.1480355561 )
  ( -1.0458487272 -0.0000009410 0.0010346614 ) ( 0.0000889888 -0.0001018699 0.1002773046 )
  ( -1.5055395365 -0.0000035905 0.0011810367 ) ( 0.0000114884 0.7071009874 -0.0000113619 )
  ( -0.4129891396 8.1527709961 8.3131628036 ) ( 0.0000279307 0.0000000016 -1.0000000000 )
  ( 0.0000000000 0.0000000000 0.0000000000 ) ( 0.7071067095 0.0000000000 -0.7071068287 )
}

frame 0 {
  -0.0000000251 -0.0000000089 0.0000013374 -0.7071068287 -0.0000000188 -0.0000000124
  -0.0175175872 4.5148844719 1.4526960850 -0.0000001064 0.0000000004 -1.0000000000
  -2.0376806259 -1.0987175703 0.5451019406 -0.0000000014 -0.0000001751 -0.0000000857
  2.5079936981 0.1487963647 3.5524599552 -0.0000000275 0.0000000224 0.0000000745
  -1.0437775850 1.6534484625 2.9099981785 0.8638673425 -0.3208743930 -0.0835602507
  -8.3812913895 0.0000028461 -0.0005171746 0.0000000056 -0.0000000093 0.0000001229
  -3.9075465202 0.0000025034 0.0005272627 0.0000006125 0.3498637378 0.7513615489
  -9.0582656860 -0.0000000149 0.0000085831 -0.2753957510 0.6352484226 -0.4101488888
  -2.4121794701 -0.4690752029 4.9682655334 0.2278126627 -0.6577841043 0.2557729781
  -1.4861793518 -0.0092594624 0.0023775101 -0.0182543602 0.0115489494 0.4644549191
  -0.9848675728 -0.0127561092 0.0012273788 0.3776762187 0.5943309069 0.4060391188
  0.0011329651 -0.0000019073 1.2383992672 -0.0000005579 0.0000000261 -0.0000000061
  -0.0485553741 -0.4682650566 4.8929114342 0.2945401073 -0.6570016146 0.2687330544
  -1.8586757183 -0.0117344856 0.0021872520 0.0182136949 -0.0123659149 0.5519973040
  -1.0443682671 -0.0123028830 0.0005893707 0.0186418556 -0.0115624480 0.5112479329
  -1.5055372715 -0.0000061095 0.0011808872 0.0000105287 0.7071008682 -0.0000123779
  -2.1457819939 -0.0792679787 2.5121192932 0.0795318857 -0.4358264208 0.3166429698
  -1.6636111736 -0.0215027332 -0.0294209123 -0.1323003322 -0.3390546441 0.1692510098
  -1.2707841396 0.0000317097 0.0011669397 -0.0000000975 0.7071065903 -0.0000002028
  -1.1617152691 -0.4687237740 6.2216243744 0.4803776741 -0.5438482761 0.4272538126
  -1.4778447151 -0.0012528896 0.0014462471 0.0268109739 -0.0268565547 0.2610144317
  -0.9766030312 -0.0043382049 0.0003552437 0.2762082219 0.6432810426 0.2330487370
  0.0011339188 0.0000002384 1.2384002209 -0.0000005197 -0.0000000249 -0.0000000484
  1.0011153221 -0.4596710205 3.6390292645 0.1633753926 -0.7046146989 0.1056701019
  -1.8531162739 0.0007348061 0.0014588833 0.0384743437 -0.0210313573 0.2334485948
  -1.0480576754 -0.0147869587 0.0012013912 0.0431203842 0.0045895954 0.6846181750
  -1.5055377483 -0.0000059605 0.0011811256 0.0000104813 0.7071008682 -0.0000124174
  -0.4064104557 8.1463708878 8.3328666687 0.0000000743 -0.0000006263 -1.0000000000
  16.6952800751 8.5366449356 9.8934926987 -0.5614427924 -0.7787368298 0.0311359838
}

frame 1 {
  -0.0000000251 -0.0000000089 0.0000013374 -0.7071068287 -0.0000000188 -0.0000000124
  -0.0175175872 4.5148844719 1.4526960850 -0.0000001064 0.0000000004 -1.0000000000
  -2.0376806259 -1.0987175703 0.5451019406 -0.0000000014 -0.0000001751 -0.0000000857
  2.5079936981 0.1487963647 3.5524599552 -0.0000000275 0.0000000224 0.0000000745
  -1.0437775850 1.6534487009 2.9099981785 0.8389959335 -0.3363507688 -0.0663205907
  -8.3812913895 0.0000026077 -0.0005158186 0.0000000037 -0.0000000112 0.0000001416
  -3.9075446129 -0.0000002384 0.0005266666 0.0000004454 0.4723494351 0.7002184391
  -9.0582656860 0.0000005960 0.0000067800 -0.2340433002 0.5497821569 -0.3933630884
  -2.4121799469 -0.4690732956 4.9682645798 0.2278127074 -0.6577842236 0.2557729781
  -1.4861793518 -0.0092620850 0.0023760796 -0.0182543267 0.0115489615 0.4644549489
  -0.9848699570 -0.0127542019 0.0012273788 0.3776762187 0.5943308473 0.4060390890
  0.0011329651 -0.0000041127 1.2383980751 -0.0000005132 0.0000000261 -0.0000000363
  -0.0485563278 -0.4682636261 4.8929114342 0.2945401371 -0.6570016146 0.2687331140
  -1.8586747646 -0.0117365122 0.0021867752 0.0182137024 -0.0123658841 0.5519973636
  -1.0443692207 -0.0123019218 0.0005879402 0.0186418984 -0.0115624815 0.5112479329
  -1.5055388212 -0.0000045300 0.0011830330 0.0000105445 0.7071008682 -0.0000123516
  -2.1457810402 -0.0792675018 2.5121200085 0.0795319304 -0.4358264208 0.3166429698
  -1.6636111736 -0.0215009451 -0.0294204950 -0.1323003322 -0.3390546441 0.1692509204
  -1.2707858086 0.0000319481 0.0011650026 -0.0000000751 0.7071065903 -0.0000001771
  -1.1617145538 -0.4687228203 6.2216262817 0.4803777039 -0.5438483357 0.4272538126
  -1.4778444767 -0.0012512207 0.0014452934 0.0268109348 -0.0268564653 0.2610144913
  -0.9766044617 -0.0043380260 0.0003557205 0.2762081921 0.6432810426 0.2330488116
  0.0011339188 -0.0000019073 1.2383971214 -0.0000005197 -0.0000000289 -0.0000000391
  1.0011153221 -0.4596710205 3.6390304565 0.1633754075 -0.7046146989 0.1056701839
  -1.8531173468 0.0007309914 0.0014569759 0.0384744182 -0.0210313592 0.2334485203
  -1.0480570793 -0.0147855282 0.0012021065 0.0431203656 0.0045895753 0.6846181750
  -1.5055344105 -0.0000054836 0.0011820793 0.0000104971 0.7071008682 -0.0000123832
  -0.4064104557 8.1463708878 8.3328666687 0.0000000743 -0.0000006263 -1.0000000000
  16.1916751862 8.4122571945 9.6668605804 -0.5390167236 -0.7691510320 0.1150617898
}

frame 2 {
  -0.0000000251 -0.0000000089 0.0000013374 -0.7071068287 -0.0000000188 -0.0000000124
  -0.0175175872 4.5148844719 1.4526960850 -0.0000001064 0.0000000004 -1.0000000000
  -2.0376806259 -1.0987175703 0.5451019406 -0.0000000014 -0.0000001751 -0.0000000857
  2.5079936981 0.1487963647 3.5524599552 -0.0000000275 0.0000000224 0.0000000745
  -1.0437777042 1.6534494162 2.9099981785 0.7457709908 -0.3774477243 -0.0291069746
  -8.3812913895 0.0000034496 -0.0005161166 -0.0000000019 -0.0000000186 0.0000001332
  -3.9075446129 0.0000014007 0.0005266666 0.0000004369 0.7518295646 0.4546721578
  -9.0582656860 0.0000004768 0.0000078678 0.0016379232 0.3223116696 -0.2737267613
  -2.4121794701 -0.4690740108 4.9682655334 0.2278126627 -0.6577841640 0.2557729781
  -1.4861807823 -0.0092586279 0.0023772717 -0.0182543416 0.0115489494 0.4644549489
  -0.9848687649 -0.0127544403 0.0012276173 0.3776761293 0.5943308473 0.4060390890
  0.0011322498 -0.0000019670 1.2384008169 -0.0000005434 0.0000000186 -0.0000000235
  -0.0485563278 -0.4682636261 4.8929104805 0.2945400774 -0.6570016742 0.2687330842
  -1.8586769104 -0.0117391944 0.0021882057 0.0182136185 -0.0123658497 0.5519974232
  -1.0443663597 -0.0123023987 0.0005881786 0.0186417941 -0.0115624340 0.5112481117
  -1.5055377483 -0.0000064373 0.0011808872 0.0000105103 0.7071008682 -0.0000123674
  -2.1457810402 -0.0792670250 2.5121202469 0.0795318782 -0.4358264208 0.3166429698
  -1.6636104584 -0.0214993954 -0.0294203758 -0.1323002875 -0.3390545845 0.1692510247
  -1.2707850933 0.0000305176 0.0011668205 -0.0000000948 0.7071065903 -0.0000001633
  -1.1617150307 -0.4687218666 6.2216243744 0.4803776145 -0.5438483357 0.4272538126
  -1.4778442383 -0.0012524426 0.0014455318 0.0268109869 -0.0268564411 0.2610144913
  -0.9766066074 -0.0043358803 0.0003559589 0.2762082517 0.6432810426 0.2330487520
  0.0011334419 -0.0000009537 1.2383995056 -0.0000005197 -0.0000000242 -0.0000000447
  1.0011162758 -0.4596701860 3.6390304565 0.1633753777 -0.7046147585 0.1056701392
  -1.8531153202 0.0007343292 0.0014576912 0.0384743661 -0.0210313164 0.2334486246
  -1.0480579138 -0.0147850513 0.0012013912 0.0431203321 0.0045896596 0.6846182346
  -1.5055367947 -0.0000050068 0.0011827946 0.0000105274 0.7071008682 -0.0000124095
  -0.4064104557 8.1463708878 8.3328666687 0.0000000743 -0.0000006263 -1.0000000000
  14.8354053497 7.3358049393 9.2975082397 -0.4477677047 -0.6911684275 0.3569708169
}

frame 3 {
  -0.0000000251 -0.0000000089 0.0000013374 -0.7071068287 -0.0000000188 -0.0000000124
  -0.0175175872 4.5148844719 1.4526960850 -0.0000001064 0.0000000004 -1.0000000000
  -2.0376806259 -1.0987175703 0.5451019406 -0.0000000014 -0.0000001751 -0.0000000857
  2.5079936981 0.1487963647 3.5524599552 -0.0000000275 0.0000000224 0.0000000745
  -1.0437774658 1.6534506083 2.9099981785 0.5809422135 -0.4438242018 0.0048312726
  -8.3812904358 0.0000038743 -0.0005162060 -0.0000000075 0.0000000112 0.0000001192
  -3.9075481892 0.0000008941 0.0005264282 0.0000000941 0.8990472555 0.0436597727
  -9.0582656860 -0.0000007153 0.0000073612 0.3702153265 0.1892952770 -0.0794865564
  -2.4121797085 -0.4690737724 4.9682669640 0.2278126925 -0.6577841640 0.2557729483
  -1.4861786366 -0.0092608929 0.0023773909 -0.0182543322 0.0115488879 0.4644549489
  -0.9848697186 -0.0127557516 0.0012279749 0.3776763380 0.5943308473 0.4060390890
  0.0011334419 -0.0000012517 1.2383973598 -0.0000005485 0.0000000531 -0.0000000068
  -0.0485562384 -0.4682631493 4.8929119110 0.2945401669 -0.6570016742 0.2687330842
  -1.8586757183 -0.0117365122 0.0021872520 0.0182136837 -0.0123659205 0.5519973040
  -1.0443699360 -0.0123025477 0.0005890131 0.0186417773 -0.0115624750 0.5112479329
  -1.5055351257 -0.0000042915 0.0011819005 0.0000105116 0.7071008682 -0.0000123529
  -2.1457815170 -0.0792679787 2.5121216774 0.0795319229 -0.4358264208 0.3166430295
  -1.6636095047 -0.0214996338 -0.0294202566 -0.1323003024 -0.3390545547 0.1692509800
  -1.2707831860 0.0000328720 0.0011656284 -0.0000000672 0.7071065903 -0.0000001528
  -1.1617149115 -0.4687228203 6.2216267586 0.4803777039 -0.5438482761 0.4272538126
  -1.4778445959 -0.0012518167 0.0014472008 0.0268109720 -0.0268564932 0.2610144913
  -0.9766063690 -0.0043360591 0.0003552437 0.2762081325 0.6432811022 0.2330488116
  0.0011332035 -0.0000021458 1.2383990288 -0.0000005215 -0.0000000298 -0.0000000526
  1.0011163950 -0.4596713781 3.6390323639 0.1633754224 -0.7046147585 0.1056701466
  -1.8531144857 0.0007320642 0.0014584661 0.0384744070 -0.0210313797 0.2334485501
  -1.0480585098 -0.0147861242 0.0012013912 0.0431203991 0.0045895865 0.6846181750
  -1.5055356026 -0.0000053644 0.0011821687 0.0000105126 0.7071008682 -0.0000124013
  -0.4064104557 8.1463708878 8.3328666687 0.0000000743 -0.0000006263 -1.0000000000
  13.3951196671 5.3992004395 10.2199611664 -0.3220821321 -0.5269345045 0.5820467472
}

frame 4 {
  -0.0000000251 -0.0000000089 0.0000013374 -0.7071068287 -0.0000000188 -0.0000000124
  -0.0175175872 4.5148844719 1.4526960850 -0.0000001064 0.0000000004 -1.0000000000
  -2.0376806259 -1.0987175703 0.5451019406 -0.0000000014 -0.0000001751 -0.0000000857
  2.5079936981 0.1487963647 3.5524599552 -0.0000000275 0.0000000224 0.0000000745
  -1.0437772274 1.6534515619 2.9099981785 0.4337891638 -0.5078635812 0.0358480848
  -8.3812904358 0.0000029057 -0.0005171150 -0.0000000000 0.0000000130 0.0000001341
  -3.9075498581 -0.0000017881 0.0005263090 -0.0000002032 0.8695607781 -0.2242197096
  -9.0582666397 0.0000007153 0.0000056028 0.5458742380 0.2041367888 -0.0173864812
  -2.4121801853 -0.4690713882 4.9682641029 0.2278127372 -0.6577841640 0.2557729781
  -1.4861793518 -0.0092587471 0.0023767948 -0.0182543416 0.0115489326 0.4644548893
  -0.9848692417 -0.0127549991 0.0012265444 0.3776762187 0.5943308473 0.4060390890
  0.0011335611 -0.0000027567 1.2383986712 -0.0000005553 0.0000000307 0.0000000157
  -0.0485570431 -0.4682621956 4.8929104805 0.2945401073 -0.6570016146 0.2687330842
  -1.8586764336 -0.0117355585 0.0021870136 0.0182136688 -0.0123658674 0.5519973636
  -1.0443665981 -0.0123023987 0.0005888939 0.0186417643 -0.0115624536 0.5112479925
  -1.5055356026 -0.0000040531 0.0011821985 0.0000105053 0.7071008682 -0.0000123545
  -2.1457819939 -0.0792653561 2.5121185780 0.0795318931 -0.4358264208 0.3166429698
  -1.6636095047 -0.0215017796 -0.0294203758 -0.1323003620 -0.3390546441 0.1692509204
  -1.2707846165 0.0000315905 0.0011641979 -0.0000000685 0.7071065903 -0.0000001449
  -1.1617162228 -0.4687209129 6.2216238976 0.4803777039 -0.5438482761 0.4272537529
  -1.4778442383 -0.0012517422 0.0014457703 0.0268109981 -0.0268564597 0.2610144317
  -0.9766044617 -0.0043356419 0.0003565550 0.2762081623 0.6432811022 0.2330487818
  0.0011336803 -0.0000016689 1.2383995056 -0.0000005197 -0.0000000279 -0.0000000414
  1.0011150837 -0.4596688747 3.6390306950 0.1633753926 -0.7046147585 0.1056701615
  -1.8531152010 0.0007338524 0.0014587641 0.0384743996 -0.0210313331 0.2334485203
  -1.0480587482 -0.0147852898 0.0012019277 0.0431203656 0.0045896224 0.6846181750
  -1.5055360794 -0.0000047684 0.0011819042 0.0000105287 0.7071008682 -0.0000123687
  -0.4064104557 8.1463708878 8.3328666687 0.0000000743 -0.0000006263 -1.0000000000
  12.8966321945 4.4489450455 11.8386325836 -0.2861909866 -0.4158310592 0.6587701440
}

frame 5 {
  -0.0000000251 -0.0000000089 0.0000013374 -0.7071068287 -0.0000000188 -0.0000000124
  -0.0175175872 4.5148844719 1.4526960850 -0.0000001064 0.0000000004 -1.0000000000
  -2.0376806259 -1.0987175703 0.5451019406 -0.0000000014 -0.0000001751 -0.0000000857
  2.5079936981 0.1487963647 3.5524599552 -0.0000000275 0.0000000224 0.0000000745
  -1.0437767506 1.6534520388 2.9099981785 0.3272081614 -0.5846821070 0.0824306086
  -8.3812913895 0.0000025928 -0.0005166084 0.0000000056 -0.0000000075 0.0000001304
  -3.9075491428 0.0000025034 0.0005270243 -0.0000001454 0.8431093693 -0.2763742805
  -9.0582656860 0.0000001192 0.0000067949 0.5501552224 0.2479675412 -0.0621413104
  -2.4121792316 -0.4690732956 4.9682655334 0.2278126478 -0.6577842236 0.2557728887
  -1.4861793518 -0.0092599392 0.0023779273 -0.0182543676 0.0115489066 0.4644549191
  -0.9848711491 -0.0127550960 0.0012265444 0.3776761889 0.5943307877 0.4060391188
  0.0011326075 -0.0000032187 1.2383986712 -0.0000005565 0.0000000137 -0.0000000212
  -0.0485557020 -0.4682641029 4.8929109573 0.2945401073 -0.6570016146 0.2687330842
  -1.8586773872 -0.0117375255 0.0021868646 0.0182136633 -0.0123658748 0.5519973040
  -1.0443664789 -0.0123015642 0.0005878806 0.0186417643 -0.0115624769 0.5112479329
  -1.5055357218 -0.0000050068 0.0011822581 0.0000105040 0.7071008682 -0.0000123637
  -2.1457815170 -0.0792670250 2.5121202469 0.0795318782 -0.4358264208 0.3166429400
  -1.6636103392 -0.0215005875 -0.0294179916 -0.1323002875 -0.3390546143 0.1692509949
  -1.2707840204 0.0000321865 0.0011658669 -0.0000000659 0.7071065903 -0.0000001673
  -1.1617149115 -0.4687225819 6.2216243744 0.4803776741 -0.5438483357 0.4272538126
  -1.4778438807 -0.0012519658 0.0014465451 0.0268109664 -0.0268564858 0.2610143423
  -0.9766061306 -0.0043365955 0.0003544092 0.2762081623 0.6432810426 0.2330487669
  0.0011323094 -0.0000019073 1.2383971214 -0.0000005160 -0.0000000298 -0.0000000573
  1.0011165142 -0.4596705437 3.6390309334 0.1633753777 -0.7046147585 0.1056701392
  -1.8531159163 0.0007340908 0.0014578104 0.0384744257 -0.0210312940 0.2334486544
  -1.0480569601 -0.0147864074 0.0012019873 0.0431203730 0.0045896452 0.6846182942
  -1.5055361986 -0.0000046492 0.0011817515 0.0000104688 0.7071008682 -0.0000123555
  -0.4064104557 8.1463708878 8.3328666687 0.0000000743 -0.0000006263 -1.0000000000
  12.9177122116 2.8739440441 13.3789672852 -0.3394223750 -0.3594778180 0.6748583913
}

frame 6 {
  -0.0000000251 -0.0000000089 0.0000013374 -0.7071068287 -0.0000000188 -0.0000000124
  -0.0175175872 4.5148844719 1.4526960850 -0.0000001064 0.0000000004 -1.0000000000
  -2.0376806259 -1.0987175703 0.5451019406 -0.0000000014 -0.0000001751 -0.0000000857
  2.5079936981 0.1487963647 3.5524599552 -0.0000000275 0.0000000224 0.0000000745
  -1.0437762737 1.6534525156 2.9099991322 0.2098447382 -0.6892134547 0.1039728820
  -8.3812913895 0.0000032037 -0.0005166680 -0.0000000014 0.0000000009 0.0000001165
  -3.9075479507 -0.0000007451 0.0005265623 0.0000000424 0.8627188802 -0.0220907740
  -9.0582666397 0.0000001192 0.0000045002 0.3670580685 0.3594835103 -0.1859331727
  -2.4121797085 -0.4690746665 4.9682660103 0.2278127372 -0.6577842236 0.2557729483
  -1.4861795902 -0.0092604458 0.0023770332 -0.0182543248 0.0115489326 0.4644549787
  -0.9848710299 -0.0127541125 0.0012259483 0.3776762187 0.5943308473 0.4060391486
  0.0011333227 -0.0000029802 1.2383997440 -0.0000005662 0.0000000279 0.0000000030
  -0.0485558808 -0.4682645202 4.8929109573 0.2945401669 -0.6570017338 0.2687330842
  -1.8586769104 -0.0117371613 0.0021875799 0.0182136483 -0.0123658357 0.5519973040
  -1.0443677902 -0.0123007894 0.0005890429 0.0186417624 -0.0115624266 0.5112479329
  -1.5055347681 -0.0000072010 0.0011808723 0.0000105124 0.7071008682 -0.0000123776
  -2.1457817554 -0.0792689323 2.5121209621 0.0795319527 -0.4358264208 0.3166429698
  -1.6636101007 -0.0214997530 -0.0294203758 -0.1323003173 -0.3390546441 0.1692510247
  -1.2707855701 0.0000326633 0.0011655688 -0.0000001231 0.7071065903 -0.0000002028
  -1.1617156267 -0.4687234163 6.2216248512 0.4803777039 -0.5438483357 0.4272538424
  -1.4778432846 -0.0012522340 0.0014466643 0.0268109720 -0.0268564969 0.2610145211
  -0.9766062498 -0.0043368787 0.0003551245 0.2762082219 0.6432810426 0.2330487818
  0.0011333227 -0.0000014007 1.2384012938 -0.0000005271 -0.0000000298 -0.0000000875
  1.0011162758 -0.4596733749 3.6390311718 0.1633754075 -0.7046147585 0.1056701168
  -1.8531157970 0.0007366240 0.0014579892 0.0384743959 -0.0210313648 0.2334486097
  -1.0480566025 -0.0147872865 0.0012015700 0.0431203544 0.0045895684 0.6846182942
  -1.5055364370 -0.0000039935 0.0011827052 0.0000105182 0.7071008682 -0.0000123911
  -0.4064104557 8.1463708878 8.3328666687 0.0000000743 -0.0000006263 -1.0000000000
  12.6292009354 -0.9091590643 14.9504032135 -0.4451642334 -0.3074672818 0.6857592463
}

frame 7 {
  -0.0000000251 -0.0000000089 0.0000013374 -0.7071068287 -0.0000000188 -0.0000000124
  -0.0175175872 4.5148844719 1.4526960850 -0.0000001064 0.0000000004 -1.0000000000
  -2.0376806259 -1.0987175703 0.5451019406 -0.0000000014 -0.0000001751 -0.0000000857
  2.5079936981 0.1487963647 3.5524599552 -0.0000000275 0.0000000224 0.0000000745
  -1.0437761545 1.6534525156 2.9099991322 0.0977261513 -0.6943686008 0.0503284223
  -8.3812894821 0.0000035316 -0.0005166680 -0.0000000033 -0.0000000000 0.0000001367
  -3.9075479507 0.0000030845 0.0005266666 0.0000004465 0.6827277541 0.4160210490
  -9.0582666397 -0.0000010729 0.0000066981 0.1197785959 0.5549694300 -0.3093999326
  -2.4121794701 -0.4690721631 4.9682655334 0.2278127223 -0.6577842236 0.2557729483
  -1.4861791134 -0.0092612207 0.0023764977 -0.0182543788 0.0115489587 0.4644549489
  -0.9848679900 -0.0127551556 0.0012274384 0.3776762187 0.5943308473 0.4060392380
  0.0011332184 -0.0000024438 1.2383997440 -0.0000005569 0.0000000354 -0.0000000047
  -0.0485556126 -0.4682635069 4.8929109573 0.2945401073 -0.6570016146 0.2687330842
  -1.8586750031 -0.0117366314 0.0021868348 0.0182136800 -0.0123659391 0.5519973040
  -1.0443675518 -0.0123014450 0.0005894005 0.0186418314 -0.0115625020 0.5112479329
  -1.5055358410 -0.0000052452 0.0011823177 0.0000105129 0.7071008682 -0.0000123647
  -2.1457812786 -0.0792683661 2.5121204853 0.0795319080 -0.4358264208 0.3166429698
  -1.6636115313 -0.0214996934 -0.0294206142 -0.1323003024 -0.3390545845 0.1692510098
  -1.2707842588 0.0000324249 0.0011659861 -0.0000000922 0.7071065903 -0.0000001304
  -1.1617150307 -0.4687228799 6.2216248512 0.4803776145 -0.5438483953 0.4272537827
  -1.4778423309 -0.0012521744 0.0014456511 0.0268110428 -0.0268564988 0.2610145509
  -0.9766064882 -0.0043346882 0.0003547668 0.2762083113 0.6432810426 0.2330488861
  0.0011324883 -0.0000019073 1.2383984327 -0.0000005215 -0.0000000335 -0.0000000466
  1.0011165142 -0.4596709013 3.6390306950 0.1633754075 -0.7046147585 0.1056701392
  -1.8531138897 0.0007359684 0.0014581680 0.0384743921 -0.0210313406 0.2334485203
  -1.0480554104 -0.0147871971 0.0012021065 0.0431203805 0.0045895372 0.6846182346
  -1.5055344105 -0.0000053644 0.0011817217 0.0000104866 0.7071008682 -0.0000124148
  -0.4064104557 8.1463708878 8.3328666687 0.0000000743 -0.0000006263 -1.0000000000
  12.0147294998 -5.5719151497 16.1217670441 -0.5663401484 -0.2596096992 0.6789054275
}

frame 8 {
  -0.0000000251 -0.0000000089 0.0000013374 -0.7071068287 -0.0000000188 -0.0000000124
  -0.0175175872 4.5148844719 1.4526960850 -0.0000001064 0.0000000004 -1.0000000000
  -2.0376806259 -1.0987175703 0.5451019406 -0.0000000014 -0.0000001751 -0.0000000857
  2.5079936981 0.1487963647 3.5524599552 -0.0000000275 0.0000000224 0.0000000745
  -1.0437760353 1.6534525156 2.9099991322 0.0849184394 -0.6423693299 0.0720074549
  -8.3812923431 0.0000037086 -0.0005167797 -0.0000000008 0.0000000005 0.0000001336
  -3.9075453281 -0.0000002797 0.0005261824 0.0000005124 0.4826890826 0.5290836096
  -9.0582656860 0.0000030994 0.0000069141 0.1068762690 0.6519044042 -0.3273646832
  -2.4121787548 -0.4690738618 4.9682655334 0.2278126925 -0.6577842236 0.2557729483
  -1.4861803055 -0.0092599392 0.0023754835 -0.0182543267 0.0115489420 0.4644549489
  -0.9848694205 -0.0127545595 0.0012255907 0.3776762486 0.5943308473 0.4060391486
  0.0011324883 -0.0000008345 1.2383992672 -0.0000005420 -0.0000000088 -0.0000000102
  -0.0485556126 -0.4682619274 4.8929104805 0.2945401371 -0.6570016742 0.2687330842
  -1.8586757183 -0.0117392540 0.0021881461 0.0182136837 -0.0123658860 0.5519972444
  -1.0443687439 -0.0123023987 0.0005894899 0.0186418202 -0.0115624899 0.5112479329
  -1.5055356026 -0.0000070930 0.0011816025 0.0000105083 0.7071008682 -0.0000123772
  -2.1457815170 -0.0792683363 2.5121204853 0.0795319080 -0.4358264804 0.3166430593
  -1.6636114120 -0.0215007663 -0.0294215083 -0.1323003024 -0.3390546441 0.1692509800
  -1.2707837820 0.0000329018 0.0011692047 -0.0000000869 0.7071065903 -0.0000001607
  -1.1617149115 -0.4687221050 6.2216253281 0.4803776443 -0.5438482761 0.4272537529
  -1.4778441191 -0.0012545586 0.0014458746 0.0268109608 -0.0268564913 0.2610144317
  -0.9766048193 -0.0043349266 0.0003563166 0.2762081623 0.6432810426 0.2330487072
  0.0011336803 -0.0000035763 1.2384009361 -0.0000005253 -0.0000000354 -0.0000000447
  1.0011172295 -0.4596708119 3.6390302181 0.1633753777 -0.7046147585 0.1056701392
  -1.8531150818 0.0007345676 0.0014595687 0.0384743810 -0.0210312977 0.2334485501
  -1.0480551720 -0.0147881508 0.0012013912 0.0431203246 0.0045896978 0.6846181750
  -1.5055351257 -0.0000060797 0.0011821985 0.0000105340 0.7071008682 -0.0000123516
  -0.4064104557 8.1463708878 8.3328666687 0.0000000743 -0.0000006263 -1.0000000000
  11.4288196564 -9.0550012589 16.6755104065 -0.6499859691 -0.2257568091 0.6599282026
}

frame 9 {
  -0.0000000251 -0.0000000089 0.0000013374 -0.7071068287 -0.0000000188 -0.0000000124
  -0.0175175872 4.5148844719 1.4526960850 -0.0000001064 0.0000000004 -1.0000000000
  -2.0376806259 -1.0987175703 0.5451019406 -0.0000000014 -0.0000001751 -0.0000000857
  2.5079936981 0.1487963647 3.5524599552 -0.0000000275 0.0000000224 0.0000000745
  -1.0437760353 1.6534525156 2.9099991322 0.0919475183 -0.6236754656 0.0919475183
  -8.3812913895 0.0000036731 -0.0005167350 0.0000000014 0.0000000036 0.0000001568
  -3.9075496197 0.0000009909 0.0005270541 0.0000004051 0.4231272340 0.5289086699
  -9.0582656860 -0.0000013113 0.0000083447 0.1307646483 0.6702280045 -0.3235573173
  -2.4121787548 -0.4690734744 4.9682669640 0.2278127223 -0.6577842236 0.2557729185
  -1.4861807823 -0.0092604160 0.0023763180 -0.0182543006 0.0115489010 0.4644549489
  -0.9848700166 -0.0127555132 0.0012280047 0.3776761889 0.5943309069 0.4060390890
  0.0011344403 -0.0000020266 1.2383975983 -0.0000005588 0.0000000638 -0.0000000289
  -0.0485565849 -0.4682635963 4.8929109573 0.2945401669 -0.6570017338 0.2687330544
  -1.8586747646 -0.0117373466 0.0021863878 0.0182136633 -0.0123659251 0.5519972444
  -1.0443670750 -0.0123009682 0.0005882531 0.0186417848 -0.0115625458 0.5112479925
  -1.5055371523 -0.0000058562 0.0011833310 0.0000105096 0.7071008682 -0.0000123795
  -2.1457803249 -0.0792678669 2.5121209621 0.0795319006 -0.4358265102 0.3166429698
  -1.6636128426 -0.0215007216 -0.0294201374 -0.1323003173 -0.3390547335 0.1692510098
  -1.2707836628 0.0000313520 0.0011672974 -0.0000000421 0.7071065903 -0.0000001778
  -1.1617157459 -0.4687233567 6.2216267586 0.4803776741 -0.5438483357 0.4272537827
  -1.4778456688 -0.0012516975 0.0014481544 0.0268109776 -0.0268564131 0.2610144913
  -0.9766025543 -0.0043349266 0.0003546178 0.2762081325 0.6432811022 0.2330487967
  0.0011335611 -0.0000023842 1.2383971214 -0.0000005141 -0.0000000009 -0.0000000522
  1.0011165142 -0.4596720040 3.6390306950 0.1633753777 -0.7046147585 0.1056701168
  -1.8531141281 0.0007317066 0.0014575720 0.0384743810 -0.0210312735 0.2334485650
  -1.0480554104 -0.0147867203 0.0012030602 0.0431203507 0.0045896429 0.6846181750
  -1.5055353642 -0.0000061989 0.0011810064 0.0000105077 0.7071008682 -0.0000123911
  -0.4064104557 8.1463708878 8.3328666687 0.0000000743 -0.0000006263 -1.0000000000
  11.2120428085 -10.2532491684 16.8074169159 -0.6769390702 -0.2143609673 0.6505261660
}

