MD5Version 10 // Parameters used during export: Reorient: False; Scale: 1.0
commandline ""

numFrames 10
numJoints 29
frameRate 24
numAnimatedComponents 174

hierarchy {
  "Origin" -1 63 0 //
  "RightShoulder_Dummy" 0 63 6 //
  "RightShoulder" 1 63 12 //
  "RightArm_Dummy" 2 63 18 //
  "RightArm" 3 63 24 //
  "RightArmRoll" 4 63 30 //
  "RightForeArm" 5 63 36 //
  "RightHand" 6 63 42 //
  "RightHandIndex1" 7 63 48 //
  "RightHandIndex2" 8 63 54 //
  "RightHandIndex3" 9 63 60 //
  "RightHandIndex4" 10 63 66 //
  "RightHandRing1" 7 63 72 //
  "RightHandRing2" 12 63 78 //
  "RightHandRing3" 13 63 84 //
  "RightHandRing4" 14 63 90 //
  "RightHandThumb1" 7 63 96 //
  "RightHandThumb2" 16 63 102 //
  "RightHandThumb3" 17 63 108 //
  "RightHandMiddle1" 7 63 114 //
  "RightHandMiddle2" 19 63 120 //
  "RightHandMiddle3" 20 63 126 //
  "RightHandMiddle4" 21 63 132 //
  "RightHandPinky1" 7 63 138 //
  "RightHandPinky2" 23 63 144 //
  "RightHandPinky3" 24 63 150 //
  "RightHandPinky4" 25 63 156 //
  "rightpad" 0 63 162 //
  "Melee" 0 63 168 //
}

bounds {
  ( -1.3818937540 -10.6285572052 0.3517316580 ) ( 16.5888671875 7.3159255981 13.4743700027 )
  ( -1.3818937540 -10.7078933716 0.3517316580 ) ( 15.8317756653 7.0728416443 13.4467487335 )
  ( -1.3818937540 -11.2533226013 0.3517316580 ) ( 14.6797399521 5.9165401459 13.0491790771 )
  ( -1.3818937540 -11.6958522797 -0.7327394485 ) ( 14.3626375198 3.7296965122 13.6672286987 )
  ( -1.3818937540 -12.9104595184 -3.2847061157 ) ( 13.4127559662 1.6110417843 13.9167804718 )
  ( -1.3818937540 -16.1789360046 -5.4559364319 ) ( 13.3665513992 -0.6949582100 13.5303878784 )
  ( -1.3818937540 -19.7060451508 -5.4847579002 ) ( 14.6596193314 -4.8531432152 11.3185558319 )
  ( -1.3818937540 -21.7029647827 -6.8453798294 ) ( 17.6712913513 -6.1576833725 8.1413221359 )
  ( -1.3818937540 -22.0760555267 -10.3076486588 ) ( 20.3392829895 -5.9134321213 8.1366786957 )
  ( -1.3818937540 -22.0332183838 -11.3636646271 ) ( 20.9481849670 -5.7942371368 8.1285114288 )
}

baseframe {
  ( 0.0000000000 0.0000000000 0.0000000000 ) ( -0.7071068287 -0.0000000000 -0.0000000000 )
  ( -0.0186605453 4.5159912109 1.4360997677 ) ( 0.0000280102 0.0000000016 -1.0000000000 )
  ( -2.0367097855 -1.0987091064 0.5481596589 ) ( 0.0000083447 0.0000000002 -0.0000279347 )
  ( 2.5132143497 0.1486579478 3.5487740040 ) ( -0.0000000000 -0.0000000000 -0.0000000000 )
  ( -1.0394111872 1.6535054445 2.9115278721 ) ( -0.0000195275 -0.7070870399 0.0000196410 )
  ( -8.3812847137 0.0000042481 0.0122467289 ) ( -0.0000000199 0.0000001187 -0.0000001589 )
  ( -3.9075412750 0.0000038572 0.0064787311 ) ( -0.0000000000 -0.0000002980 -0.0000000000 )
  ( -9.0582580566 0.0000030984 0.0137990611 ) ( -0.0000195275 0.7071262598 0.0000195286 )
  ( -2.4562108517 -0.4589804113 4.9792232513 ) ( 0.0000195005 -0.7071262598 -0.0000194994 )
  ( -1.4808013439 -0.0000023665 0.0022553869 ) ( 0.0001794795 -0.0001792844 0.1336774677 )
  ( -0.9798917770 -0.0000008648 0.0011381970 ) ( 0.0759933963 0.7029330134 0.0758283958 )
  ( 0.0011322881 -0.0000015907 1.2384006977 ) ( 0.0000000372 0.0000000035 0.0000000379 )
  ( -0.0923869684 -0.4588496685 4.9064965248 ) ( 0.0429671630 -0.7058849931 0.0428026877 )
  ( -1.8562849760 -0.0000013817 0.0025038412 ) ( 0.0001730661 -0.0001778290 0.1480355263 )
  ( -1.0458492041 -0.0000023897 0.0010347852 ) ( 0.0000889879 -0.0001018705 0.1002773046 )
  ( -1.5055357218 -0.0000026549 0.0011810474 ) ( 0.0000114150 0.7071009874 -0.0000114465 )
  ( -2.1882109642 -0.0633600801 2.5236830711 ) ( 0.0967313573 -0.4675333202 0.1567362249 )
  ( -1.6791052818 -0.0000239015 0.0014968514 ) ( 0.0000000014 -0.0000001944 -0.0000000186 )
  ( -1.2707813978 0.0000282526 0.0011651963 ) ( 0.0000001495 0.7071062922 -0.0000001442 )
  ( -1.2061427832 -0.4589325786 6.2291550636 ) ( 0.0000194864 -0.7071262598 -0.0000194854 )
  ( -1.4808018208 -0.0000020948 0.0022557802 ) ( 0.0001794997 -0.0001792818 0.1336775273 )
  ( -0.9798946381 -0.0000022332 0.0011384857 ) ( 0.0759933889 0.7029330134 0.0758283883 )
  ( 0.0011323692 -0.0000017502 1.2384005785 ) ( 0.0000000149 0.0000000035 0.0000000388 )
  ( 0.9575448036 -0.4587714672 3.6564393044 ) ( 0.0429671444 -0.7058849931 0.0428026579 )
  ( -1.8562816381 -0.0000014087 0.0025037199 ) ( 0.0001730594 -0.0001778291 0.1480355561 )
  ( -1.0458487272 -0.0000009410 0.0010346614 ) ( 0.0000889888 -0.0001018699 0.1002773046 )
  ( -1.5055395365 -0.0000035905 0.0011810367 ) ( 0.0000114884 0.7071009874 -0.0000113619 )
  ( -0.4129891396 8.1527709961 8.3131628036 ) ( 0.0000279307 0.0000000016 -1.0000000000 )
  ( 0.0000000000 0.0000000000 0.0000000000 ) ( 0.7071067095 0.0000000000 -0.7071068287 )
}

frame 0 {
  -0.0000000251 -0.0000000089 0.0000013374 -0.7071068287 -0.0000000188 -0.0000000124
  -0.0175175872 4.5148844719 1.4526960850 -0.0000001064 0.0000000004 -1.0000000000
  -2.0376806259 -1.0987175703 0.5451019406 -0.0000000014 -0.0000001751 -0.0000000857
  2.5079936981 0.1487963647 3.5524599552 -0.0000000275 0.0000000224 0.0000000745
  -1.0437763929 1.6534510851 2.9099972248 0.3358449340 0.0908748657 -0.1464178860
  -8.3812913895 0.0000040531 -0.0005171299 -0.0000000084 0.0000000009 0.0000001425
  -3.9075498581 -0.0000011921 0.0005273819 0.0000001615 0.4906783700 0.1747157723
  -9.0582656860 -0.0000002161 0.0000081472 0.1190425381 0.7449979782 0.2046180069
  -2.4121785164 -0.4690736234 4.9682660103 0.2278126925 -0.6577842236 0.2557729781
  -1.4861805439 -0.0092614591 0.0023777783 -0.0182543639 0.0115489084 0.4644549489
  -0.9848695993 -0.0127545446 0.0012261197 0.3776762486 0.5943308473 0.4060392380
  0.0011330917 -0.0000031143 1.2383987904 -0.0000005580 0.0000000258 -0.0000000136
  -0.0485554934 -0.4682635665 4.8929114342 0.2945401371 -0.6570016146 0.2687331140
  -1.8586775064 -0.0117372274 0.0021857023 0.0182136595 -0.0123658851 0.5519973040
  -1.0443681479 -0.0123012066 0.0005888455 0.0186418109 -0.0115624722 0.5112479329
  -1.5055356026 -0.0000055134 0.0011811554 0.0000105017 0.7071008682 -0.0000123782
  -2.1457793713 -0.0792669058 2.5121207237 0.0795318857 -0.4358265102 0.3166429400
  -1.6636116505 -0.0215005875 -0.0294215679 -0.1323003769 -0.3390546441 0.1692509800
  -1.2707848549 0.0000328571 0.0011671185 -0.0000000843 0.7071065903 -0.0000001844
  -1.1617139578 -0.4687235355 6.2216253281 0.4803776443 -0.5438482165 0.4272537827
  -1.4778461456 -0.0012522936 0.0014463663 0.0268109981 -0.0268565025 0.2610144317
  -0.9766043425 -0.0043365955 0.0003550947 0.2762081027 0.6432811022 0.2330486923
  0.0011312366 -0.0000033379 1.2383992672 -0.0000005383 -0.0000000326 -0.0000000522
  1.0011174679 -0.4596705437 3.6390314102 0.1633753926 -0.7046147585 0.1056701615
  -1.8531147242 0.0007334948 0.0014585257 0.0384743810 -0.0210313518 0.2334485203
  -1.0480561256 -0.0147860050 0.0011987686 0.0431204140 0.0045895586 0.6846182346
  -1.5055346489 -0.0000048876 0.0011794567 0.0000105142 0.7071008682 -0.0000124227
  -0.4064104557 8.1463708878 8.3328666687 0.0000000743 -0.0000006263 -1.0000000000
  15.9673786163 10.8146171570 -4.8384418488 0.4322459400 -0.4759577811 0.5194509029
}

frame 1 {
  -0.0000000251 -0.0000000089 0.0000013374 -0.7071068287 -0.0000000188 -0.0000000124
  -0.0175175872 4.5148844719 1.4526960850 -0.0000001064 0.0000000004 -1.0000000000
  -2.0376806259 -1.0987175703 0.5451019406 -0.0000000014 -0.0000001751 -0.0000000857
  2.5079936981 0.1487963647 3.5524599552 -0.0000000275 0.0000000224 0.0000000745
  -1.0437763929 1.6534508467 2.9099972248 0.3673736453 0.0621541403 -0.1272569597
  -8.3812904358 0.0000038147 -0.0005161762 0.0000000251 -0.0000000023 0.0000001378
  -3.9075491428 0.0000016689 0.0005257130 0.0000001576 0.5614908934 0.1980305165
  -9.0582666397 -0.0000003800 0.0000061914 0.0971071199 0.7011083364 0.1759161055
  -2.4121794701 -0.4690727890 4.9682664871 0.2278127223 -0.6577842236 0.2557729483
  -1.4861804247 -0.0092602968 0.0023763687 -0.0182543471 0.0115489271 0.4644548297
  -0.9848694205 -0.0127539635 0.0012262538 0.3776761591 0.5943309069 0.4060390890
  0.0011321306 -0.0000010729 1.2383984327 -0.0000005490 0.0000000263 -0.0000000153
  -0.0485560298 -0.4682624936 4.8929114342 0.2945401371 -0.6570017338 0.2687330842
  -1.8586740494 -0.0117363930 0.0021859407 0.0182136577 -0.0123658841 0.5519973040
  -1.0443681479 -0.0123016834 0.0005874634 0.0186417960 -0.0115624741 0.5112479329
  -1.5055350065 -0.0000055432 0.0011821613 0.0000105117 0.7071008682 -0.0000123719
  -2.1457815170 -0.0792665035 2.5121207237 0.0795318931 -0.4358264804 0.3166430295
  -1.6636111736 -0.0215005875 -0.0294224024 -0.1323003173 -0.3390545845 0.1692509949
  -1.2707850933 0.0000325441 0.0011656880 -0.0000000672 0.7071065903 -0.0000002055
  -1.1617164612 -0.4687220454 6.2216248512 0.4803776741 -0.5438483357 0.4272538126
  -1.4778432846 -0.0012524128 0.0014468431 0.0268109683 -0.0268564634 0.2610144913
  -0.9766041040 -0.0043349266 0.0003535151 0.2762082219 0.6432811022 0.2330488414
  0.0011335313 -0.0000029802 1.2383990288 -0.0000005136 -0.0000000279 -0.0000000484
  1.0011149645 -0.4596704841 3.6390314102 0.1633753926 -0.7046147585 0.1056701168
  -1.8531152010 0.0007358789 0.0014583468 0.0384744331 -0.0210313480 0.2334485799
  -1.0480575562 -0.0147869587 0.0012032986 0.0431204662 0.0045895847 0.6846182346
  -1.5055367947 -0.0000042915 0.0011831522 0.0000104905 0.7071008682 -0.0000123871
  -0.4064104557 8.1463708878 8.3328666687 0.0000000743 -0.0000006263 -1.0000000000
  15.2006034851 10.7533054352 -4.4381070137 0.3956495821 -0.4993605614 0.5083161592
}

frame 2 {
  -0.0000000251 -0.0000000089 0.0000013374 -0.7071068287 -0.0000000188 -0.0000000124
  -0.0175175872 4.5148844719 1.4526960850 -0.0000001064 0.0000000004 -1.0000000000
  -2.0376806259 -1.0987175703 0.5451019406 -0.0000000014 -0.0000001751 -0.0000000857
  2.5079936981 0.1487963647 3.5524599552 -0.0000000275 0.0000000224 0.0000000745
  -1.0437763929 1.6534506083 2.9099962711 0.4569983482 -0.0037908854 -0.0641768873
  -8.3812904358 0.0000021458 -0.0005171597 0.0000000102 -0.0000000019 0.0000001444
  -3.9075469971 0.0000019073 0.0005266666 0.0000001691 0.6989625692 0.2732082903
  -9.0582637787 -0.0000000596 0.0000082552 0.0136888083 0.5677032471 0.1208827421
  -2.4121792316 -0.4690732360 4.9682655334 0.2278127223 -0.6577842236 0.2557729185
  -1.4861798286 -0.0092606544 0.0023775101 -0.0182543807 0.0115489196 0.4644549191
  -0.9848693609 -0.0127544403 0.0012260377 0.3776761591 0.5943308473 0.4060391486
  0.0011338741 -0.0000022054 1.2383993864 -0.0000005553 0.0000000289 -0.0000000168
  -0.0485557914 -0.4682627320 4.8929109573 0.2945401371 -0.6570016742 0.2687331140
  -1.8586747646 -0.0117394924 0.0021882057 0.0182136968 -0.0123658720 0.5519971848
  -1.0443674326 -0.0123025179 0.0005903840 0.0186418183 -0.0115624154 0.5112478137
  -1.5055356026 -0.0000045598 0.0011811852 0.0000105044 0.7071008682 -0.0000123710
  -2.1457815170 -0.0792673826 2.5121207237 0.0795319378 -0.4358264208 0.3166429698
  -1.6636106968 -0.0215010941 -0.0294218659 -0.1323003173 -0.3390546143 0.1692509800
  -1.2707848549 0.0000327826 0.0011653900 -0.0000000790 0.7071065903 -0.0000001765
  -1.1617147923 -0.4687227011 6.2216253281 0.4803776443 -0.5438483357 0.4272537529
  -1.4778429270 -0.0012521744 0.0014453530 0.0268109515 -0.0268564541 0.2610144317
  -0.9766051173 -0.0043354630 0.0003540516 0.2762082517 0.6432811022 0.2330488265
  0.0011330247 -0.0000019073 1.2383985519 -0.0000005253 -0.0000000205 -0.0000000559
  1.0011162758 -0.4596702754 3.6390311718 0.1633753926 -0.7046147585 0.1056701615
  -1.8531148434 0.0007337928 0.0014569163 0.0384744108 -0.0210313201 0.2334485650
  -1.0480571985 -0.0147861242 0.0012028217 0.0431203693 0.0045896787 0.6846181750
  -1.5055358410 -0.0000053644 0.0011824369 0.0000105156 0.7071008682 -0.0000124056
  -0.4064104557 8.1463708878 8.3328666687 0.0000000743 -0.0000006263 -1.0000000000
  13.3124380112 10.3170700073 -2.9557936192 0.2869805992 -0.5539045334 0.4816273749
}

frame 3 {
  -0.0000000251 -0.0000000089 0.0000013374 -0.7071068287 -0.0000000188 -0.0000000124
  -0.0175175872 4.5148844719 1.4526960850 -0.0000001064 0.0000000004 -1.0000000000
  -2.0376806259 -1.0987175703 0.5451019406 -0.0000000014 -0.0000001751 -0.0000000857
  2.5079936981 0.1487963647 3.5524599552 -0.0000000275 0.0000000224 0.0000000745
  -1.0437763929 1.6534503698 2.9099962711 0.5572233796 -0.0878597051 0.0209459849
  -8.3812913895 0.0000017881 -0.0005165935 -0.0000000081 -0.0000000047 0.0000001369
  -3.9075465202 -0.0000007749 0.0005257726 0.0000001827 0.7838193178 0.3822694719
  -9.0582637787 -0.0000005960 0.0000075102 -0.1025853828 0.4025118649 0.0855491981
  -2.4121799469 -0.4690738618 4.9682655334 0.2278126329 -0.6577841640 0.2557729483
  -1.4861797094 -0.0092613846 0.0023777485 -0.0182543527 0.0115488749 0.4644548893
  -0.9848698378 -0.0127544403 0.0012262464 0.3776762187 0.5943307877 0.4060391486
  0.0011338890 -0.0000017285 1.2383985519 -0.0000005416 0.0000000373 -0.0000000112
  -0.0485565253 -0.4682642221 4.8929114342 0.2945401073 -0.6570016146 0.2687330842
  -1.8586761951 -0.0117348731 0.0021871328 0.0182137005 -0.0123659149 0.5519973040
  -1.0443674326 -0.0123018026 0.0005877018 0.0186418518 -0.0115624787 0.5112479329
  -1.5055358410 -0.0000057817 0.0011817217 0.0000105011 0.7071008682 -0.0000123779
  -2.1457819939 -0.0792685747 2.5121207237 0.0795318782 -0.4358264208 0.3166430593
  -1.6636110544 -0.0215007812 -0.0294201076 -0.1323003322 -0.3390546441 0.1692509651
  -1.2707837820 0.0000321269 0.0011653304 -0.0000001001 0.7071065903 -0.0000001791
  -1.1617155075 -0.4687229991 6.2216253281 0.4803777039 -0.5438482761 0.4272538424
  -1.4778443575 -0.0012521744 0.0014444292 0.0268109366 -0.0268564746 0.2610144913
  -0.9766031504 -0.0043365955 0.0003563762 0.2762081623 0.6432811618 0.2330488861
  0.0011332035 -0.0000019073 1.2383995056 -0.0000005485 -0.0000000447 -0.0000000410
  1.0011157990 -0.4596702456 3.6390309334 0.1633753628 -0.7046146989 0.1056701541
  -1.8531147242 0.0007335991 0.0014585182 0.0384743661 -0.0210313238 0.2334485203
  -1.0480573177 -0.0147843361 0.0012018979 0.0431203917 0.0045896443 0.6846181750
  -1.5055351257 -0.0000055432 0.0011816323 0.0000104918 0.7071008682 -0.0000124016
  -0.4064104557 8.1463708878 8.3328666687 0.0000000743 -0.0000006263 -1.0000000000
  11.6919803619 9.0551815033 -0.5063062906 0.1474983394 -0.5952320099 0.4660896063
}

frame 4 {
  -0.0000000251 -0.0000000089 0.0000013374 -0.7071068287 -0.0000000188 -0.0000000124
  -0.0175175872 4.5148844719 1.4526960850 -0.0000001064 0.0000000004 -1.0000000000
  -2.0376806259 -1.0987175703 0.5451019406 -0.0000000014 -0.0000001751 -0.0000000857
  2.5079936981 0.1487963647 3.5524599552 -0.0000000275 0.0000000224 0.0000000745
  -1.0437766314 1.6534503698 2.9099972248 0.5665633678 -0.2085228413 0.0720872879
  -8.3812904358 0.0000039935 -0.0005168915 -0.0000000009 -0.0000000037 0.0000001471
  -3.9075465202 0.0000003725 0.0005266070 0.0000002347 0.8346492052 0.3978241384
  -9.0582656860 0.0000009537 0.0000071526 -0.1237190440 0.3316550851 0.0390107147
  -2.4121794701 -0.4690754414 4.9682660103 0.2278126478 -0.6577842236 0.2557729781
  -1.4861798286 -0.0092619080 0.0023774803 -0.0182543751 0.0115489298 0.4644548893
  -0.9848701358 -0.0127539514 0.0012265171 0.3776761889 0.5943309069 0.4060391486
  0.0011343732 -0.0000022054 1.2383986712 -0.0000005392 0.0000000279 -0.0000000130
  -0.0485563278 -0.4682654142 4.8929114342 0.2945401073 -0.6570016146 0.2687331438
  -1.8586761951 -0.0117382705 0.0021866411 0.0182136670 -0.0123658730 0.5519972444
  -1.0443701744 -0.0123017728 0.0005881041 0.0186418109 -0.0115624415 0.5112479925
  -1.5055351257 -0.0000046492 0.0011816621 0.0000104945 0.7071008682 -0.0000123990
  -2.1457805634 -0.0792678595 2.5121200085 0.0795318410 -0.4358264208 0.3166429698
  -1.6636108160 -0.0215011090 -0.0294210464 -0.1323003471 -0.3390546441 0.1692509502
  -1.2707844973 0.0000329316 0.0011664331 -0.0000001001 0.7071065903 -0.0000001633
  -1.1617158651 -0.4687238336 6.2216253281 0.4803776443 -0.5438482761 0.4272538126
  -1.4778442383 -0.0012523383 0.0014454350 0.0268110149 -0.0268564783 0.2610144317
  -0.9766048789 -0.0043361485 0.0003554933 0.2762080729 0.6432811022 0.2330487221
  0.0011337623 -0.0000022650 1.2383981943 -0.0000005104 -0.0000000168 -0.0000000540
  1.0011155605 -0.4596719742 3.6390306950 0.1633753479 -0.7046146989 0.1056701764
  -1.8531146049 0.0007337332 0.0014577210 0.0384743810 -0.0210313182 0.2334485948
  -1.0480574369 -0.0147853866 0.0012008548 0.0431204215 0.0045895930 0.6846181750
  -1.5055354834 -0.0000048429 0.0011826456 0.0000105060 0.7071008682 -0.0000124141
  -0.4064104557 8.1463708878 8.3328666687 0.0000000743 -0.0000006263 -1.0000000000
  11.4933423996 6.9819006920 1.9913290739 0.0324009955 -0.5978872776 0.4917895198
}

frame 5 {
  -0.0000000251 -0.0000000089 0.0000013374 -0.7071068287 -0.0000000188 -0.0000000124
  -0.0175175872 4.5148844719 1.4526960850 -0.0000001064 0.0000000004 -1.0000000000
  -2.0376806259 -1.0987175703 0.5451019406 -0.0000000014 -0.0000001751 -0.0000000857
  2.5079936981 0.1487963647 3.5524599552 -0.0000000275 0.0000000224 0.0000000745
  -1.0437768698 1.6534513235 2.9099972248 0.4664950967 -0.3994916975 0.1053150073
  -8.3812913895 0.0000026822 -0.0005162656 0.0000000037 0.0000000112 0.0000001304
  -3.9075503349 -0.0000004768 0.0005267262 0.0000003429 0.8781815171 0.3285073042
  -9.0582647324 -0.0000011921 0.0000075102 -0.0696497262 0.3755722642 -0.0544696152
  -2.4121799469 -0.4690742493 4.9682650566 0.2278126925 -0.6577842236 0.2557729185
  -1.4861795902 -0.0092615485 0.0023770332 -0.0182543322 0.0115489401 0.4644549489
  -0.9848691225 -0.0127539635 0.0012273192 0.3776761889 0.5943308473 0.4060391486
  0.0011322498 -0.0000019073 1.2383996248 -0.0000005644 0.0000000354 -0.0000000130
  -0.0485564470 -0.4682641029 4.8929114342 0.2945401073 -0.6570016146 0.2687330842
  -1.8586759567 -0.0117364526 0.0021878481 0.0182137098 -0.0123658841 0.5519973040
  -1.0443689823 -0.0123019665 0.0005878210 0.0186419003 -0.0115624750 0.5112479329
  -1.5055371523 -0.0000064373 0.0011816025 0.0000104787 0.7071008682 -0.0000123805
  -2.1457819939 -0.0792679787 2.5121197701 0.0795318782 -0.4358264208 0.3166429698
  -1.6636111736 -0.0215004086 -0.0294208825 -0.1323003620 -0.3390546143 0.1692509949
  -1.2707843781 0.0000317693 0.0011669397 -0.0000000672 0.7071065903 -0.0000001528
  -1.1617155075 -0.4687232971 6.2216253281 0.4803776443 -0.5438483357 0.4272537529
  -1.4778437614 -0.0012534857 0.0014458299 0.0268110093 -0.0268564243 0.2610144317
  -0.9766056538 -0.0043354332 0.0003554821 0.2762081325 0.6432811022 0.2330487072
  0.0011333227 -0.0000023842 1.2383975983 -0.0000005122 -0.0000000298 -0.0000000466
  1.0011160374 -0.4596714973 3.6390314102 0.1633753628 -0.7046147585 0.1056701392
  -1.8531153202 0.0007333755 0.0014575720 0.0384743325 -0.0210313033 0.2334485501
  -1.0480579138 -0.0147854388 0.0012021065 0.0431203097 0.0045896312 0.6846181750
  -1.5055360794 -0.0000049472 0.0011816025 0.0000104918 0.7071008682 -0.0000123911
  -0.4064104557 8.1463708878 8.3328666687 0.0000000743 -0.0000006263 -1.0000000000
  12.2350215912 3.8136558533 4.9840402603 -0.1041308939 -0.5644087195 0.5568247437
}

frame 6 {
  -0.0000000251 -0.0000000089 0.0000013374 -0.7071068287 -0.0000000188 -0.0000000124
  -0.0175175872 4.5148844719 1.4526960850 -0.0000001064 0.0000000004 -1.0000000000
  -2.0376806259 -1.0987175703 0.5451019406 -0.0000000014 -0.0000001751 -0.0000000857
  2.5079936981 0.1487963647 3.5524599552 -0.0000000275 0.0000000224 0.0000000745
  -1.0437766314 1.6534522772 2.9099981785 0.2999500632 -0.6076633930 0.1188127249
  -8.3812904358 0.0000029802 -0.0005163848 0.0000000028 0.0000000037 0.0000001341
  -3.9075465202 0.0000002980 0.0005261302 0.0000004661 0.8355392218 0.3593524992
  -9.0582675934 0.0000009798 0.0000079535 -0.0430393256 0.5006311536 -0.1857422888
  -2.4121792316 -0.4690747261 4.9682655334 0.2278127074 -0.6577842236 0.2557729185
  -1.4861795902 -0.0092611313 0.0023767948 -0.0182543211 0.0115489513 0.4644549489
  -0.9848693609 -0.0127553493 0.0012269020 0.3776762486 0.5943308473 0.4060390890
  0.0011328459 -0.0000027418 1.2383993864 -0.0000005467 0.0000000270 -0.0000000286
  -0.0485560298 -0.4682635665 4.8929114342 0.2945401371 -0.6570017338 0.2687330544
  -1.8586753607 -0.0117376521 0.0021873116 0.0182136986 -0.0123658618 0.5519973040
  -1.0443673134 -0.0123020746 0.0005887151 0.0186418761 -0.0115624908 0.5112478733
  -1.5055357218 -0.0000051856 0.0011816323 0.0000105297 0.7071008682 -0.0000123968
  -2.1457810402 -0.0792673826 2.5121204853 0.0795319304 -0.4358264208 0.3166429698
  -1.6636104584 -0.0215008259 -0.0294228792 -0.1323003471 -0.3390546441 0.1692509502
  -1.2707855701 0.0000313222 0.0011667609 -0.0000000988 0.7071065903 -0.0000001798
  -1.1617152691 -0.4687230587 6.2216253281 0.4803776145 -0.5438483357 0.4272537827
  -1.4778448343 -0.0012519732 0.0014457703 0.0268110055 -0.0268564988 0.2610144317
  -0.9766026735 -0.0043356419 0.0003558397 0.2762081921 0.6432811022 0.2330487520
  0.0011332631 -0.0000027418 1.2383998632 -0.0000005215 -0.0000000317 -0.0000000314
  1.0011163950 -0.4596717656 3.6390309334 0.1633753777 -0.7046146989 0.1056701466
  -1.8531163931 0.0007331967 0.0014585853 0.0384743623 -0.0210312903 0.2334486097
  -1.0480581522 -0.0147876069 0.0012017488 0.0431203246 0.0045896564 0.6846182346
  -1.5055363178 -0.0000045598 0.0011820793 0.0000104905 0.7071008682 -0.0000124161
  -0.4064104557 8.1463708878 8.3328666687 0.0000000743 -0.0000006263 -1.0000000000
  12.7959175110 -0.9426702261 9.1816463470 -0.3166556656 -0.4794159830 0.6300574541
}

frame 7 {
  -0.0000000251 -0.0000000089 0.0000013374 -0.7071068287 -0.0000000188 -0.0000000124
  -0.0175175872 4.5148844719 1.4526960850 -0.0000001064 0.0000000004 -1.0000000000
  -2.0376806259 -1.0987175703 0.5451019406 -0.0000000014 -0.0000001751 -0.0000000857
  2.5079936981 0.1487963647 3.5524599552 -0.0000000275 0.0000000224 0.0000000745
  -1.0437762737 1.6534525156 2.9099991322 0.1587301195 -0.6664553285 0.0793330595
  -8.3812923431 0.0000028312 -0.0005166680 0.0000000051 0.0000000009 0.0000001441
  -3.9075448513 0.0000002235 0.0005263872 0.0000006845 0.6501155496 0.5068987608
  -9.0582666397 -0.0000007153 0.0000056773 -0.0130116586 0.6177513003 -0.2951600254
  -2.4121801853 -0.4690728784 4.9682650566 0.2278127223 -0.6577842236 0.2557729781
  -1.4861800671 -0.0092595518 0.0023766756 -0.0182543546 0.0115489159 0.4644549787
  -0.9848696589 -0.0127536058 0.0012263060 0.3776762784 0.5943307877 0.4060391486
  0.0011324883 -0.0000028014 1.2383987904 -0.0000005597 0.0000000275 -0.0000000088
  -0.0485568047 -0.4682626128 4.8929095268 0.2945401371 -0.6570016146 0.2687331140
  -1.8586754799 -0.0117374659 0.0021874905 0.0182136670 -0.0123658758 0.5519972444
  -1.0443693399 -0.0123021603 0.0005887747 0.0186417904 -0.0115624415 0.5112479925
  -1.5055354834 -0.0000023246 0.0011825562 0.0000104997 0.7071008682 -0.0000123766
  -2.1457815170 -0.0792675018 2.5121188164 0.0795318931 -0.4358265102 0.3166429400
  -1.6636111736 -0.0215011835 -0.0294203758 -0.1323003322 -0.3390546441 0.1692509502
  -1.2707842588 0.0000319481 0.0011645555 -0.0000001185 0.7071065903 -0.0000001501
  -1.1617157459 -0.4687217474 6.2216248512 0.4803776741 -0.5438483357 0.4272537827
  -1.4778460264 -0.0012516975 0.0014460087 0.0268109608 -0.0268564671 0.2610144913
  -0.9766055346 -0.0043356419 0.0003554821 0.2762083113 0.6432810426 0.2330487818
  0.0011327267 -0.0000036955 1.2383974791 -0.0000005104 -0.0000000335 -0.0000000652
  1.0011162758 -0.4596703649 3.6390309334 0.1633753926 -0.7046147585 0.1056701392
  -1.8531148434 0.0007327795 0.0014581680 0.0384744294 -0.0210313275 0.2334485203
  -1.0480587482 -0.0147862434 0.0012012124 0.0431204289 0.0045896061 0.6846182346
  -1.5055344105 -0.0000059605 0.0011826754 0.0000105077 0.7071008682 -0.0000123805
  -0.4064104557 8.1463708878 8.3328666687 0.0000000743 -0.0000006263 -1.0000000000
  12.3784818649 -5.9773511887 13.3378171921 -0.5257415175 -0.3505497873 0.6633394957
}

frame 8 {
  -0.0000000251 -0.0000000089 0.0000013374 -0.7071068287 -0.0000000188 -0.0000000124
  -0.0175175872 4.5148844719 1.4526960850 -0.0000001064 0.0000000004 -1.0000000000
  -2.0376806259 -1.0987175703 0.5451019406 -0.0000000014 -0.0000001751 -0.0000000857
  2.5079936981 0.1487963647 3.5524599552 -0.0000000275 0.0000000224 0.0000000745
  -1.0437760353 1.6534525156 2.9099991322 0.1024936140 -0.6386401057 0.0807009712
  -8.3812904358 0.0000037979 -0.0005171895 0.0000000009 0.0000000033 0.0000001554
  -3.9075441360 0.0000019781 0.0005268343 0.0000005386 0.4783894122 0.5410783887
  -9.0582666397 0.0000013113 0.0000061989 0.0840912908 0.6650294065 -0.3248734176
  -2.4121799469 -0.4690726399 4.9682660103 0.2278127223 -0.6577842236 0.2557729483
  -1.4861803055 -0.0092601776 0.0023770332 -0.0182543397 0.0115489122 0.4644548595
  -0.9848700166 -0.0127532482 0.0012276173 0.3776761591 0.5943309665 0.4060390890
  0.0011330843 -0.0000017881 1.2383978367 -0.0000005532 0.0000000256 -0.0000000177
  -0.0485561788 -0.4682622552 4.8929109573 0.2945401073 -0.6570016742 0.2687331140
  -1.8586759567 -0.0117368698 0.0021881461 0.0182136502 -0.0123658814 0.5519973040
  -1.0443687439 -0.0123043060 0.0005878210 0.0186417736 -0.0115624815 0.5112479329
  -1.5055339336 -0.0000042319 0.0011810064 0.0000105024 0.7071008682 -0.0000123720
  -2.1457819939 -0.0792652443 2.5121212006 0.0795318782 -0.4358264804 0.3166429698
  -1.6636109352 -0.0215010643 -0.0294207633 -0.1323003471 -0.3390546441 0.1692510396
  -1.2707833052 0.0000325441 0.0011670589 -0.0000000316 0.7071065903 -0.0000002134
  -1.1617152691 -0.4687225819 6.2216248512 0.4803777039 -0.5438483357 0.4272538424
  -1.4778438807 -0.0012547970 0.0014456827 0.0268109404 -0.0268564820 0.2610143721
  -0.9766064882 -0.0043368340 0.0003564954 0.2762082219 0.6432811022 0.2330486774
  0.0011334419 -0.0000014305 1.2383990288 -0.0000005402 -0.0000000298 -0.0000000503
  1.0011162758 -0.4596701860 3.6390304565 0.1633753777 -0.7046147585 0.1056701690
  -1.8531146049 0.0007350445 0.0014588535 0.0384743996 -0.0210313778 0.2334485948
  -1.0480580330 -0.0147891045 0.0012007952 0.0431204252 0.0045895870 0.6846182346
  -1.5055356026 -0.0000057220 0.0011820197 0.0000105156 0.7071008682 -0.0000123647
  -0.4064104557 8.1463708878 8.3328666687 0.0000000743 -0.0000006263 -1.0000000000
  11.5476198196 -9.2400369644 15.9795112610 -0.6439750791 -0.2485653311 0.6571894884
}

frame 9 {
  -0.0000000251 -0.0000000089 0.0000013374 -0.7071068287 -0.0000000188 -0.0000000124
  -0.0175175872 4.5148844719 1.4526960850 -0.0000001064 0.0000000004 -1.0000000000
  -2.0376806259 -1.0987175703 0.5451019406 -0.0000000014 -0.0000001751 -0.0000000857
  2.5079936981 0.1487963647 3.5524599552 -0.0000000275 0.0000000224 0.0000000745
  -1.0437760353 1.6534525156 2.9099991322 0.0919475183 -0.6236754656 0.0919475183
  -8.3812913895 0.0000036731 -0.0005167350 0.0000000014 0.0000000036 0.0000001568
  -3.9075496197 0.0000009909 0.0005270541 0.0000004051 0.4231272340 0.5289086699
  -9.0582656860 -0.0000013113 0.0000083447 0.1307646483 0.6702280045 -0.3235573173
  -2.4121787548 -0.4690734744 4.9682669640 0.2278127223 -0.6577842236 0.2557729185
  -1.4861807823 -0.0092604160 0.0023763180 -0.0182543006 0.0115489010 0.4644549489
  -0.9848700166 -0.0127555132 0.0012280047 0.3776761889 0.5943309069 0.4060390890
  0.0011344403 -0.0000020266 1.2383975983 -0.0000005588 0.0000000638 -0.0000000289
  -0.0485565849 -0.4682635963 4.8929109573 0.2945401669 -0.6570017338 0.2687330544
  -1.8586747646 -0.0117373466 0.0021863878 0.0182136633 -0.0123659251 0.5519972444
  -1.0443670750 -0.0123009682 0.0005882531 0.0186417848 -0.0115625458 0.5112479925
  -1.5055371523 -0.0000058562 0.0011833310 0.0000105096 0.7071008682 -0.0000123795
  -2.1457803249 -0.0792678669 2.5121209621 0.0795319006 -0.4358265102 0.3166429698
  -1.6636128426 -0.0215007216 -0.0294201374 -0.1323003173 -0.3390547335 0.1692510098
  -1.2707836628 0.0000313520 0.0011672974 -0.0000000421 0.7071065903 -0.0000001778
  -1.1617157459 -0.4687233567 6.2216267586 0.4803776741 -0.5438483357 0.4272537827
  -1.4778456688 -0.0012516975 0.0014481544 0.0268109776 -0.0268564131 0.2610144913
  -0.9766025543 -0.0043349266 0.0003546178 0.2762081325 0.6432811022 0.2330487967
  0.0011335611 -0.0000023842 1.2383971214 -0.0000005141 -0.0000000009 -0.0000000522
  1.0011165142 -0.4596720040 3.6390306950 0.1633753777 -0.7046147585 0.1056701168
  -1.8531141281 0.0007317066 0.0014575720 0.0384743810 -0.0210312735 0.2334485650
  -1.0480554104 -0.0147867203 0.0012030602 0.0431203507 0.0045896429 0.6846181750
  -1.5055353642 -0.0000061989 0.0011810064 0.0000105077 0.7071008682 -0.0000123911
  -0.4064104557 8.1463708878 8.3328666687 0.0000000743 -0.0000006263 -1.0000000000
  11.2120428085 -10.2532491684 16.8074169159 -0.6769390702 -0.2143609673 0.6505261660
}

