MD5Version 10 // Parameters used during export: Reorient: False; Scale: 1.0
commandline ""

numFrames 10
numJoints 29
frameRate 24
numAnimatedComponents 174

hierarchy {
  "Origin" -1 63 0 //
  "RightShoulder_Dummy" 0 63 6 //
  "RightShoulder" 1 63 12 //
  "RightArm_Dummy" 2 63 18 //
  "RightArm" 3 63 24 //
  "RightArmRoll" 4 63 30 //
  "RightForeArm" 5 63 36 //
  "RightHand" 6 63 42 //
  "RightHandIndex1" 7 63 48 //
  "RightHandIndex2" 8 63 54 //
  "RightHandIndex3" 9 63 60 //
  "RightHandIndex4" 10 63 66 //
  "RightHandRing1" 7 63 72 //
  "RightHandRing2" 12 63 78 //
  "RightHandRing3" 13 63 84 //
  "RightHandRing4" 14 63 90 //
  "RightHandThumb1" 7 63 96 //
  "RightHandThumb2" 16 63 102 //
  "RightHandThumb3" 17 63 108 //
  "RightHandMiddle1" 7 63 114 //
  "RightHandMiddle2" 19 63 120 //
  "RightHandMiddle3" 20 63 126 //
  "RightHandMiddle4" 21 63 132 //
  "RightHandPinky1" 7 63 138 //
  "RightHandPinky2" 23 63 144 //
  "RightHandPinky3" 24 63 150 //
  "RightHandPinky4" 25 63 156 //
  "rightpad" 0 63 162 //
  "Melee" 0 63 168 //
}

bounds {
  ( -1.3818937540 -12.7025480270 0.3517316580 ) ( 17.8114356995 -5.7317566872 20.7392978668 )
  ( -1.3818937540 -13.3887596130 0.3517316580 ) ( 18.2038726807 -5.8652725220 19.6335754395 )
  ( -1.3818937540 -15.0049486160 -0.0486421585 ) ( 19.9349098206 -6.1920504570 18.3337478638 )
  ( -1.3818937540 -16.6090984344 -2.9108982086 ) ( 21.6925411224 -6.4600806236 16.3580837250 )
  ( -1.3818937540 -17.6908798218 -4.6082715988 ) ( 22.4474773407 -6.4600806236 13.8992538452 )
  ( -1.3818937540 -18.5949306488 -5.4502925873 ) ( 22.4880046844 -6.4600806236 11.4341859818 )
  ( -1.3818937540 -19.8299560547 -5.3459525108 ) ( 21.1609401703 -6.3418598175 7.9180583954 )
  ( -1.3818937540 -21.4381866455 -8.7932300568 ) ( 21.5930290222 -6.0355539322 8.0987586975 )
  ( -1.3818937540 -21.9579792023 -10.8017568588 ) ( 21.2302436829 -5.8341989517 8.1469135284 )
  ( -1.3818937540 -22.0332183838 -11.3636646271 ) ( 20.9481849670 -5.7942371368 8.1285114288 )
}

baseframe {
  ( 0.0000000000 0.0000000000 0.0000000000 ) ( -0.7071068287 -0.0000000000 -0.0000000000 )
  ( -0.0186605453 4.5159912109 1.4360997677 ) ( 0.0000280102 0.0000000016 -1.0000000000 )
  ( -2.0367097855 -1.0987091064 0.5481596589 ) ( 0.0000083447 0.0000000002 -0.0000279347 )
  ( 2.5132143497 0.1486579478 3.5487740040 ) ( -0.0000000000 -0.0000000000 -0.0000000000 )
  ( -1.0394111872 1.6535054445 2.9115278721 ) ( -0.0000195275 -0.7070870399 0.0000196410 )
  ( -8.3812847137 0.0000042481 0.0122467289 ) ( -0.0000000199 0.0000001187 -0.0000001589 )
  ( -3.9075412750 0.0000038572 0.0064787311 ) ( -0.0000000000 -0.0000002980 -0.0000000000 )
  ( -9.0582580566 0.0000030984 0.0137990611 ) ( -0.0000195275 0.7071262598 0.0000195286 )
  ( -2.4562108517 -0.4589804113 4.9792232513 ) ( 0.0000195005 -0.7071262598 -0.0000194994 )
  ( -1.4808013439 -0.0000023665 0.0022553869 ) ( 0.0001794795 -0.0001792844 0.1336774677 )
  ( -0.9798917770 -0.0000008648 0.0011381970 ) ( 0.0759933963 0.7029330134 0.0758283958 )
  ( 0.0011322881 -0.0000015907 1.2384006977 ) ( 0.0000000372 0.0000000035 0.0000000379 )
  ( -0.0923869684 -0.4588496685 4.9064965248 ) ( 0.0429671630 -0.7058849931 0.0428026877 )
  ( -1.8562849760 -0.0000013817 0.0025038412 ) ( 0.0001730661 -0.0001778290 0.1480355263 )
  ( -1.0458492041 -0.0000023897 0.0010347852 ) ( 0.0000889879 -0.0001018705 0.1002773046 )
  ( -1.5055357218 -0.0000026549 0.0011810474 ) ( 0.0000114150 0.7071009874 -0.0000114465 )
  ( -2.1882109642 -0.0633600801 2.5236830711 ) ( 0.0967313573 -0.4675333202 0.1567362249 )
  ( -1.6791052818 -0.0000239015 0.0014968514 ) ( 0.0000000014 -0.0000001944 -0.0000000186 )
  ( -1.2707813978 0.0000282526 0.0011651963 ) ( 0.0000001495 0.7071062922 -0.0000001442 )
  ( -1.2061427832 -0.4589325786 6.2291550636 ) ( 0.0000194864 -0.7071262598 -0.0000194854 )
  ( -1.4808018208 -0.0000020948 0.0022557802 ) ( 0.0001794997 -0.0001792818 0.1336775273 )
  ( -0.9798946381 -0.0000022332 0.0011384857 ) ( 0.0759933889 0.7029330134 0.0758283883 )
  ( 0.0011323692 -0.0000017502 1.2384005785 ) ( 0.0000000149 0.0000000035 0.0000000388 )
  ( 0.9575448036 -0.4587714672 3.6564393044 ) ( 0.0429671444 -0.7058849931 0.0428026579 )
  ( -1.8562816381 -0.0000014087 0.0025037199 ) ( 0.0001730594 -0.0001778291 0.1480355561 )
  ( -1.0458487272 -0.0000009410 0.0010346614 ) ( 0.0000889888 -0.0001018699 0.1002773046 )
  ( -1.5055395365 -0.0000035905 0.0011810367 ) ( 0.0000114884 0.7071009874 -0.0000113619 )
  ( -0.4129891396 8.1527709961 8.3131628036 ) ( 0.0000279307 0.0000000016 -1.0000000000 )
  ( 0.0000000000 0.0000000000 0.0000000000 ) ( 0.7071067095 0.0000000000 -0.7071068287 )
}

frame 0 {
  -0.0000000251 -0.0000000089 0.0000013374 -0.7071068287 -0.0000000188 -0.0000000124
  -0.0175175872 4.5148844719 1.4526960850 -0.0000001064 0.0000000004 -1.0000000000
  -2.0376806259 -1.0987175703 0.5451019406 -0.0000000014 -0.0000001751 -0.0000000857
  2.5079936981 0.1487963647 3.5524599552 -0.0000000275 0.0000000224 0.0000000745
  -1.0437761545 1.6534479856 2.9099972248 0.8446620703 0.0259517692 -0.1322924197
  -8.3812894821 0.0000039935 -0.0005173683 -0.0000000023 -0.0000000000 0.0000001397
  -3.9075493813 0.0000016689 0.0005261898 0.0000002537 0.3022977412 0.3636326790
  -9.0582647324 0.0000007749 0.0000065565 -0.1313600689 0.8695276380 0.1289915591
  -2.4121794701 -0.4690735936 4.9682655334 0.2278127223 -0.6577842832 0.2557729185
  -1.4861822128 -0.0092610121 0.0023766756 -0.0182543322 0.0115488935 0.4644548297
  -0.9848694801 -0.0127587318 0.0012260675 0.3776762187 0.5943309069 0.4060391188
  0.0011348724 -0.0000016689 1.2383991480 -0.0000005295 0.0000000279 -0.0000000140
  -0.0485566854 -0.4682637453 4.8929114342 0.2945401371 -0.6570017338 0.2687330842
  -1.8586740494 -0.0117336512 0.0021872520 0.0182136390 -0.0123658832 0.5519973040
  -1.0443673134 -0.0123032331 0.0005883873 0.0186417364 -0.0115624862 0.5112478137
  -1.5055329800 -0.0000041723 0.0011822730 0.0000105059 0.7071008682 -0.0000123743
  -2.1457805634 -0.0792668462 2.5121216774 0.0795319304 -0.4358264804 0.3166430295
  -1.6636114120 -0.0215001106 -0.0294219591 -0.1323003620 -0.3390547633 0.1692510098
  -1.2707819939 0.0000333786 0.0011658669 -0.0000001054 0.7071065903 -0.0000002186
  -1.1617151499 -0.4687224627 6.2216248512 0.4803776741 -0.5438483357 0.4272537529
  -1.4778442383 -0.0012541562 0.0014455020 0.0268109925 -0.0268564951 0.2610144317
  -0.9766058922 -0.0043338239 0.0003551245 0.2762081623 0.6432811022 0.2330487221
  0.0011335611 -0.0000013709 1.2383999825 -0.0000005134 -0.0000000317 -0.0000000512
  1.0011163950 -0.4596706629 3.6390318871 0.1633754075 -0.7046147585 0.1056701243
  -1.8531147242 0.0007331371 0.0014596283 0.0384743884 -0.0210313275 0.2334485501
  -1.0480568409 -0.0147848129 0.0012010336 0.0431203991 0.0045895679 0.6846182346
  -1.5055336952 -0.0000046492 0.0011811256 0.0000104872 0.7071008682 -0.0000123680
  -0.4064104557 8.1463708878 8.3328666687 0.0000000743 -0.0000006263 -1.0000000000
  17.0368232727 18.5612430573 7.4756441116 -0.0204320364 -0.7622106075 -0.0037534107
}

frame 1 {
  -0.0000000251 -0.0000000089 0.0000013374 -0.7071068287 -0.0000000188 -0.0000000124
  -0.0175175872 4.5148844719 1.4526960850 -0.0000001064 0.0000000004 -1.0000000000
  -2.0376806259 -1.0987175703 0.5451019406 -0.0000000014 -0.0000001751 -0.0000000857
  2.5079936981 0.1487963647 3.5524599552 -0.0000000275 0.0000000224 0.0000000745
  -1.0437763929 1.6534479856 2.9099972248 0.8453841209 -0.0315122306 -0.1278381795
  -8.3812894821 0.0000029802 -0.0005166531 -0.0000000047 0.0000000037 0.0000001332
  -3.9075472355 0.0000009537 0.0005264282 0.0000002620 0.3435565233 0.3924534023
  -9.0582656860 0.0000016093 0.0000071526 -0.1451421976 0.8400475979 0.1315378696
  -2.4121804237 -0.4690753222 4.9682669640 0.2278127223 -0.6577842236 0.2557729483
  -1.4861793518 -0.0092605352 0.0023767389 -0.0182543676 0.0115489317 0.4644548893
  -0.9848705530 -0.0127522945 0.0012252927 0.3776762486 0.5943308473 0.4060392380
  0.0011334419 -0.0000019073 1.2384004593 -0.0000005388 0.0000000247 -0.0000000123
  -0.0485559106 -0.4682660103 4.8929104805 0.2945401371 -0.6570016146 0.2687331140
  -1.8586759567 -0.0117378235 0.0021903515 0.0182136577 -0.0123658897 0.5519973040
  -1.0443656445 -0.0123060942 0.0005879998 0.0186417848 -0.0115624797 0.5112480521
  -1.5055379868 -0.0000050217 0.0011818111 0.0000105018 0.7071008682 -0.0000123775
  -2.1457812786 -0.0792682171 2.5121197701 0.0795318633 -0.4358264208 0.3166429698
  -1.6636102200 -0.0215010643 -0.0294205248 -0.1323003620 -0.3390547037 0.1692510098
  -1.2707853317 0.0000317097 0.0011630058 -0.0000000632 0.7071065903 -0.0000002371
  -1.1617162228 -0.4687235355 6.2216258049 0.4803776741 -0.5438483357 0.4272537827
  -1.4778444767 -0.0012506843 0.0014462471 0.0268109906 -0.0268564653 0.2610143423
  -0.9766049385 -0.0043398142 0.0003557205 0.2762081623 0.6432811022 0.2330487221
  0.0011329204 -0.0000001788 1.2384002209 -0.0000005282 -0.0000000269 -0.0000000517
  1.0011157990 -0.4596717358 3.6390311718 0.1633753777 -0.7046147585 0.1056701466
  -1.8531160355 0.0007336140 0.0014599562 0.0384744294 -0.0210313089 0.2334485650
  -1.0480552912 -0.0147862434 0.0012031794 0.0431204438 0.0045897141 0.6846182942
  -1.5055341721 -0.0000043213 0.0011792183 0.0000105053 0.7071008682 -0.0000124257
  -0.4064104557 8.1463708878 8.3328666687 0.0000000743 -0.0000006263 -1.0000000000
  17.5808925629 17.2437686920 8.1670598984 -0.0497278608 -0.7413024902 0.0372724421
}

frame 2 {
  -0.0000000251 -0.0000000089 0.0000013374 -0.7071068287 -0.0000000188 -0.0000000124
  -0.0175175872 4.5148844719 1.4526960850 -0.0000001064 0.0000000004 -1.0000000000
  -2.0376806259 -1.0987175703 0.5451019406 -0.0000000014 -0.0000001751 -0.0000000857
  2.5079936981 0.1487963647 3.5524599552 -0.0000000275 0.0000000224 0.0000000745
  -1.0437771082 1.6534484625 2.9099981785 0.8313595653 -0.1773961037 -0.1078646481
  -8.3812913895 0.0000045896 -0.0005161129 0.0000000063 0.0000000005 0.0000001285
  -3.9075484276 0.0000026226 0.0005287193 0.0000002236 0.4342126548 0.4147642255
  -9.0582675934 -0.0000002384 0.0000052452 -0.1460729092 0.7646961212 0.1505304277
  -2.4121789932 -0.4690738618 4.9682655334 0.2278126925 -0.6577842236 0.2557729483
  -1.4861812592 -0.0092601776 0.0023767352 -0.0182543062 0.0115489205 0.4644549191
  -0.9848687649 -0.0127534866 0.0012267232 0.3776762784 0.5943308473 0.4060392380
  0.0011357069 -0.0000033379 1.2383996248 -0.0000005523 0.0000000319 -0.0000000112
  -0.0485568643 -0.4682629704 4.8929104805 0.2945401371 -0.6570016146 0.2687330842
  -1.8586766720 -0.0117378235 0.0021873116 0.0182136875 -0.0123659065 0.5519972444
  -1.0443682671 -0.0123004913 0.0005908608 0.0186418034 -0.0115624769 0.5112479329
  -1.5055364370 -0.0000059605 0.0011786222 0.0000105057 0.7071008682 -0.0000123792
  -2.1457815170 -0.0792670548 2.5121207237 0.0795318931 -0.4358264208 0.3166429400
  -1.6636128426 -0.0215020180 -0.0294210911 -0.1323003024 -0.3390546441 0.1692509949
  -1.2707853317 0.0000326633 0.0011651516 -0.0000000382 0.7071065903 -0.0000001515
  -1.1617150307 -0.4687219262 6.2216243744 0.4803776443 -0.5438482761 0.4272538126
  -1.4778435230 -0.0012512207 0.0014465600 0.0268109310 -0.0268565249 0.2610144317
  -0.9766049385 -0.0043370724 0.0003576279 0.2762082219 0.6432809830 0.2330487072
  0.0011337996 -0.0000007153 1.2383995056 -0.0000005309 -0.0000000251 -0.0000000615
  1.0011165142 -0.4596698880 3.6390311718 0.1633753628 -0.7046147585 0.1056701615
  -1.8531160355 0.0007331371 0.0014566351 0.0384744182 -0.0210313443 0.2334485948
  -1.0480573177 -0.0147857666 0.0012004673 0.0431204773 0.0045896680 0.6846182346
  -1.5055356026 -0.0000071526 0.0011818707 0.0000105050 0.7071008682 -0.0000123733
  -0.4064104557 8.1463708878 8.3328666687 0.0000000743 -0.0000006263 -1.0000000000
  19.0997409821 13.1591482162 10.2617101669 -0.1360482723 -0.6685321927 0.1585441977
}

frame 3 {
  -0.0000000251 -0.0000000089 0.0000013374 -0.7071068287 -0.0000000188 -0.0000000124
  -0.0175175872 4.5148844719 1.4526960850 -0.0000001064 0.0000000004 -1.0000000000
  -2.0376806259 -1.0987175703 0.5451019406 -0.0000000014 -0.0000001751 -0.0000000857
  2.5079936981 0.1487963647 3.5524599552 -0.0000000275 0.0000000224 0.0000000745
  -1.0437775850 1.6534489393 2.9099981785 0.7899506688 -0.3201961815 -0.0712880641
  -8.3812913895 0.0000035055 -0.0005170256 0.0000000037 -0.0000000112 0.0000001453
  -3.9075503349 0.0000020564 0.0005275011 0.0000002538 0.4932784140 0.3586680293
  -9.0582647324 -0.0000010729 0.0000066757 -0.1048010960 0.7061063051 0.1922162473
  -2.4121785164 -0.4690735340 4.9682645798 0.2278126776 -0.6577842236 0.2557729185
  -1.4861812592 -0.0092606544 0.0023767948 -0.0182543322 0.0115489475 0.4644549787
  -0.9848698378 -0.0127544403 0.0012269020 0.3776762486 0.5943308473 0.4060391486
  0.0011312962 -0.0000020787 1.2383983135 -0.0000005480 0.0000000298 -0.0000000169
  -0.0485548973 -0.4682629108 4.8929109573 0.2945401073 -0.6570016742 0.2687330544
  -1.8586752415 -0.0117330551 0.0021879673 0.0182135943 -0.0123658301 0.5519973040
  -1.0443677902 -0.0123033524 0.0005881786 0.0186416302 -0.0115624722 0.5112480521
  -1.5055370331 -0.0000047684 0.0011816025 0.0000104867 0.7071008682 -0.0000123708
  -2.1457815170 -0.0792673826 2.5121195316 0.0795318931 -0.4358264208 0.3166429698
  -1.6636098623 -0.0215013027 -0.0294252336 -0.1323003471 -0.3390546441 0.1692510247
  -1.2707846165 0.0000326633 0.0011649132 -0.0000000764 0.7071065903 -0.0000001686
  -1.1617143154 -0.4687228203 6.2216243744 0.4803776741 -0.5438483357 0.4272537529
  -1.4778461456 -0.0012531281 0.0014448166 0.0268109720 -0.0268564709 0.2610144913
  -0.9766044617 -0.0043334961 0.0003533363 0.2762081921 0.6432811618 0.2330487967
  0.0011320114 -0.0000020862 1.2383995056 -0.0000005299 -0.0000000522 -0.0000000587
  1.0011179447 -0.4596709013 3.6390304565 0.1633753777 -0.7046147585 0.1056701764
  -1.8531131744 0.0007355213 0.0014586449 0.0384743698 -0.0210312959 0.2334485203
  -1.0480573177 -0.0147862434 0.0012030602 0.0431202911 0.0045896671 0.6846181750
  -1.5055346489 -0.0000028610 0.0011817217 0.0000104681 0.7071008682 -0.0000123621
  -0.4064104557 8.1463708878 8.3328666687 0.0000000743 -0.0000006263 -1.0000000000
  20.6009273529 7.5706300735 13.0213069916 -0.2407074422 -0.5593224168 0.3062677681
}

frame 4 {
  -0.0000000251 -0.0000000089 0.0000013374 -0.7071068287 -0.0000000188 -0.0000000124
  -0.0175175872 4.5148844719 1.4526960850 -0.0000001064 0.0000000004 -1.0000000000
  -2.0376806259 -1.0987175703 0.5451019406 -0.0000000014 -0.0000001751 -0.0000000857
  2.5079936981 0.1487963647 3.5524599552 -0.0000000275 0.0000000224 0.0000000745
  -1.0437777042 1.6534496546 2.9099981785 0.7389940619 -0.3970699012 -0.0381923281
  -8.3812913895 0.0000030249 -0.0005162358 0.0000000149 -0.0000000000 0.0000001257
  -3.9075450897 -0.0000005662 0.0005280972 0.0000002436 0.4896439910 0.2801400423
  -9.0582647324 0.0000003278 0.0000068247 -0.0637224242 0.6927996874 0.2101762295
  -2.4121799469 -0.4690737724 4.9682655334 0.2278127372 -0.6577841640 0.2557729483
  -1.4861791134 -0.0092597008 0.0023746490 -0.0182544105 0.0115488861 0.4644548893
  -0.9848693609 -0.0127544403 0.0012278557 0.3776761889 0.5943308473 0.4060391486
  0.0011334419 -0.0000036955 1.2383985519 -0.0000005420 0.0000000112 -0.0000000186
  -0.0485563278 -0.4682631493 4.8929114342 0.2945401073 -0.6570016146 0.2687331438
  -1.8586752415 -0.0117335320 0.0021860600 0.0182136670 -0.0123659391 0.5519972444
  -1.0443680286 -0.0123029947 0.0005872250 0.0186417568 -0.0115625178 0.5112479925
  -1.5055373907 -0.0000057220 0.0011832714 0.0000105261 0.7071008682 -0.0000123621
  -2.1457817554 -0.0792676210 2.5121195316 0.0795318931 -0.4358264208 0.3166430295
  -1.6636102200 -0.0215017200 -0.0294209719 -0.1323003024 -0.3390546739 0.1692509651
  -1.2707812786 0.0000329018 0.0011658669 -0.0000000652 0.7071065903 -0.0000001752
  -1.1617169380 -0.4687231779 6.2216248512 0.4803777337 -0.5438483357 0.4272538424
  -1.4778447151 -0.0012528896 0.0014462471 0.0268109608 -0.0268564541 0.2610143423
  -0.9766047001 -0.0043350458 0.0003538132 0.2762081623 0.6432810426 0.2330486178
  0.0011334419 -0.0000028610 1.2383980751 -0.0000005476 -0.0000000373 -0.0000000596
  1.0011155605 -0.4596710801 3.6390299797 0.1633753926 -0.7046147585 0.1056701392
  -1.8531152010 0.0007339716 0.0014588833 0.0384743735 -0.0210313816 0.2334485650
  -1.0480573177 -0.0147875547 0.0012009144 0.0431203805 0.0045895367 0.6846181750
  -1.5055351257 -0.0000048429 0.0011820793 0.0000105169 0.7071008682 -0.0000124069
  -0.4064104557 8.1463708878 8.3328666687 0.0000000743 -0.0000006263 -1.0000000000
  21.2760772705 3.0674376488 14.9636220932 -0.3167441189 -0.4750638902 0.4135023057
}

frame 5 {
  -0.0000000251 -0.0000000089 0.0000013374 -0.7071068287 -0.0000000188 -0.0000000124
  -0.0175175872 4.5148844719 1.4526960850 -0.0000001064 0.0000000004 -1.0000000000
  -2.0376806259 -1.0987175703 0.5451019406 -0.0000000014 -0.0000001751 -0.0000000857
  2.5079936981 0.1487963647 3.5524599552 -0.0000000275 0.0000000224 0.0000000745
  -1.0437777042 1.6534503698 2.9099981785 0.6497814059 -0.4709185660 -0.0093078278
  -8.3812923431 0.0000028610 -0.0005170703 -0.0000000000 -0.0000000224 0.0000001118
  -3.9075484276 0.0000033975 0.0005271435 0.0000002453 0.4868336618 0.2559643090
  -9.0582656860 -0.0000003539 0.0000076890 -0.0273171961 0.6797583699 0.1424696445
  -2.4121806622 -0.4690747261 4.9682660103 0.2278127223 -0.6577842236 0.2557729781
  -1.4861807823 -0.0092649460 0.0023760796 -0.0182543863 0.0115489606 0.4644548893
  -0.9848698378 -0.0127522349 0.0012278557 0.3776761889 0.5943309665 0.4060391784
  0.0011330843 -0.0000019372 1.2383968830 -0.0000005495 0.0000000335 -0.0000000056
  -0.0485569835 -0.4682642519 4.8929109573 0.2945401371 -0.6570016742 0.2687331140
  -1.8586755991 -0.0117400587 0.0021872520 0.0182136521 -0.0123658841 0.5519973040
  -1.0443683863 -0.0123002920 0.0005898476 0.0186417960 -0.0115624676 0.5112479329
  -1.5055370331 -0.0000038131 0.0011822474 0.0000104905 0.7071008682 -0.0000123674
  -2.1457819939 -0.0792691708 2.5121195316 0.0795319155 -0.4358265102 0.3166430295
  -1.6636098623 -0.0215003490 -0.0294237137 -0.1323003471 -0.3390546441 0.1692509651
  -1.2707843781 0.0000324249 0.0011670589 -0.0000000738 0.7071065903 -0.0000001501
  -1.1617164612 -0.4687243700 6.2216262817 0.4803777039 -0.5438483357 0.4272537827
  -1.4778438807 -0.0012490451 0.0014463663 0.0268109944 -0.0268564411 0.2610145211
  -0.9766058922 -0.0043356940 0.0003551245 0.2762082219 0.6432810426 0.2330487967
  0.0011338592 -0.0000020564 1.2383983135 -0.0000005439 -0.0000000242 -0.0000000559
  1.0011156797 -0.4596727490 3.6390297413 0.1633754224 -0.7046146989 0.1056701243
  -1.8531181812 0.0007321686 0.0014593154 0.0384744294 -0.0210313406 0.2334486544
  -1.0480593443 -0.0147878081 0.0012015104 0.0431204550 0.0045896629 0.6846182346
  -1.5055360794 -0.0000055060 0.0011811852 0.0000105169 0.7071008682 -0.0000124075
  -0.4064104557 8.1463708878 8.3328666687 0.0000000743 -0.0000006263 -1.0000000000
  20.7603740692 -0.6217256784 16.0871448517 -0.3933705091 -0.4153760970 0.4968237877
}

frame 6 {
  -0.0000000251 -0.0000000089 0.0000013374 -0.7071068287 -0.0000000188 -0.0000000124
  -0.0175175872 4.5148844719 1.4526960850 -0.0000001064 0.0000000004 -1.0000000000
  -2.0376806259 -1.0987175703 0.5451019406 -0.0000000014 -0.0000001751 -0.0000000857
  2.5079936981 0.1487963647 3.5524599552 -0.0000000275 0.0000000224 0.0000000745
  -1.0437774658 1.6534513235 2.9099981785 0.4734973609 -0.5721135736 0.0150225274
  -8.3812904358 0.0000031888 -0.0005165935 0.0000000037 0.0000000056 0.0000001416
  -3.9075460434 0.0000030994 0.0005276203 0.0000003879 0.4907636046 0.3293472528
  -9.0582647324 0.0000016987 0.0000069737 0.0098978644 0.6539652944 -0.0334142707
  -2.4121801853 -0.4690748453 4.9682664871 0.2278126925 -0.6577842236 0.2557729185
  -1.4861800671 -0.0092630833 0.0023770332 -0.0182543416 0.0115489187 0.4644548297
  -0.9848697186 -0.0127530992 0.0012269020 0.3776760995 0.5943309665 0.4060390592
  0.0011329353 -0.0000042021 1.2383995056 -0.0000005290 0.0000000156 -0.0000000334
  -0.0485568047 -0.4682635069 4.8929133415 0.2945401371 -0.6570016742 0.2687330246
  -1.8586769104 -0.0117353201 0.0021865368 0.0182136521 -0.0123658972 0.5519973040
  -1.0443692207 -0.0123009682 0.0005886555 0.0186417773 -0.0115624787 0.5112479329
  -1.5055354834 -0.0000041723 0.0011816025 0.0000105067 0.7071008682 -0.0000123769
  -2.1457819939 -0.0792675614 2.5121202469 0.0795319229 -0.4358265102 0.3166430295
  -1.6636104584 -0.0215008259 -0.0294217467 -0.1323004067 -0.3390547633 0.1692509800
  -1.2707837820 0.0000326633 0.0011651516 -0.0000000869 0.7071065903 -0.0000001528
  -1.1617164612 -0.4687206149 6.2216277122 0.4803776741 -0.5438483357 0.4272537827
  -1.4778431654 -0.0012516975 0.0014457703 0.0268109720 -0.0268564727 0.2610144317
  -0.9766041040 -0.0043358803 0.0003547668 0.2762081325 0.6432811022 0.2330486923
  0.0011322498 -0.0000026226 1.2383965254 -0.0000005099 -0.0000000373 -0.0000000447
  1.0011157990 -0.4596720934 3.6390311718 0.1633753926 -0.7046147585 0.1056701243
  -1.8531152010 0.0007320046 0.0014586449 0.0384744182 -0.0210313257 0.2334485650
  -1.0480589867 -0.0147869885 0.0012018681 0.0431203805 0.0045896457 0.6846181750
  -1.5055336952 -0.0000072718 0.0011809468 0.0000105208 0.7071008682 -0.0000123634
  -0.4064104557 8.1463708878 8.3328666687 0.0000000743 -0.0000006263 -1.0000000000
  18.4678363800 -4.5654420853 16.8497562408 -0.4985251427 -0.3482064605 0.5754714012
}

frame 7 {
  -0.0000000251 -0.0000000089 0.0000013374 -0.7071068287 -0.0000000188 -0.0000000124
  -0.0175175872 4.5148844719 1.4526960850 -0.0000001064 0.0000000004 -1.0000000000
  -2.0376806259 -1.0987175703 0.5451019406 -0.0000000014 -0.0000001751 -0.0000000857
  2.5079936981 0.1487963647 3.5524599552 -0.0000000275 0.0000000224 0.0000000745
  -1.0437767506 1.6534522772 2.9099991322 0.2653181851 -0.6243050098 0.0388220847
  -8.3812904358 0.0000033677 -0.0005165488 -0.0000000000 -0.0000000019 0.0000001332
  -3.9075460434 0.0000032783 0.0005266368 0.0000003687 0.4594044089 0.4465919435
  -9.0582647324 -0.0000001192 0.0000069141 0.0591227487 0.6532771587 -0.2152972370
  -2.4121794701 -0.4690735936 4.9682636261 0.2278126776 -0.6577842236 0.2557729483
  -1.4861786366 -0.0092582107 0.0023769438 -0.0182543416 0.0115489429 0.4644548893
  -0.9848705530 -0.0127536654 0.0012276173 0.3776761889 0.5943308473 0.4060391784
  0.0011324286 -0.0000022650 1.2383970022 -0.0000005681 0.0000000382 -0.0000000205
  -0.0485558510 -0.4682640433 4.8929085732 0.2945400774 -0.6570017338 0.2687330842
  -1.8586747646 -0.0117379427 0.0021865964 0.0182136446 -0.0123659139 0.5519973040
  -1.0443711281 -0.0123031139 0.0005873442 0.0186417662 -0.0115624806 0.5112479329
  -1.5055356026 -0.0000032187 0.0011808872 0.0000104994 0.7071008682 -0.0000123766
  -2.1457812786 -0.0792677701 2.5121192932 0.0795318782 -0.4358264804 0.3166430295
  -1.6636104584 -0.0214991570 -0.0294201374 -0.1323003024 -0.3390546441 0.1692510098
  -1.2707843781 0.0000333786 0.0011657476 -0.0000000764 0.7071065903 -0.0000001949
  -1.1617159843 -0.4687232673 6.2216238976 0.4803776741 -0.5438483357 0.4272537529
  -1.4778436422 -0.0012507439 0.0014460087 0.0268109571 -0.0268564839 0.2610144913
  -0.9766045213 -0.0043358803 0.0003534555 0.2762082219 0.6432809830 0.2330487669
  0.0011323094 -0.0000014305 1.2383987904 -0.0000005439 -0.0000000112 -0.0000000447
  1.0011162758 -0.4596709609 3.6390280724 0.1633753628 -0.7046147585 0.1056701392
  -1.8531146049 0.0007369518 0.0014573932 0.0384743921 -0.0210313275 0.2334484309
  -1.0480561256 -0.0147864819 0.0012035072 0.0431204066 0.0045895777 0.6846181750
  -1.5055308342 -0.0000054836 0.0011809915 0.0000104797 0.7071008682 -0.0000123707
  -0.4064104557 8.1463708878 8.3328666687 0.0000000743 -0.0000006263 -1.0000000000
  15.0586872101 -7.8626098633 17.0538845062 -0.5983130932 -0.2796619236 0.6276295781
}

frame 8 {
  -0.0000000251 -0.0000000089 0.0000013374 -0.7071068287 -0.0000000188 -0.0000000124
  -0.0175175872 4.5148844719 1.4526960850 -0.0000001064 0.0000000004 -1.0000000000
  -2.0376806259 -1.0987175703 0.5451019406 -0.0000000014 -0.0000001751 -0.0000000857
  2.5079936981 0.1487963647 3.5524599552 -0.0000000275 0.0000000224 0.0000000745
  -1.0437761545 1.6534525156 2.9099991322 0.1319625527 -0.6266589165 0.0752315596
  -8.3812904358 0.0000038818 -0.0005167276 -0.0000000009 0.0000000023 0.0000001653
  -3.9075489044 0.0000016838 0.0005269609 0.0000005012 0.4309507906 0.5117660761
  -9.0582647324 -0.0000016689 0.0000069141 0.1112614423 0.6655511856 -0.3028910458
  -2.4121789932 -0.4690757990 4.9682660103 0.2278127223 -0.6577842236 0.2557729781
  -1.4861788750 -0.0092611313 0.0023763180 -0.0182543118 0.0115489550 0.4644549489
  -0.9848709106 -0.0127547979 0.0012268424 0.3776763380 0.5943308473 0.4060391784
  0.0011337101 -0.0000020266 1.2383980751 -0.0000005420 0.0000000278 -0.0000000237
  -0.0485553741 -0.4682635665 4.8929109573 0.2945401371 -0.6570016742 0.2687331140
  -1.8586750031 -0.0117397308 0.0021878332 0.0182136893 -0.0123658786 0.5519973040
  -1.0443677902 -0.0123004913 0.0005881786 0.0186418165 -0.0115624564 0.5112479925
  -1.5055367947 -0.0000049770 0.0011827946 0.0000105001 0.7071008682 -0.0000123809
  -2.1457805634 -0.0792674571 2.5121200085 0.0795319006 -0.4358265102 0.3166429698
  -1.6636111736 -0.0215018988 -0.0294212103 -0.1323003322 -0.3390546441 0.1692510247
  -1.2707848549 0.0000323057 0.0011656284 -0.0000000843 0.7071065903 -0.0000002450
  -1.1617140770 -0.4687249064 6.2216253281 0.4803777039 -0.5438482761 0.4272537827
  -1.4778441191 -0.0012521744 0.0014460385 0.0268109925 -0.0268564690 0.2610144317
  -0.9766079187 -0.0043358803 0.0003545880 0.2762081623 0.6432811022 0.2330486774
  0.0011327267 -0.0000021458 1.2383975983 -0.0000005253 -0.0000000373 -0.0000000559
  1.0011159182 -0.4596695602 3.6390314102 0.1633753628 -0.7046147585 0.1056701764
  -1.8531146049 0.0007314682 0.0014582276 0.0384743884 -0.0210312661 0.2334484458
  -1.0480601788 -0.0147857666 0.0012021065 0.0431203917 0.0045896852 0.6846181750
  -1.5055370331 -0.0000052005 0.0011820793 0.0000104787 0.7071008682 -0.0000123542
  -0.4064104557 8.1463708878 8.3328666687 0.0000000743 -0.0000006263 -1.0000000000
  12.2287864685 -9.7241353989 16.9087238312 -0.6587615609 -0.2306905091 0.6472207904
}

frame 9 {
  -0.0000000251 -0.0000000089 0.0000013374 -0.7071068287 -0.0000000188 -0.0000000124
  -0.0175175872 4.5148844719 1.4526960850 -0.0000001064 0.0000000004 -1.0000000000
  -2.0376806259 -1.0987175703 0.5451019406 -0.0000000014 -0.0000001751 -0.0000000857
  2.5079936981 0.1487963647 3.5524599552 -0.0000000275 0.0000000224 0.0000000745
  -1.0437760353 1.6534525156 2.9099991322 0.0919475183 -0.6236754656 0.0919475183
  -8.3812913895 0.0000036731 -0.0005167350 0.0000000014 0.0000000036 0.0000001568
  -3.9075496197 0.0000009909 0.0005270541 0.0000004051 0.4231272340 0.5289086699
  -9.0582656860 -0.0000013113 0.0000083447 0.1307646483 0.6702280045 -0.3235573173
  -2.4121787548 -0.4690734744 4.9682669640 0.2278127223 -0.6577842236 0.2557729185
  -1.4861807823 -0.0092604160 0.0023763180 -0.0182543006 0.0115489010 0.4644549489
  -0.9848700166 -0.0127555132 0.0012280047 0.3776761889 0.5943309069 0.4060390890
  0.0011344403 -0.0000020266 1.2383975983 -0.0000005588 0.0000000638 -0.0000000289
  -0.0485565849 -0.4682635963 4.8929109573 0.2945401669 -0.6570017338 0.2687330544
  -1.8586747646 -0.0117373466 0.0021863878 0.0182136633 -0.0123659251 0.5519972444
  -1.0443670750 -0.0123009682 0.0005882531 0.0186417848 -0.0115625458 0.5112479925
  -1.5055371523 -0.0000058562 0.0011833310 0.0000105096 0.7071008682 -0.0000123795
  -2.1457803249 -0.0792678669 2.5121209621 0.0795319006 -0.4358265102 0.3166429698
  -1.6636128426 -0.0215007216 -0.0294201374 -0.1323003173 -0.3390547335 0.1692510098
  -1.2707836628 0.0000313520 0.0011672974 -0.0000000421 0.7071065903 -0.0000001778
  -1.1617157459 -0.4687233567 6.2216267586 0.4803776741 -0.5438483357 0.4272537827
  -1.4778456688 -0.0012516975 0.0014481544 0.0268109776 -0.0268564131 0.2610144913
  -0.9766025543 -0.0043349266 0.0003546178 0.2762081325 0.6432811022 0.2330487967
  0.0011335611 -0.0000023842 1.2383971214 -0.0000005141 -0.0000000009 -0.0000000522
  1.0011165142 -0.4596720040 3.6390306950 0.1633753777 -0.7046147585 0.1056701168
  -1.8531141281 0.0007317066 0.0014575720 0.0384743810 -0.0210312735 0.2334485650
  -1.0480554104 -0.0147867203 0.0012030602 0.0431203507 0.0045896429 0.6846181750
  -1.5055353642 -0.0000061989 0.0011810064 0.0000105077 0.7071008682 -0.0000123911
  -0.4064104557 8.1463708878 8.3328666687 0.0000000743 -0.0000006263 -1.0000000000
  11.2120428085 -10.2532491684 16.8074169159 -0.6769390702 -0.2143609673 0.6505261660
}

