MD5Version 10 // Parameters used during export: Reorient: False; Scale: 1.0
commandline ""

numFrames 10
numJoints 29
frameRate 24
numAnimatedComponents 174

hierarchy {
  "Origin" -1 63 0 //
  "RightShoulder_Dummy" 0 63 6 //
  "RightShoulder" 1 63 12 //
  "RightArm_Dummy" 2 63 18 //
  "RightArm" 3 63 24 //
  "RightArmRoll" 4 63 30 //
  "RightForeArm" 5 63 36 //
  "RightHand" 6 63 42 //
  "RightHandIndex1" 7 63 48 //
  "RightHandIndex2" 8 63 54 //
  "RightHandIndex3" 9 63 60 //
  "RightHandIndex4" 10 63 66 //
  "RightHandRing1" 7 63 72 //
  "RightHandRing2" 12 63 78 //
  "RightHandRing3" 13 63 84 //
  "RightHandRing4" 14 63 90 //
  "RightHandThumb1" 7 63 96 //
  "RightHandThumb2" 16 63 102 //
  "RightHandThumb3" 17 63 108 //
  "RightHandMiddle1" 7 63 114 //
  "RightHandMiddle2" 19 63 120 //
  "RightHandMiddle3" 20 63 126 //
  "RightHandMiddle4" 21 63 132 //
  "RightHandPinky1" 7 63 138 //
  "RightHandPinky2" 23 63 144 //
  "RightHandPinky3" 24 63 150 //
  "RightHandPinky4" 25 63 156 //
  "rightpad" 0 63 162 //
  "Melee" 0 63 168 //
}

bounds {
  ( -1.3818937540 -22.0332183838 -11.3636646271 ) ( 20.9481849670 -5.7942371368 8.1285114288 )
  ( -1.3818937540 -22.0204811096 -9.8851432800 ) ( 20.5275802612 -5.8119678497 8.1265125275 )
  ( -1.3818937540 -21.1338539124 -5.5160684586 ) ( 18.7506561279 -5.5739374161 8.1266622543 )
  ( -1.3818937540 -18.5239582062 -2.2706494331 ) ( 16.3909893036 -2.4029116631 12.7062759399 )
  ( -1.3818937540 -17.0746154785 -0.3059334755 ) ( 16.8126888275 0.4866476059 15.8385038376 )
  ( -1.3818937540 -16.8945159912 0.3517316580 ) ( 17.4992046356 2.0043110847 17.0465011597 )
  ( -1.3818937540 -16.8503684998 0.3517316580 ) ( 18.5291938782 3.9347243309 16.6955165863 )
  ( -1.3818937540 -16.6588230133 0.3517316580 ) ( 19.6851062775 5.2018351555 15.0612335205 )
  ( -1.3818937540 -16.2908210754 0.3517316580 ) ( 20.5395889282 5.4662332535 15.2233724594 )
  ( -1.3818937540 -16.1233196259 0.3517316580 ) ( 20.8332672119 5.4222002029 15.4752492905 )
}

baseframe {
  ( 0.0000000000 0.0000000000 0.0000000000 ) ( -0.7071068287 -0.0000000000 -0.0000000000 )
  ( -0.0186605453 4.5159912109 1.4360997677 ) ( 0.0000280102 0.0000000016 -1.0000000000 )
  ( -2.0367097855 -1.0987091064 0.5481596589 ) ( 0.0000083447 0.0000000002 -0.0000279347 )
  ( 2.5132143497 0.1486579478 3.5487740040 ) ( -0.0000000000 -0.0000000000 -0.0000000000 )
  ( -1.0394111872 1.6535054445 2.9115278721 ) ( -0.0000195275 -0.7070870399 0.0000196410 )
  ( -8.3812847137 0.0000042481 0.0122467289 ) ( -0.0000000199 0.0000001187 -0.0000001589 )
  ( -3.9075412750 0.0000038572 0.0064787311 ) ( -0.0000000000 -0.0000002980 -0.0000000000 )
  ( -9.0582580566 0.0000030984 0.0137990611 ) ( -0.0000195275 0.7071262598 0.0000195286 )
  ( -2.4562108517 -0.4589804113 4.9792232513 ) ( 0.0000195005 -0.7071262598 -0.0000194994 )
  ( -1.4808013439 -0.0000023665 0.0022553869 ) ( 0.0001794795 -0.0001792844 0.1336774677 )
  ( -0.9798917770 -0.0000008648 0.0011381970 ) ( 0.0759933963 0.7029330134 0.0758283958 )
  ( 0.0011322881 -0.0000015907 1.2384006977 ) ( 0.0000000372 0.0000000035 0.0000000379 )
  ( -0.0923869684 -0.4588496685 4.9064965248 ) ( 0.0429671630 -0.7058849931 0.0428026877 )
  ( -1.8562849760 -0.0000013817 0.0025038412 ) ( 0.0001730661 -0.0001778290 0.1480355263 )
  ( -1.0458492041 -0.0000023897 0.0010347852 ) ( 0.0000889879 -0.0001018705 0.1002773046 )
  ( -1.5055357218 -0.0000026549 0.0011810474 ) ( 0.0000114150 0.7071009874 -0.0000114465 )
  ( -2.1882109642 -0.0633600801 2.5236830711 ) ( 0.0967313573 -0.4675333202 0.1567362249 )
  ( -1.6791052818 -0.0000239015 0.0014968514 ) ( 0.0000000014 -0.0000001944 -0.0000000186 )
  ( -1.2707813978 0.0000282526 0.0011651963 ) ( 0.0000001495 0.7071062922 -0.0000001442 )
  ( -1.2061427832 -0.4589325786 6.2291550636 ) ( 0.0000194864 -0.7071262598 -0.0000194854 )
  ( -1.4808018208 -0.0000020948 0.0022557802 ) ( 0.0001794997 -0.0001792818 0.1336775273 )
  ( -0.9798946381 -0.0000022332 0.0011384857 ) ( 0.0759933889 0.7029330134 0.0758283883 )
  ( 0.0011323692 -0.0000017502 1.2384005785 ) ( 0.0000000149 0.0000000035 0.0000000388 )
  ( 0.9575448036 -0.4587714672 3.6564393044 ) ( 0.0429671444 -0.7058849931 0.0428026579 )
  ( -1.8562816381 -0.0000014087 0.0025037199 ) ( 0.0001730594 -0.0001778291 0.1480355561 )
  ( -1.0458487272 -0.0000009410 0.0010346614 ) ( 0.0000889888 -0.0001018699 0.1002773046 )
  ( -1.5055395365 -0.0000035905 0.0011810367 ) ( 0.0000114884 0.7071009874 -0.0000113619 )
  ( -0.4129891396 8.1527709961 8.3131628036 ) ( 0.0000279307 0.0000000016 -1.0000000000 )
  ( 0.0000000000 0.0000000000 0.0000000000 ) ( 0.7071067095 0.0000000000 -0.7071068287 )
}

frame 0 {
  -0.0000000251 -0.0000000089 0.0000013374 -0.7071068287 -0.0000000188 -0.0000000124
  -0.0175175872 4.5148844719 1.4526960850 -0.0000001064 0.0000000004 -1.0000000000
  -2.0376806259 -1.0987175703 0.5451019406 -0.0000000014 -0.0000001751 -0.0000000857
  2.5079936981 0.1487963647 3.5524599552 -0.0000000275 0.0000000224 0.0000000745
  -1.0437760353 1.6534525156 2.9099991322 0.0919475183 -0.6236754656 0.0919475183
  -8.3812913895 0.0000036731 -0.0005167350 0.0000000014 0.0000000036 0.0000001568
  -3.9075496197 0.0000009909 0.0005270541 0.0000004051 0.4231272340 0.5289086699
  -9.0582656860 -0.0000013113 0.0000083447 0.1307646483 0.6702280045 -0.3235573173
  -2.4121787548 -0.4690734744 4.9682669640 0.2278127223 -0.6577842236 0.2557729185
  -1.4861807823 -0.0092604160 0.0023763180 -0.0182543006 0.0115489010 0.4644549489
  -0.9848700166 -0.0127555132 0.0012280047 0.3776761889 0.5943309069 0.4060390890
  0.0011344403 -0.0000020266 1.2383975983 -0.0000005588 0.0000000638 -0.0000000289
  -0.0485565849 -0.4682635963 4.8929109573 0.2945401669 -0.6570017338 0.2687330544
  -1.8586747646 -0.0117373466 0.0021863878 0.0182136633 -0.0123659251 0.5519972444
  -1.0443670750 -0.0123009682 0.0005882531 0.0186417848 -0.0115625458 0.5112479925
  -1.5055371523 -0.0000058562 0.0011833310 0.0000105096 0.7071008682 -0.0000123795
  -2.1457803249 -0.0792678669 2.5121209621 0.0795319006 -0.4358265102 0.3166429698
  -1.6636128426 -0.0215007216 -0.0294201374 -0.1323003173 -0.3390547335 0.1692510098
  -1.2707836628 0.0000313520 0.0011672974 -0.0000000421 0.7071065903 -0.0000001778
  -1.1617157459 -0.4687233567 6.2216267586 0.4803776741 -0.5438483357 0.4272537827
  -1.4778456688 -0.0012516975 0.0014481544 0.0268109776 -0.0268564131 0.2610144913
  -0.9766025543 -0.0043349266 0.0003546178 0.2762081325 0.6432811022 0.2330487967
  0.0011335611 -0.0000023842 1.2383971214 -0.0000005141 -0.0000000009 -0.0000000522
  1.0011165142 -0.4596720040 3.6390306950 0.1633753777 -0.7046147585 0.1056701168
  -1.8531141281 0.0007317066 0.0014575720 0.0384743810 -0.0210312735 0.2334485650
  -1.0480554104 -0.0147867203 0.0012030602 0.0431203507 0.0045896429 0.6846181750
  -1.5055353642 -0.0000061989 0.0011810064 0.0000105077 0.7071008682 -0.0000123911
  -0.4064104557 8.1463708878 8.3328666687 0.0000000743 -0.0000006263 -1.0000000000
  11.2120428085 -10.2532491684 16.8074169159 -0.6769390702 -0.2143609673 0.6505261660
}

frame 1 {
  -0.0000000251 -0.0000000089 0.0000013374 -0.7071068287 -0.0000000188 -0.0000000124
  -0.0175175872 4.5148844719 1.4526960850 -0.0000001064 0.0000000004 -1.0000000000
  -2.0376806259 -1.0987175703 0.5451019406 -0.0000000014 -0.0000001751 -0.0000000857
  2.5079936981 0.1487963647 3.5524599552 -0.0000000275 0.0000000224 0.0000000745
  -1.0437760353 1.6534525156 2.9099991322 0.0767369419 -0.6236058474 0.0810022876
  -8.3812904358 0.0000029877 -0.0005164109 0.0000000009 -0.0000000051 0.0000001462
  -3.9075431824 0.0000008568 0.0005265921 0.0000005156 0.5093834996 0.5465248823
  -9.0582656860 0.0000019073 0.0000061989 0.0805442706 0.6418128014 -0.3702842891
  -2.4121799469 -0.4690729976 4.9682655334 0.2278127223 -0.6577842832 0.2557729483
  -1.4861793518 -0.0092620850 0.0023756027 -0.0182543527 0.0115488973 0.4644549191
  -0.9848700762 -0.0127530098 0.0012263060 0.3776762784 0.5943308473 0.4060392380
  0.0011327267 -0.0000001192 1.2383973598 -0.0000005588 0.0000000303 -0.0000000270
  -0.0485562086 -0.4682608247 4.8929100037 0.2945401073 -0.6570017338 0.2687331140
  -1.8586747646 -0.0117397308 0.0021885037 0.0182136483 -0.0123658786 0.5519973040
  -1.0443685055 -0.0123009682 0.0005886555 0.0186417531 -0.0115624433 0.5112479925
  -1.5055356026 -0.0000067055 0.0011823177 0.0000105030 0.7071008682 -0.0000123799
  -2.1457822323 -0.0792653859 2.5121212006 0.0795318931 -0.4358264804 0.3166430295
  -1.6636099815 -0.0214993954 -0.0294207931 -0.1323003471 -0.3390546143 0.1692510247
  -1.2707827091 0.0000307560 0.0011649132 -0.0000000896 0.7071065903 -0.0000002239
  -1.1617153883 -0.4687235653 6.2216248512 0.4803776741 -0.5438483357 0.4272538126
  -1.4778449535 -0.0012502670 0.0014442205 0.0268109180 -0.0268564504 0.2610144317
  -0.9766055346 -0.0043373108 0.0003546476 0.2762081623 0.6432811618 0.2330488116
  0.0011327267 -0.0000014305 1.2383966446 -0.0000005290 -0.0000000466 -0.0000000522
  1.0011153221 -0.4596706629 3.6390309334 0.1633753777 -0.7046147585 0.1056701690
  -1.8531141281 0.0007352829 0.0014577806 0.0384743884 -0.0210313164 0.2334485650
  -1.0480554104 -0.0147857666 0.0012018085 0.0431203507 0.0045896471 0.6846181750
  -1.5055346489 -0.0000026822 0.0011828542 0.0000105024 0.7071008682 -0.0000123805
  -0.4064104557 8.1463708878 8.3328666687 0.0000000743 -0.0000006263 -1.0000000000
  11.6552639008 -8.8130264282 15.3380966187 -0.6422190666 -0.2458615154 0.6612353325
}

frame 2 {
  -0.0000000251 -0.0000000089 0.0000013374 -0.7071068287 -0.0000000188 -0.0000000124
  -0.0175175872 4.5148844719 1.4526960850 -0.0000001064 0.0000000004 -1.0000000000
  -2.0376806259 -1.0987175703 0.5451019406 -0.0000000014 -0.0000001751 -0.0000000857
  2.5079936981 0.1487963647 3.5524599552 -0.0000000275 0.0000000224 0.0000000745
  -1.0437760353 1.6534525156 2.9099991322 0.0739489123 -0.5884501934 0.0851951689
  -8.3812913895 0.0000026971 -0.0005166158 -0.0000000009 -0.0000000100 0.0000001334
  -3.9075443745 0.0000008345 0.0005259439 0.0000004171 0.7554765940 0.4232596457
  -9.0582666397 0.0000013709 0.0000065565 0.0187597964 0.4708393514 -0.4610719979
  -2.4121797085 -0.4690733254 4.9682655334 0.2278127223 -0.6577842236 0.2557729483
  -1.4861798286 -0.0092609227 0.0023769140 -0.0182543248 0.0115488954 0.4644548297
  -0.9848685265 -0.0127521753 0.0012275577 0.3776761293 0.5943308473 0.4060390592
  0.0011327267 -0.0000050366 1.2383985519 -0.0000005551 0.0000000219 -0.0000000205
  -0.0485563278 -0.4682630301 4.8929095268 0.2945401073 -0.6570016146 0.2687330842
  -1.8586764336 -0.0117367506 0.0021874607 0.0182136893 -0.0123658990 0.5519973040
  -1.0443693399 -0.0123021603 0.0005885363 0.0186418444 -0.0115625355 0.5112479925
  -1.5055350065 -0.0000062585 0.0011811256 0.0000105090 0.7071008682 -0.0000123700
  -2.1457817554 -0.0792673081 2.5121202469 0.0795318857 -0.4358264208 0.3166429698
  -1.6636109352 -0.0215002298 -0.0294209123 -0.1323003322 -0.3390546441 0.1692509800
  -1.2707840204 0.0000322461 0.0011655092 -0.0000000369 0.7071065903 -0.0000001607
  -1.1617159843 -0.4687231779 6.2216243744 0.4803775847 -0.5438482761 0.4272537827
  -1.4778439999 -0.0012511611 0.0014467239 0.0268109906 -0.0268564429 0.2610145211
  -0.9766070247 -0.0043363571 0.0003552437 0.2762081921 0.6432810426 0.2330487669
  0.0011329651 -0.0000022650 1.2383984327 -0.0000005290 -0.0000000279 -0.0000000540
  1.0011153221 -0.4596704245 3.6390304565 0.1633753926 -0.7046147585 0.1056701392
  -1.8531143665 0.0007351637 0.0014573224 0.0384743735 -0.0210313089 0.2334485948
  -1.0480581522 -0.0147848129 0.0012012720 0.0431203321 0.0045896312 0.6846181750
  -1.5055376291 -0.0000053644 0.0011826754 0.0000105235 0.7071008682 -0.0000124174
  -0.4064104557 8.1463708878 8.3328666687 0.0000000743 -0.0000006263 -1.0000000000
  12.8135786057 -4.5979642868 11.4090385437 -0.5320697427 -0.3265884221 0.6794384122
}

frame 3 {
  -0.0000000251 -0.0000000089 0.0000013374 -0.7071068287 -0.0000000188 -0.0000000124
  -0.0175175872 4.5148844719 1.4526960850 -0.0000001064 0.0000000004 -1.0000000000
  -2.0376806259 -1.0987175703 0.5451019406 -0.0000000014 -0.0000001751 -0.0000000857
  2.5079936981 0.1487963647 3.5524599552 -0.0000000275 0.0000000224 0.0000000745
  -1.0437761545 1.6534525156 2.9099991322 0.0938270539 -0.4392549694 0.0862870663
  -8.3812913895 0.0000036061 -0.0005163252 0.0000000009 -0.0000000121 0.0000001350
  -3.9075462818 -0.0000004768 0.0005264506 0.0000001202 0.9075269103 0.0346694775
  -9.0582685471 0.0000003576 0.0000070035 0.1423570514 0.1781340390 -0.4422903955
  -2.4121799469 -0.4690753222 4.9682655334 0.2278127521 -0.6577842832 0.2557729781
  -1.4861803055 -0.0092597604 0.0023765117 -0.0182543322 0.0115488935 0.4644549489
  -0.9848688841 -0.0127536952 0.0012267828 0.3776762187 0.5943309069 0.4060391486
  0.0011329651 -0.0000022948 1.2384001017 -0.0000005550 0.0000000282 0.0000000055
  -0.0485567451 -0.4682645798 4.8929095268 0.2945400774 -0.6570016146 0.2687330842
  -1.8586766720 -0.0117348209 0.0021875203 0.0182136539 -0.0123658562 0.5519973040
  -1.0443691015 -0.0123005509 0.0005887151 0.0186418388 -0.0115624787 0.5112479925
  -1.5055379868 -0.0000056624 0.0011821985 0.0000105050 0.7071008682 -0.0000123977
  -2.1457815170 -0.0792688131 2.5121195316 0.0795318782 -0.4358264208 0.3166429698
  -1.6636106968 -0.0215022564 -0.0294208527 -0.1323003322 -0.3390546441 0.1692509949
  -1.2707839012 0.0000314284 0.0011650324 -0.0000000643 0.7071065903 -0.0000001511
  -1.1617159843 -0.4687240720 6.2216253281 0.4803776741 -0.5438483953 0.4272537827
  -1.4778441191 -0.0012502670 0.0014464855 0.0268109962 -0.0268564560 0.2610144615
  -0.9766052961 -0.0043353438 0.0003557205 0.2762081623 0.6432811618 0.2330488414
  0.0011330843 -0.0000023842 1.2383965254 -0.0000005211 -0.0000000382 -0.0000000503
  1.0011157990 -0.4596722722 3.6390304565 0.1633753777 -0.7046147585 0.1056701541
  -1.8531136513 0.0007318407 0.0014587026 0.0384743921 -0.0210312940 0.2334486246
  -1.0480571985 -0.0147873424 0.0012013912 0.0431203246 0.0045896731 0.6846182346
  -1.5055366755 -0.0000054389 0.0011816323 0.0000104813 0.7071008682 -0.0000124135
  -0.4064104557 8.1463708878 8.3328666687 0.0000000743 -0.0000006263 -1.0000000000
  13.9945478439 0.6321259737 7.3674888611 -0.3866157830 -0.3979267478 0.6765820384
}

frame 4 {
  -0.0000000251 -0.0000000089 0.0000013374 -0.7071068287 -0.0000000188 -0.0000000124
  -0.0175175872 4.5148844719 1.4526960850 -0.0000001064 0.0000000004 -1.0000000000
  -2.0376806259 -1.0987175703 0.5451019406 -0.0000000014 -0.0000001751 -0.0000000857
  2.5079936981 0.1487963647 3.5524599552 -0.0000000275 0.0000000224 0.0000000745
  -1.0437763929 1.6534525156 2.9099991322 0.0674118251 -0.3418162465 0.0237910654
  -8.3812913895 0.0000031963 -0.0005165040 -0.0000000009 0.0000000084 0.0000001386
  -3.9075479507 0.0000002282 0.0005275011 -0.0000002918 0.8592258692 -0.2248175889
  -9.0582656860 0.0000007153 0.0000065565 0.3128606379 0.0907621235 -0.3587801754
  -2.4121799469 -0.4690732956 4.9682645798 0.2278126925 -0.6577842236 0.2557729781
  -1.4861811399 -0.0092600584 0.0023764372 -0.0182543583 0.0115489392 0.4644548595
  -0.9848687649 -0.0127525404 0.0012279153 0.3776761889 0.5943308473 0.4060390592
  0.0011327267 -0.0000022352 1.2384009361 -0.0000005600 0.0000000177 -0.0000000169
  -0.0485571623 -0.4682626724 4.8929109573 0.2945401371 -0.6570016742 0.2687331140
  -1.8586772680 -0.0117367506 0.0021884143 0.0182136502 -0.0123658497 0.5519973040
  -1.0443682671 -0.0123004913 0.0005875826 0.0186417773 -0.0115624219 0.5112479329
  -1.5055363178 -0.0000057220 0.0011818111 0.0000104951 0.7071008682 -0.0000123486
  -2.1457829475 -0.0792660713 2.5121190548 0.0795318857 -0.4358264208 0.3166430295
  -1.6636111736 -0.0215017796 -0.0294187069 -0.1323002577 -0.3390546441 0.1692509651
  -1.2707836628 0.0000323653 0.0011657476 -0.0000000711 0.7071065903 -0.0000001765
  -1.1617163420 -0.4687225819 6.2216248512 0.4803777337 -0.5438482761 0.4272538126
  -1.4778439999 -0.0012533218 0.0014462471 0.0268109795 -0.0268564783 0.2610145509
  -0.9766047001 -0.0043351650 0.0003556013 0.2762081027 0.6432811022 0.2330488116
  0.0011330843 -0.0000019073 1.2383997440 -0.0000005234 -0.0000000242 -0.0000000447
  1.0011149645 -0.4596705437 3.6390306950 0.1633753628 -0.7046147585 0.1056701988
  -1.8531156778 0.0007357597 0.0014582798 0.0384744033 -0.0210313257 0.2334485650
  -1.0480580330 -0.0147867203 0.0012007654 0.0431203656 0.0045896629 0.6846182346
  -1.5055370331 -0.0000051260 0.0011816621 0.0000105287 0.7071008682 -0.0000123634
  -0.4064104557 8.1463708878 8.3328666687 0.0000000743 -0.0000006263 -1.0000000000
  14.8971185684 4.4489660263 5.8379597664 -0.2861911058 -0.4158309996 0.6587700844
}

frame 5 {
  -0.0000000251 -0.0000000089 0.0000013374 -0.7071068287 -0.0000000188 -0.0000000124
  -0.0175175872 4.5148844719 1.4526960850 -0.0000001064 0.0000000004 -1.0000000000
  -2.0376806259 -1.0987175703 0.5451019406 -0.0000000014 -0.0000001751 -0.0000000857
  2.5079936981 0.1487963647 3.5524599552 -0.0000000275 0.0000000224 0.0000000745
  -1.0437766314 1.6534522772 2.9099991322 0.0327527896 -0.3252165020 -0.0447238944
  -8.3812923431 0.0000029206 -0.0005158782 0.0000000014 -0.0000000109 0.0000001416
  -3.9075474739 -0.0000018477 0.0005270541 -0.0000003639 0.7802271247 -0.3285319209
  -9.0582685471 -0.0000005811 0.0000069141 0.4295718372 0.1367439479 -0.2850035429
  -2.4121799469 -0.4690744877 4.9682655334 0.2278127074 -0.6577842832 0.2557728887
  -1.4861792326 -0.0092612505 0.0023763478 -0.0182542820 0.0115489736 0.4644548297
  -0.9848687649 -0.0127546191 0.0012276173 0.3776761889 0.5943309665 0.4060390294
  0.0011329651 -0.0000011921 1.2383983135 -0.0000005635 0.0000000261 -0.0000000340
  -0.0485566854 -0.4682631493 4.8929109573 0.2945401073 -0.6570017338 0.2687330544
  -1.8586750031 -0.0117360353 0.0021874905 0.0182137005 -0.0123658897 0.5519973040
  -1.0443685055 -0.0123013258 0.0005868077 0.0186418723 -0.0115625039 0.5112479925
  -1.5055345297 -0.0000061989 0.0011823177 0.0000105366 0.7071008682 -0.0000123726
  -2.1457819939 -0.0792672634 2.5121204853 0.0795319080 -0.4358264208 0.3166429400
  -1.6636104584 -0.0214994550 -0.0294203758 -0.1323003322 -0.3390547037 0.1692509800
  -1.2707847357 0.0000311136 0.0011667050 -0.0000000226 0.7071065903 -0.0000001399
  -1.1617151499 -0.4687225819 6.2216258049 0.4803776741 -0.5438483953 0.4272537827
  -1.4778443575 -0.0012506247 0.0014462471 0.0268110130 -0.0268565305 0.2610143721
  -0.9766049385 -0.0043348074 0.0003547668 0.2762081623 0.6432811022 0.2330486774
  0.0011328161 -0.0000016689 1.2383973598 -0.0000005374 -0.0000000326 -0.0000000708
  1.0011163950 -0.4596710205 3.6390309334 0.1633753926 -0.7046147585 0.1056701317
  -1.8531134129 0.0007340908 0.0014576912 0.0384743735 -0.0210313555 0.2334485650
  -1.0480568409 -0.0147861242 0.0012016594 0.0431203805 0.0045895199 0.6846181750
  -1.5055338144 -0.0000061989 0.0011820793 0.0000105202 0.7071008682 -0.0000123977
  -0.4064104557 8.1463708878 8.3328666687 0.0000000743 -0.0000006263 -1.0000000000
  15.8634672165 7.1121530533 5.9821043015 -0.2089831233 -0.3841482103 0.6515129209
}

frame 6 {
  -0.0000000251 -0.0000000089 0.0000013374 -0.7071068287 -0.0000000188 -0.0000000124
  -0.0175175872 4.5148844719 1.4526960850 -0.0000001064 0.0000000004 -1.0000000000
  -2.0376806259 -1.0987175703 0.5451019406 -0.0000000014 -0.0000001751 -0.0000000857
  2.5079936981 0.1487963647 3.5524599552 -0.0000000275 0.0000000224 0.0000000745
  -1.0437769890 1.6534520388 2.9099991322 0.0045362138 -0.3111429811 -0.1255328208
  -8.3812904358 0.0000032783 -0.0005162954 -0.0000000056 -0.0000000158 0.0000001499
  -3.9075460434 0.0000003576 0.0005266666 -0.0000003552 0.7081379294 -0.3203835189
  -9.0582675934 -0.0000008941 0.0000081062 0.4792624116 0.2546230257 -0.1936215907
  -2.4121799469 -0.4690759182 4.9682660103 0.2278127521 -0.6577842832 0.2557729483
  -1.4861800671 -0.0092599690 0.0023767948 -0.0182543807 0.0115488544 0.4644549191
  -0.9848706722 -0.0127542615 0.0012273788 0.3776761293 0.5943309665 0.4060391784
  0.0011324883 -0.0000013113 1.2383981943 -0.0000005551 0.0000000298 -0.0000000158
  -0.0485568047 -0.4682650566 4.8929114342 0.2945401371 -0.6570017338 0.2687330842
  -1.8586752415 -0.0117377639 0.0021879673 0.0182137061 -0.0123658646 0.5519972444
  -1.0443707705 -0.0123028755 0.0005888939 0.0186417866 -0.0115624629 0.5112479925
  -1.5055344105 -0.0000051260 0.0011806488 0.0000105409 0.7071008682 -0.0000123631
  -2.1457819939 -0.0792688131 2.5121204853 0.0795319080 -0.4358264208 0.3166429698
  -1.6636111736 -0.0215000212 -0.0294213295 -0.1323003620 -0.3390546441 0.1692509949
  -1.2707850933 0.0000323057 0.0011656284 -0.0000000369 0.7071065903 -0.0000001475
  -1.1617152691 -0.4687235355 6.2216277122 0.4803777337 -0.5438483953 0.4272538424
  -1.4778441191 -0.0012513399 0.0014457703 0.0268109478 -0.0268564597 0.2610144615
  -0.9766062498 -0.0043350458 0.0003547668 0.2762081623 0.6432811022 0.2330486923
  0.0011329651 -0.0000032187 1.2383989096 -0.0000004997 -0.0000000289 -0.0000000764
  1.0011157990 -0.4596731663 3.6390316486 0.1633754224 -0.7046147585 0.1056701764
  -1.8531134129 0.0007331371 0.0014581680 0.0384743959 -0.0210312698 0.2334486246
  -1.0480593443 -0.0147866011 0.0012028217 0.0431203693 0.0045896699 0.6846181750
  -1.5055357218 -0.0000050068 0.0011820793 0.0000105050 0.7071008682 -0.0000124385
  -0.4064104557 8.1463708878 8.3328666687 0.0000000743 -0.0000006263 -1.0000000000
  17.0751342773 9.4972839355 6.2741699219 -0.1090130135 -0.3071845174 0.6589518785
}

frame 7 {
  -0.0000000251 -0.0000000089 0.0000013374 -0.7071068287 -0.0000000188 -0.0000000124
  -0.0175175872 4.5148844719 1.4526960850 -0.0000001064 0.0000000004 -1.0000000000
  -2.0376806259 -1.0987175703 0.5451019406 -0.0000000014 -0.0000001751 -0.0000000857
  2.5079936981 0.1487963647 3.5524599552 -0.0000000275 0.0000000224 0.0000000745
  -1.0437772274 1.6534518003 2.9099991322 -0.0178272445 -0.2914464176 -0.1965476573
  -8.3812904358 0.0000030994 -0.0005173087 -0.0000000000 -0.0000000000 0.0000001267
  -3.9075467587 -0.0000011921 0.0005257130 -0.0000002478 0.6438385844 -0.2542902231
  -9.0582647324 0.0000009239 0.0000057220 0.4638362229 0.3899271786 -0.0917243659
  -2.4121792316 -0.4690730572 4.9682683945 0.2278127372 -0.6577842236 0.2557729483
  -1.4861812592 -0.0092639774 0.0023770332 -0.0182543211 0.0115489177 0.4644549787
  -0.9848707914 -0.0127539039 0.0012261868 0.3776762486 0.5943308473 0.4060391188
  0.0011339188 -0.0000028610 1.2383967638 -0.0000005364 0.0000000168 -0.0000000298
  -0.0485556126 -0.4682623148 4.8929128647 0.2945401073 -0.6570016146 0.2687330842
  -1.8586742878 -0.0117364526 0.0021870136 0.0182136763 -0.0123659698 0.5519973040
  -1.0443695784 -0.0123019218 0.0005888939 0.0186418314 -0.0115626222 0.5112481117
  -1.5055352449 -0.0000057518 0.0011820793 0.0000105297 0.7071008682 -0.0000123822
  -2.1457812786 -0.0792664289 2.5121228695 0.0795318931 -0.4358264208 0.3166429400
  -1.6636109352 -0.0215004683 -0.0294222236 -0.1323003322 -0.3390546143 0.1692509502
  -1.2707833052 0.0000329018 0.0011665821 -0.0000001080 0.7071065903 -0.0000001949
  -1.1617152691 -0.4687223434 6.2216272354 0.4803776443 -0.5438482761 0.4272538126
  -1.4778451920 -0.0012503862 0.0014457703 0.0268109925 -0.0268564094 0.2610144913
  -0.9766054153 -0.0043382645 0.0003559589 0.2762081921 0.6432811618 0.2330487669
  0.0011327267 -0.0000017881 1.2383989096 -0.0000005253 -0.0000000298 -0.0000000540
  1.0011160374 -0.4596699476 3.6390323639 0.1633753926 -0.7046146989 0.1056701690
  -1.8531160355 0.0007332563 0.0014581680 0.0384743512 -0.0210312884 0.2334485501
  -1.0480575562 -0.0147859156 0.0012006760 0.0431203507 0.0045896126 0.6846181750
  -1.5055377483 -0.0000038147 0.0011825562 0.0000104563 0.7071008682 -0.0000123963
  -0.4064104557 8.1463708878 8.3328666687 0.0000000743 -0.0000006263 -1.0000000000
  18.2743930817 11.3558530807 6.6708555222 -0.0074940519 -0.2064619064 0.6675711274
}

frame 8 {
  -0.0000000251 -0.0000000089 0.0000013374 -0.7071068287 -0.0000000188 -0.0000000124
  -0.0175175872 4.5148844719 1.4526960850 -0.0000001064 0.0000000004 -1.0000000000
  -2.0376806259 -1.0987175703 0.5451019406 -0.0000000014 -0.0000001751 -0.0000000857
  2.5079936981 0.1487963647 3.5524599552 -0.0000000275 0.0000000224 0.0000000745
  -1.0437773466 1.6534515619 2.9099991322 -0.0326340534 -0.2711513937 -0.2392600179
  -8.3812932968 0.0000028610 -0.0005173087 0.0000000102 0.0000000009 0.0000001322
  -3.9075469971 -0.0000009537 0.0005252957 -0.0000002096 0.5916491747 -0.1955530196
  -9.0582647324 0.0000019073 0.0000057220 0.4251302481 0.4810829163 -0.0120223118
  -2.4121794701 -0.4690724611 4.9682674408 0.2278127670 -0.6577842832 0.2557728887
  -1.4861810207 -0.0092598200 0.0023764968 -0.0182543471 0.0115489792 0.4644549489
  -0.9848694205 -0.0127530694 0.0012271404 0.3776761889 0.5943309069 0.4060391486
  0.0011333823 -0.0000042915 1.2383971214 -0.0000005588 0.0000000237 -0.0000000056
  -0.0485556722 -0.4682619274 4.8929114342 0.2945401371 -0.6570016742 0.2687330544
  -1.8586748838 -0.0117389560 0.0021870136 0.0182136651 -0.0123658618 0.5519973040
  -1.0443679094 -0.0123026371 0.0005892515 0.0186417978 -0.0115624294 0.5112480521
  -1.5055351257 -0.0000063479 0.0011812449 0.0000105050 0.7071008682 -0.0000123805
  -2.1457822323 -0.0792675316 2.5121204853 0.0795319304 -0.4358264506 0.3166429698
  -1.6636109352 -0.0215004683 -0.0294232368 -0.1323003471 -0.3390546441 0.1692510694
  -1.2707837820 0.0000321865 0.0011656284 -0.0000000395 0.7071065903 -0.0000001544
  -1.1617152691 -0.4687215090 6.2216258049 0.4803776741 -0.5438483357 0.4272538126
  -1.4778438807 -0.0012472868 0.0014452934 0.0268109422 -0.0268565081 0.2610144317
  -0.9766057730 -0.0043386221 0.0003545284 0.2762081623 0.6432811022 0.2330487370
  0.0011333302 -0.0000022650 1.2383980751 -0.0000005243 -0.0000000279 -0.0000000513
  1.0011162758 -0.4596692324 3.6390321255 0.1633754224 -0.7046147585 0.1056701168
  -1.8531131744 0.0007320642 0.0014576912 0.0384743549 -0.0210313443 0.2334485650
  -1.0480585098 -0.0147870183 0.0012016296 0.0431203693 0.0045895828 0.6846181750
  -1.5055333376 -0.0000052452 0.0011816025 0.0000104953 0.7071008682 -0.0000123639
  -0.4064104557 8.1463708878 8.3328666687 0.0000000743 -0.0000006263 -1.0000000000
  19.0925960541 12.4714660645 7.0015778542 0.0622342564 -0.1272407323 0.6702097654
}

frame 9 {
  -0.0000000251 -0.0000000089 0.0000013374 -0.7071068287 -0.0000000188 -0.0000000124
  -0.0175175872 4.5148844719 1.4526960850 -0.0000001064 0.0000000004 -1.0000000000
  -2.0376806259 -1.0987175703 0.5451019406 -0.0000000014 -0.0000001751 -0.0000000857
  2.5079936981 0.1487963647 3.5524599552 -0.0000000275 0.0000000224 0.0000000745
  -1.0437773466 1.6534515619 2.9099991322 -0.0374719426 -0.2629894912 -0.2521035373
  -8.3812913895 0.0000033379 -0.0005163848 -0.0000000009 -0.0000000056 0.0000001304
  -3.9075479507 -0.0000002384 0.0005268455 -0.0000000837 0.5718936324 -0.1749109179
  -9.0582666397 0.0000020266 0.0000061989 0.4077138901 0.5098150969 0.0164507646
  -2.4121792316 -0.4690738916 4.9682645798 0.2278126925 -0.6577841640 0.2557730079
  -1.4861788750 -0.0092618465 0.0023758411 -0.0182543211 0.0115489103 0.4644548297
  -0.9848685265 -0.0127544403 0.0012262166 0.3776762187 0.5943309665 0.4060390890
  0.0011326969 -0.0000030994 1.2383979559 -0.0000005430 0.0000000231 -0.0000000193
  -0.0485556647 -0.4682636261 4.8929128647 0.2945401073 -0.6570016146 0.2687330842
  -1.8586750031 -0.0117335320 0.0021874607 0.0182136633 -0.0123658413 0.5519973040
  -1.0443667173 -0.0123019218 0.0005894899 0.0186418016 -0.0115624079 0.5112479925
  -1.5055346489 -0.0000049919 0.0011803806 0.0000105001 0.7071008682 -0.0000123749
  -2.1457808018 -0.0792667940 2.5121209621 0.0795318782 -0.4358264208 0.3166429698
  -1.6636104584 -0.0215013027 -0.0294190645 -0.1323003471 -0.3390546441 0.1692509800
  -1.2707835436 0.0000319481 0.0011661053 -0.0000000487 0.7071065903 -0.0000001258
  -1.1617146730 -0.4687230587 6.2216248512 0.4803776741 -0.5438483357 0.4272538126
  -1.4778437614 -0.0012536049 0.0014461875 0.0268109608 -0.0268564746 0.2610144913
  -0.9766050577 -0.0043349266 0.0003570616 0.2762081325 0.6432811022 0.2330487370
  0.0011332631 -0.0000001192 1.2384005785 -0.0000005313 -0.0000000261 -0.0000000522
  1.0011163950 -0.4596700370 3.6390297413 0.1633754075 -0.7046147585 0.1056701764
  -1.8531138897 0.0007329583 0.0014566183 0.0384743549 -0.0210313108 0.2334485799
  -1.0480563641 -0.0147851706 0.0012010336 0.0431202985 0.0045896112 0.6846181750
  -1.5055357218 -0.0000039339 0.0011820793 0.0000105123 0.7071008682 -0.0000123780
  -0.4064104557 8.1463708878 8.3328666687 0.0000000743 -0.0000006263 -1.0000000000
  19.3628406525 12.8141889572 7.1249375343 0.0851040035 -0.0993181691 0.6703754067
}

