MD5Version 10 // Parameters used during export: Reorient: False; Scale: 1.0
commandline ""

numFrames 20
numJoints 29
frameRate 24
numAnimatedComponents 174

hierarchy {
  "Origin" -1 63 0 //
  "RightShoulder_Dummy" 0 63 6 //
  "RightShoulder" 1 63 12 //
  "RightArm_Dummy" 2 63 18 //
  "RightArm" 3 63 24 //
  "RightArmRoll" 4 63 30 //
  "RightForeArm" 5 63 36 //
  "RightHand" 6 63 42 //
  "RightHandIndex1" 7 63 48 //
  "RightHandIndex2" 8 63 54 //
  "RightHandIndex3" 9 63 60 //
  "RightHandIndex4" 10 63 66 //
  "RightHandRing1" 7 63 72 //
  "RightHandRing2" 12 63 78 //
  "RightHandRing3" 13 63 84 //
  "RightHandRing4" 14 63 90 //
  "RightHandThumb1" 7 63 96 //
  "RightHandThumb2" 16 63 102 //
  "RightHandThumb3" 17 63 108 //
  "RightHandMiddle1" 7 63 114 //
  "RightHandMiddle2" 19 63 120 //
  "RightHandMiddle3" 20 63 126 //
  "RightHandMiddle4" 21 63 132 //
  "RightHandPinky1" 7 63 138 //
  "RightHandPinky2" 23 63 144 //
  "RightHandPinky3" 24 63 150 //
  "RightHandPinky4" 25 63 156 //
  "rightpad" 0 63 162 //
  "Melee" 0 63 168 //
}

bounds {
  ( -1.3818937540 -22.0332183838 -11.3636646271 ) ( 20.9481849670 -5.7942371368 8.1285114288 )
  ( -1.3818937540 -21.9399929047 -9.8251514435 ) ( 20.7503623962 -5.8802356720 8.1455049515 )
  ( -1.3818937540 -20.0260848999 -5.3720207214 ) ( 19.7783489227 -5.6471257210 8.0947942734 )
  ( -1.3818937540 -14.3442325592 -4.6538000107 ) ( 17.9965171814 -1.8400955200 13.5160675049 )
  ( -1.3818937540 -11.3369903564 -2.9760913849 ) ( 16.9562778473 2.4451560974 17.9231987000 )
  ( -1.3818937540 -11.2640218735 -1.7054557800 ) ( 16.1654224396 5.1900825500 20.6691169739 )
  ( -1.3818937540 -11.5932712555 -0.4799327850 ) ( 14.6118307114 6.6515312195 21.3842372894 )
  ( -1.3818937540 -11.6233367920 -0.1999778748 ) ( 13.2439193726 6.8317899704 19.1823310852 )
  ( -1.3818937540 -11.5311117172 -0.0389442444 ) ( 12.3882532120 6.2728404999 16.8990764618 )
  ( -1.3818937540 -11.4872360229 0.0003719330 ) ( 12.3003721237 6.0312571526 16.8629550934 )
  ( -1.3818937540 -11.5401954651 -0.0903110504 ) ( 12.4016208649 6.2169852257 16.8553161621 )
  ( -1.3818937540 -11.6365375519 -0.3466463089 ) ( 13.2633991241 6.6444845200 19.0806732178 )
  ( -1.3818937540 -11.5709838867 -0.7831954956 ) ( 14.6422386169 6.3533096313 21.1832618713 )
  ( -1.3818937540 -11.2109622955 -1.9002447128 ) ( 16.1920661926 4.9118576050 20.4349632263 )
  ( -1.3818937540 -11.3369903564 -2.9760913849 ) ( 16.9562778473 2.4451560974 17.9231987000 )
  ( -1.3818937540 -13.3896493912 -4.3318538666 ) ( 17.7412109375 -0.8914642334 14.4246959686 )
  ( -1.3818937540 -18.0817070007 -4.7773265839 ) ( 19.2762298584 -5.4088726044 9.4251232147 )
  ( -1.3818937540 -21.2863273621 -7.5232114792 ) ( 20.3645782471 -5.8448739052 8.1457061768 )
  ( -1.3818937540 -22.0050315857 -10.4093370438 ) ( 20.8478851318 -5.8571257591 8.1404762268 )
  ( -1.3818937540 -22.0332183838 -11.3636646271 ) ( 20.9481849670 -5.7942371368 8.1285114288 )
}

baseframe {
  ( 0.0000000000 0.0000000000 0.0000000000 ) ( -0.7071068287 -0.0000000000 -0.0000000000 )
  ( -0.0186605453 4.5159912109 1.4360997677 ) ( 0.0000280102 0.0000000016 -1.0000000000 )
  ( -2.0367097855 -1.0987091064 0.5481596589 ) ( 0.0000083447 0.0000000002 -0.0000279347 )
  ( 2.5132143497 0.1486579478 3.5487740040 ) ( -0.0000000000 -0.0000000000 -0.0000000000 )
  ( -1.0394111872 1.6535054445 2.9115278721 ) ( -0.0000195275 -0.7070870399 0.0000196410 )
  ( -8.3812847137 0.0000042481 0.0122467289 ) ( -0.0000000199 0.0000001187 -0.0000001589 )
  ( -3.9075412750 0.0000038572 0.0064787311 ) ( -0.0000000000 -0.0000002980 -0.0000000000 )
  ( -9.0582580566 0.0000030984 0.0137990611 ) ( -0.0000195275 0.7071262598 0.0000195286 )
  ( -2.4562108517 -0.4589804113 4.9792232513 ) ( 0.0000195005 -0.7071262598 -0.0000194994 )
  ( -1.4808013439 -0.0000023665 0.0022553869 ) ( 0.0001794795 -0.0001792844 0.1336774677 )
  ( -0.9798917770 -0.0000008648 0.0011381970 ) ( 0.0759933963 0.7029330134 0.0758283958 )
  ( 0.0011322881 -0.0000015907 1.2384006977 ) ( 0.0000000372 0.0000000035 0.0000000379 )
  ( -0.0923869684 -0.4588496685 4.9064965248 ) ( 0.0429671630 -0.7058849931 0.0428026877 )
  ( -1.8562849760 -0.0000013817 0.0025038412 ) ( 0.0001730661 -0.0001778290 0.1480355263 )
  ( -1.0458492041 -0.0000023897 0.0010347852 ) ( 0.0000889879 -0.0001018705 0.1002773046 )
  ( -1.5055357218 -0.0000026549 0.0011810474 ) ( 0.0000114150 0.7071009874 -0.0000114465 )
  ( -2.1882109642 -0.0633600801 2.5236830711 ) ( 0.0967313573 -0.4675333202 0.1567362249 )
  ( -1.6791052818 -0.0000239015 0.0014968514 ) ( 0.0000000014 -0.0000001944 -0.0000000186 )
  ( -1.2707813978 0.0000282526 0.0011651963 ) ( 0.0000001495 0.7071062922 -0.0000001442 )
  ( -1.2061427832 -0.4589325786 6.2291550636 ) ( 0.0000194864 -0.7071262598 -0.0000194854 )
  ( -1.4808018208 -0.0000020948 0.0022557802 ) ( 0.0001794997 -0.0001792818 0.1336775273 )
  ( -0.9798946381 -0.0000022332 0.0011384857 ) ( 0.0759933889 0.7029330134 0.0758283883 )
  ( 0.0011323692 -0.0000017502 1.2384005785 ) ( 0.0000000149 0.0000000035 0.0000000388 )
  ( 0.9575448036 -0.4587714672 3.6564393044 ) ( 0.0429671444 -0.7058849931 0.0428026579 )
  ( -1.8562816381 -0.0000014087 0.0025037199 ) ( 0.0001730594 -0.0001778291 0.1480355561 )
  ( -1.0458487272 -0.0000009410 0.0010346614 ) ( 0.0000889888 -0.0001018699 0.1002773046 )
  ( -1.5055395365 -0.0000035905 0.0011810367 ) ( 0.0000114884 0.7071009874 -0.0000113619 )
  ( -0.4129891396 8.1527709961 8.3131628036 ) ( 0.0000279307 0.0000000016 -1.0000000000 )
  ( 0.0000000000 0.0000000000 0.0000000000 ) ( 0.7071067095 0.0000000000 -0.7071068287 )
}

frame 0 {
  -0.0000000251 -0.0000000089 0.0000013374 -0.7071068287 -0.0000000188 -0.0000000124
  -0.0175175872 4.5148844719 1.4526960850 -0.0000001064 0.0000000004 -1.0000000000
  -2.0376806259 -1.0987175703 0.5451019406 -0.0000000014 -0.0000001751 -0.0000000857
  2.5079936981 0.1487963647 3.5524599552 -0.0000000275 0.0000000224 0.0000000745
  -1.0437760353 1.6534525156 2.9099991322 0.0919475183 -0.6236754656 0.0919475183
  -8.3812913895 0.0000036731 -0.0005167350 0.0000000014 0.0000000036 0.0000001568
  -3.9075496197 0.0000009909 0.0005270541 0.0000004051 0.4231272340 0.5289086699
  -9.0582656860 -0.0000013113 0.0000083447 0.1307646483 0.6702280045 -0.3235573173
  -2.4121787548 -0.4690734744 4.9682669640 0.2278127223 -0.6577842236 0.2557729185
  -1.4861807823 -0.0092604160 0.0023763180 -0.0182543006 0.0115489010 0.4644549489
  -0.9848700166 -0.0127555132 0.0012280047 0.3776761889 0.5943309069 0.4060390890
  0.0011344403 -0.0000020266 1.2383975983 -0.0000005588 0.0000000638 -0.0000000289
  -0.0485565849 -0.4682635963 4.8929109573 0.2945401669 -0.6570017338 0.2687330544
  -1.8586747646 -0.0117373466 0.0021863878 0.0182136633 -0.0123659251 0.5519972444
  -1.0443670750 -0.0123009682 0.0005882531 0.0186417848 -0.0115625458 0.5112479925
  -1.5055371523 -0.0000058562 0.0011833310 0.0000105096 0.7071008682 -0.0000123795
  -2.1457803249 -0.0792678669 2.5121209621 0.0795319006 -0.4358265102 0.3166429698
  -1.6636128426 -0.0215007216 -0.0294201374 -0.1323003173 -0.3390547335 0.1692510098
  -1.2707836628 0.0000313520 0.0011672974 -0.0000000421 0.7071065903 -0.0000001778
  -1.1617157459 -0.4687233567 6.2216267586 0.4803776741 -0.5438483357 0.4272537827
  -1.4778456688 -0.0012516975 0.0014481544 0.0268109776 -0.0268564131 0.2610144913
  -0.9766025543 -0.0043349266 0.0003546178 0.2762081325 0.6432811022 0.2330487967
  0.0011335611 -0.0000023842 1.2383971214 -0.0000005141 -0.0000000009 -0.0000000522
  1.0011165142 -0.4596720040 3.6390306950 0.1633753777 -0.7046147585 0.1056701168
  -1.8531141281 0.0007317066 0.0014575720 0.0384743810 -0.0210312735 0.2334485650
  -1.0480554104 -0.0147867203 0.0012030602 0.0431203507 0.0045896429 0.6846181750
  -1.5055353642 -0.0000061989 0.0011810064 0.0000105077 0.7071008682 -0.0000123911
  -0.4064104557 8.1463708878 8.3328666687 0.0000000743 -0.0000006263 -1.0000000000
  11.2120428085 -10.2532491684 16.8074169159 -0.6769390702 -0.2143609673 0.6505261660
}

frame 1 {
  -0.0000000251 -0.0000000089 0.0000013374 -0.7071068287 -0.0000000188 -0.0000000124
  -0.0175175872 4.5148844719 1.4526960850 -0.0000001064 0.0000000004 -1.0000000000
  -2.0376806259 -1.0987175703 0.5451019406 -0.0000000014 -0.0000001751 -0.0000000857
  2.5079936981 0.1487963647 3.5524599552 -0.0000000275 0.0000000224 0.0000000745
  -1.0437761545 1.6534525156 2.9099991322 0.1182388514 -0.6328900456 0.0719293579
  -8.3812894821 0.0000036061 -0.0005165637 0.0000000009 0.0000000009 0.0000001469
  -3.9075522423 0.0000012070 0.0005265772 0.0000005440 0.5070274472 0.5573717952
  -9.0582656860 -0.0000003576 0.0000076294 0.0673913658 0.6182831526 -0.3605400920
  -2.4121799469 -0.4690751135 4.9682660103 0.2278126925 -0.6577841640 0.2557729483
  -1.4861803055 -0.0092606544 0.0023782253 -0.0182542931 0.0115489308 0.4644549191
  -0.9848710299 -0.0127525330 0.0012276173 0.3776763082 0.5943308473 0.4060391188
  0.0011330694 -0.0000022650 1.2383995056 -0.0000005644 0.0000000425 -0.0000000084
  -0.0485557318 -0.4682643116 4.8929109573 0.2945400476 -0.6570016146 0.2687331140
  -1.8586769104 -0.0117392540 0.0021868646 0.0182137061 -0.0123658841 0.5519973040
  -1.0443694592 -0.0123009682 0.0005883873 0.0186418146 -0.0115624629 0.5112479329
  -1.5055367947 -0.0000046194 0.0011820793 0.0000104978 0.7071008682 -0.0000123739
  -2.1457810402 -0.0792649686 2.5121202469 0.0795318782 -0.4358264804 0.3166429400
  -1.6636109352 -0.0215032101 -0.0294205844 -0.1323003620 -0.3390546739 0.1692509949
  -1.2707829475 0.0000336766 0.0011665821 -0.0000000290 0.7071066499 -0.0000002160
  -1.1617152691 -0.4687222242 6.2216253281 0.4803776443 -0.5438482761 0.4272537827
  -1.4778444767 -0.0012526512 0.0014466047 0.0268109981 -0.0268563889 0.2610144317
  -0.9766050577 -0.0043354034 0.0003544688 0.2762081325 0.6432811618 0.2330486774
  0.0011333227 -0.0000019073 1.2383990288 -0.0000005290 -0.0000000540 -0.0000000391
  1.0011157990 -0.4596698284 3.6390321255 0.1633753628 -0.7046147585 0.1056701764
  -1.8531146049 0.0007348061 0.0014598370 0.0384743623 -0.0210312940 0.2334486544
  -1.0480585098 -0.0147871971 0.0012007952 0.0431203097 0.0045896517 0.6846181750
  -1.5055327415 -0.0000049770 0.0011825562 0.0000104813 0.7071008682 -0.0000123805
  -0.4064104557 8.1463708878 8.3328666687 0.0000000743 -0.0000006263 -1.0000000000
  11.7639541626 -8.7489957809 15.0169658661 -0.6525338888 -0.2446090728 0.6543259621
}

frame 2 {
  -0.0000000251 -0.0000000089 0.0000013374 -0.7071068287 -0.0000000188 -0.0000000124
  -0.0175175872 4.5148844719 1.4526960850 -0.0000001064 0.0000000004 -1.0000000000
  -2.0376806259 -1.0987175703 0.5451019406 -0.0000000014 -0.0000001751 -0.0000000857
  2.5079936981 0.1487963647 3.5524599552 -0.0000000275 0.0000000224 0.0000000745
  -1.0437766314 1.6534522772 2.9099981785 0.2584481537 -0.5757691264 0.0796758384
  -8.3812923431 0.0000030845 -0.0005168580 -0.0000000112 -0.0000000112 0.0000001416
  -3.9075479507 -0.0000010729 0.0005271621 0.0000005524 0.7064756155 0.5149241090
  -9.0582666397 0.0000017285 0.0000064373 -0.0522827432 0.3829190731 -0.4278408587
  -2.4121797085 -0.4690738916 4.9682660103 0.2278127521 -0.6577842832 0.2557729483
  -1.4861803055 -0.0092612207 0.0023764372 -0.0182543695 0.0115489410 0.4644549489
  -0.9848690033 -0.0127543807 0.0012267828 0.3776761591 0.5943310261 0.4060391486
  0.0011326671 -0.0000030994 1.2383978367 -0.0000005560 0.0000000594 -0.0000000075
  -0.0485557318 -0.4682638049 4.8929104805 0.2945401371 -0.6570016742 0.2687330246
  -1.8586759567 -0.0117368698 0.0021879077 0.0182136837 -0.0123658646 0.5519973040
  -1.0443694592 -0.0123022795 0.0005887747 0.0186418351 -0.0115624107 0.5112479329
  -1.5055370331 -0.0000048280 0.0011817217 0.0000105037 0.7071008682 -0.0000123819
  -2.1457815170 -0.0792677552 2.5121212006 0.0795319453 -0.4358264208 0.3166429400
  -1.6636114120 -0.0214995667 -0.0294206440 -0.1323003173 -0.3390547335 0.1692510396
  -1.2707834244 0.0000340343 0.0011672378 -0.0000000622 0.7071065903 -0.0000001966
  -1.1617156267 -0.4687229097 6.2216253281 0.4803776443 -0.5438483357 0.4272538126
  -1.4778459072 -0.0012505651 0.0014464259 0.0268109832 -0.0268564839 0.2610144317
  -0.9766049385 -0.0043344498 0.0003545284 0.2762081921 0.6432809830 0.2330487072
  0.0011341572 -0.0000028610 1.2383997440 -0.0000005253 -0.0000000447 -0.0000000447
  1.0011161566 -0.4596715868 3.6390309334 0.1633754075 -0.7046147585 0.1056701392
  -1.8531157970 0.0007333755 0.0014579892 0.0384744033 -0.0210313424 0.2334485650
  -1.0480568409 -0.0147855282 0.0012010708 0.0431203470 0.0045895614 0.6846182346
  -1.5055346489 -0.0000047684 0.0011822656 0.0000104835 0.7071008682 -0.0000123708
  -0.4064104557 8.1463708878 8.3328666687 0.0000000743 -0.0000006263 -1.0000000000
  13.1254758835 -4.4255242348 9.8902120590 -0.5829618573 -0.3302894235 0.6536841989
}

frame 3 {
  -0.0000000251 -0.0000000089 0.0000013374 -0.7071068287 -0.0000000188 -0.0000000124
  -0.0175175872 4.5148844719 1.4526960850 -0.0000001064 0.0000000004 -1.0000000000
  -2.0376806259 -1.0987175703 0.5451019406 -0.0000000014 -0.0000001751 -0.0000000857
  2.5079936981 0.1487963647 3.5524599552 -0.0000000275 0.0000000224 0.0000000745
  -1.0437766314 1.6534510851 2.9099972248 0.4887656271 -0.3072069287 0.1102222353
  -8.3812913895 0.0000034496 -0.0005166233 0.0000000019 0.0000000112 0.0000001546
  -3.9075455666 0.0000014305 0.0005265474 0.0000004249 0.7466149330 0.4844391048
  -9.0582647324 -0.0000002384 0.0000078678 -0.1962130070 0.1423723847 -0.4091174901
  -2.4121799469 -0.4690746069 4.9682683945 0.2278127223 -0.6577842832 0.2557728887
  -1.4861788750 -0.0092600733 0.0023770332 -0.0182543360 0.0115489205 0.4644548893
  -0.9848688841 -0.0127564669 0.0012275875 0.3776762486 0.5943309665 0.4060390890
  0.0011327863 -0.0000022352 1.2383995056 -0.0000005513 0.0000000281 -0.0000000151
  -0.0485565066 -0.4682636261 4.8929123878 0.2945401371 -0.6570017338 0.2687331140
  -1.8586764336 -0.0117368698 0.0021874309 0.0182137135 -0.0123658860 0.5519971848
  -1.0443673134 -0.0123021603 0.0005886555 0.0186418500 -0.0115624908 0.5112478733
  -1.5055353642 -0.0000055432 0.0011822879 0.0000105037 0.7071008682 -0.0000123786
  -2.1457815170 -0.0792672634 2.5121214390 0.0795319378 -0.4358264208 0.3166429698
  -1.6636106968 -0.0215004683 -0.0294210315 -0.1323003024 -0.3390546143 0.1692509651
  -1.2707839012 0.0000316501 0.0011658669 -0.0000000843 0.7071065903 -0.0000001949
  -1.1617159843 -0.4687235951 6.2216272354 0.4803776741 -0.5438483357 0.4272538126
  -1.4778445959 -0.0012519211 0.0014460087 0.0268109366 -0.0268564522 0.2610143423
  -0.9766037464 -0.0043375492 0.0003560781 0.2762080431 0.6432811618 0.2330486774
  0.0011330545 -0.0000023991 1.2384003401 -0.0000005197 -0.0000000363 -0.0000000503
  1.0011157990 -0.4596705437 3.6390328407 0.1633754075 -0.7046147585 0.1056701317
  -1.8531143665 0.0007329956 0.0014584661 0.0384743810 -0.0210313108 0.2334485203
  -1.0480576754 -0.0147857368 0.0012013167 0.0431203470 0.0045896177 0.6846182346
  -1.5055358410 -0.0000053644 0.0011815503 0.0000105011 0.7071008682 -0.0000123884
  -0.4064104557 8.1463708878 8.3328666687 0.0000000743 -0.0000006263 -1.0000000000
  14.3136539459 0.8773664832 3.6715388298 -0.5009471178 -0.4377082586 0.6300107837
}

frame 4 {
  -0.0000000251 -0.0000000089 0.0000013374 -0.7071068287 -0.0000000188 -0.0000000124
  -0.0175175872 4.5148844719 1.4526960850 -0.0000001064 0.0000000004 -1.0000000000
  -2.0376806259 -1.0987175703 0.5451019406 -0.0000000014 -0.0000001751 -0.0000000857
  2.5079936981 0.1487963647 3.5524599552 -0.0000000275 0.0000000224 0.0000000745
  -1.0437760353 1.6534498930 2.9099962711 0.6361117959 -0.1047929376 0.1535406262
  -8.3812913895 0.0000036582 -0.0005164146 0.0000000056 -0.0000000077 0.0000001406
  -3.9075469971 0.0000002533 0.0005266666 0.0000003214 0.6435247660 0.5256827474
  -9.0582656860 0.0000017285 0.0000079870 -0.3198610842 0.1731094569 -0.3367633224
  -2.4121785164 -0.4690745175 4.9682645798 0.2278127223 -0.6577842832 0.2557729483
  -1.4861797094 -0.0092622638 0.0023768833 -0.0182543509 0.0115489326 0.4644549191
  -0.9848691225 -0.0127546191 0.0012265006 0.3776761889 0.5943309069 0.4060390294
  0.0011335313 -0.0000025332 1.2383995056 -0.0000005543 0.0000000227 -0.0000000119
  -0.0485561788 -0.4682638645 4.8929100037 0.2945401073 -0.6570017338 0.2687330544
  -1.8586750031 -0.0117338002 0.0021881443 0.0182136558 -0.0123658525 0.5519973040
  -1.0443679094 -0.0123025179 0.0005886592 0.0186417829 -0.0115624527 0.5112479925
  -1.5055360794 -0.0000047982 0.0011823103 0.0000104971 0.7071008682 -0.0000124200
  -2.1457805634 -0.0792668015 2.5121183395 0.0795318782 -0.4358264804 0.3166429698
  -1.6636111736 -0.0215037316 -0.0294204298 -0.1323003471 -0.3390546739 0.1692508906
  -1.2707850933 0.0000328720 0.0011664480 -0.0000000948 0.7071065903 -0.0000001581
  -1.1617151499 -0.4687234759 6.2216253281 0.4803776443 -0.5438482761 0.4272537529
  -1.4778448343 -0.0012511164 0.0014455728 0.0268109627 -0.0268564466 0.2610143721
  -0.9766057134 -0.0043343902 0.0003549978 0.2762081325 0.6432811618 0.2330487370
  0.0011341572 -0.0000028610 1.2383997440 -0.0000005160 -0.0000000319 -0.0000000501
  1.0011160374 -0.4596706033 3.6390290260 0.1633754075 -0.7046147585 0.1056701019
  -1.8531165123 0.0007327348 0.0014582928 0.0384743884 -0.0210312847 0.2334486246
  -1.0480575562 -0.0147862732 0.0012024194 0.0431203656 0.0045896536 0.6846182346
  -1.5055348873 -0.0000050664 0.0011821091 0.0000105086 0.7071008682 -0.0000123937
  -0.4064104557 8.1463708878 8.3328666687 0.0000000743 -0.0000006263 -1.0000000000
  14.6781787872 4.8149185181 -0.7579120398 -0.4487881958 -0.5366631150 0.5846298933
}

frame 5 {
  -0.0000000251 -0.0000000089 0.0000013374 -0.7071068287 -0.0000000188 -0.0000000124
  -0.0175175872 4.5148844719 1.4526960850 -0.0000001064 0.0000000004 -1.0000000000
  -2.0376806259 -1.0987175703 0.5451019406 -0.0000000014 -0.0000001751 -0.0000000857
  2.5079936981 0.1487963647 3.5524599552 -0.0000000275 0.0000000224 0.0000000745
  -1.0437755585 1.6534491777 2.9099962711 0.7194211483 -0.0029128247 0.2126629204
  -8.3812923431 0.0000024736 -0.0005158484 -0.0000000056 -0.0000000072 0.0000001462
  -3.9075472355 0.0000017025 0.0005258471 0.0000003465 0.5401045084 0.5405570865
  -9.0582656860 0.0000008643 0.0000071228 -0.3843321204 0.3292871118 -0.2517247796
  -2.4121785164 -0.4690738916 4.9682655334 0.2278127223 -0.6577841640 0.2557729483
  -1.4861788750 -0.0092604160 0.0023756623 -0.0182543229 0.0115488628 0.4644547999
  -0.9848686457 -0.0127532482 0.0012263060 0.3776763082 0.5943309069 0.4060390592
  0.0011332035 -0.0000016689 1.2383989096 -0.0000005662 0.0000000177 -0.0000000214
  -0.0485558510 -0.4682635069 4.8929109573 0.2945401371 -0.6570016742 0.2687331140
  -1.8586759567 -0.0117359757 0.0021879077 0.0182137042 -0.0123658692 0.5519972444
  -1.0443671942 -0.0123028755 0.0005896091 0.0186418723 -0.0115624499 0.5112479925
  -1.5055357218 -0.0000057817 0.0011820793 0.0000105202 0.7071008682 -0.0000123963
  -2.1457810402 -0.0792670846 2.5121190548 0.0795319229 -0.4358264506 0.3166429698
  -1.6636121273 -0.0215020180 -0.0294218659 -0.1323003620 -0.3390546441 0.1692510098
  -1.2707839012 0.0000324249 0.0011661649 -0.0000000889 0.7071065903 -0.0000001903
  -1.1617152691 -0.4687224627 6.2216243744 0.4803775847 -0.5438482761 0.4272537529
  -1.4778443575 -0.0012505054 0.0014478564 0.0268109795 -0.0268564019 0.2610144913
  -0.9766036272 -0.0043365955 0.0003560185 0.2762081623 0.6432811618 0.2330488265
  0.0011323988 -0.0000019409 1.2383974791 -0.0000005209 -0.0000000269 -0.0000000490
  1.0011160374 -0.4596704841 3.6390297413 0.1633753926 -0.7046146989 0.1056701466
  -1.8531143665 0.0007340908 0.0014593005 0.0384743810 -0.0210312940 0.2334485650
  -1.0480577946 -0.0147864521 0.0012015402 0.0431203321 0.0045896037 0.6846182346
  -1.5055356026 -0.0000041723 0.0011817813 0.0000104899 0.7071008682 -0.0000124158
  -0.4064104557 8.1463708878 8.3328666687 0.0000000743 -0.0000006263 -1.0000000000
  14.3945465088 7.9551563263 -3.6950001717 -0.3979259431 -0.6616721749 0.5055230856
}

frame 6 {
  -0.0000000251 -0.0000000089 0.0000013374 -0.7071068287 -0.0000000188 -0.0000000124
  -0.0175175872 4.5148844719 1.4526960850 -0.0000001064 0.0000000004 -1.0000000000
  -2.0376806259 -1.0987175703 0.5451019406 -0.0000000014 -0.0000001751 -0.0000000857
  2.5079936981 0.1487963647 3.5524599552 -0.0000000275 0.0000000224 0.0000000745
  -1.0437752008 1.6534484625 2.9099962711 0.7865783572 0.0534389280 0.2830251157
  -8.3812904358 0.0000025630 -0.0005171299 0.0000000075 0.0000000019 0.0000001378
  -3.9075460434 -0.0000005662 0.0005274415 0.0000003296 0.4303870499 0.5399672985
  -9.0582647324 0.0000005364 0.0000069141 -0.3705167472 0.5645369291 -0.0945888236
  -2.4121799469 -0.4690732956 4.9682655334 0.2278127223 -0.6577842236 0.2557729483
  -1.4861800671 -0.0092600584 0.0023777485 -0.0182543546 0.0115489420 0.4644548893
  -0.9848701954 -0.0127532482 0.0012252331 0.3776760995 0.5943307877 0.4060392082
  0.0011352301 -0.0000019073 1.2383985519 -0.0000005849 0.0000000484 -0.0000000037
  -0.0485556126 -0.4682626724 4.8929100037 0.2945401371 -0.6570017338 0.2687331140
  -1.8586761951 -0.0117370486 0.0021865368 0.0182136483 -0.0123659139 0.5519972444
  -1.0443670750 -0.0123033524 0.0005888939 0.0186417121 -0.0115625812 0.5112479329
  -1.5055384636 -0.0000053644 0.0011813641 0.0000105208 0.7071008682 -0.0000123858
  -2.1457810402 -0.0792664289 2.5121195316 0.0795319304 -0.4358265102 0.3166430295
  -1.6636111736 -0.0215013027 -0.0294208527 -0.1323003322 -0.3390545845 0.1692509800
  -1.2707850933 0.0000317097 0.0011658072 -0.0000000896 0.7071065903 -0.0000001943
  -1.1617155075 -0.4687225819 6.2216253281 0.4803776443 -0.5438483357 0.4272537231
  -1.4778444767 -0.0012501478 0.0014460087 0.0268110447 -0.0268564429 0.2610143423
  -0.9766035080 -0.0043356419 0.0003547668 0.2762081027 0.6432812214 0.2330486625
  0.0011322498 -0.0000019073 1.2383995056 -0.0000005271 -0.0000000251 -0.0000000466
  1.0011157990 -0.4596698284 3.6390306950 0.1633753926 -0.7046147585 0.1056701392
  -1.8531141281 0.0007338822 0.0014586449 0.0384744145 -0.0210312679 0.2334486544
  -1.0480587482 -0.0147852600 0.0012023449 0.0431203693 0.0045896862 0.6846183538
  -1.5055346489 -0.0000056624 0.0011817217 0.0000104905 0.7071008682 -0.0000123988
  -0.4064104557 8.1463708878 8.3328666687 0.0000000743 -0.0000006263 -1.0000000000
  13.2582578659 11.3165655136 -5.7259531021 -0.2962528467 -0.8238233328 0.3634800911
}

frame 7 {
  -0.0000000251 -0.0000000089 0.0000013374 -0.7071068287 -0.0000000188 -0.0000000124
  -0.0175175872 4.5148844719 1.4526960850 -0.0000001064 0.0000000004 -1.0000000000
  -2.0376806259 -1.0987175703 0.5451019406 -0.0000000014 -0.0000001751 -0.0000000857
  2.5079936981 0.1487963647 3.5524599552 -0.0000000275 0.0000000224 0.0000000745
  -1.0437752008 1.6534479856 2.9099972248 0.8299661279 0.0683960319 0.3450613022
  -8.3812923431 0.0000033379 -0.0005171299 0.0000000224 -0.0000000149 0.0000001471
  -3.9075462818 0.0000021458 0.0005275011 0.0000004429 0.3442270160 0.5316930413
  -9.0582656860 -0.0000006557 0.0000073910 -0.2654818296 0.7409362197 0.0943952352
  -2.4121797085 -0.4690741301 4.9682645798 0.2278127074 -0.6577842236 0.2557729185
  -1.4861806631 -0.0092608929 0.0023758411 -0.0182543434 0.0115489597 0.4644549191
  -0.9848679304 -0.0127554536 0.0012264252 0.3776762486 0.5943309665 0.4060392380
  0.0011339188 -0.0000020266 1.2383992672 -0.0000005327 0.0000000335 -0.0000000373
  -0.0485563278 -0.4682636261 4.8929090500 0.2945401371 -0.6570016742 0.2687331140
  -1.8586759567 -0.0117370486 0.0021877289 0.0182137229 -0.0123659009 0.5519973040
  -1.0443683863 -0.0123003125 0.0005884171 0.0186418928 -0.0115625113 0.5112480521
  -1.5055340528 -0.0000052452 0.0011811256 0.0000104813 0.7071008682 -0.0000123832
  -2.1457808018 -0.0792672634 2.5121195316 0.0795319080 -0.4358264208 0.3166430295
  -1.6636120081 -0.0215016603 -0.0294200182 -0.1323003322 -0.3390546441 0.1692510247
  -1.2707836628 0.0000333786 0.0011657476 -0.0000000738 0.7071065903 -0.0000002285
  -1.1617147923 -0.4687238932 6.2216238976 0.4803776741 -0.5438483357 0.4272537827
  -1.4778456688 -0.0012522936 0.0014454126 0.0268110298 -0.0268564634 0.2610144317
  -0.9766038656 -0.0043357089 0.0003552437 0.2762081623 0.6432811022 0.2330486774
  0.0011326671 -0.0000033379 1.2383983135 -0.0000005187 -0.0000000354 -0.0000000298
  1.0011165142 -0.4596705437 3.6390299797 0.1633753926 -0.7046146989 0.1056701466
  -1.8531146049 0.0007332563 0.0014593601 0.0384744108 -0.0210312996 0.2334485650
  -1.0480582714 -0.0147861838 0.0012012720 0.0431204364 0.0045896149 0.6846181750
  -1.5055372715 -0.0000038147 0.0011816248 0.0000104918 0.7071008682 -0.0000124029
  -0.4064104557 8.1463708878 8.3328666687 0.0000000743 -0.0000006263 -1.0000000000
  11.4747295380 13.6540536880 -6.0991511345 -0.1679136455 -0.9406676292 0.1924278587
}

frame 8 {
  -0.0000000251 -0.0000000089 0.0000013374 -0.7071068287 -0.0000000188 -0.0000000124
  -0.0175175872 4.5148844719 1.4526960850 -0.0000001064 0.0000000004 -1.0000000000
  -2.0376806259 -1.0987175703 0.5451019406 -0.0000000014 -0.0000001751 -0.0000000857
  2.5079936981 0.1487963647 3.5524599552 -0.0000000275 0.0000000224 0.0000000745
  -1.0437753201 1.6534477472 2.9099972248 0.8499787450 0.0621057302 0.3829263151
  -8.3812913895 0.0000025034 -0.0005161762 0.0000000149 -0.0000000149 0.0000001341
  -3.9075467587 0.0000017323 0.0005262047 0.0000003369 0.2967276871 0.5275071263
  -9.0582647324 -0.0000003576 0.0000076294 -0.1603710502 0.8041921258 0.2214577943
  -2.4121799469 -0.4690738320 4.9682664871 0.2278126925 -0.6577841640 0.2557729483
  -1.4861795902 -0.0092616677 0.0023766756 -0.0182543695 0.0115489317 0.4644549489
  -0.9848685861 -0.0127540678 0.0012264252 0.3776761889 0.5943308473 0.4060391486
  0.0011330843 -0.0000024438 1.2383993864 -0.0000005458 0.0000000226 -0.0000000197
  -0.0485562086 -0.4682631493 4.8929109573 0.2945400476 -0.6570016146 0.2687330842
  -1.8586764336 -0.0117356181 0.0021868944 0.0182136316 -0.0123658953 0.5519973636
  -1.0443685055 -0.0123023987 0.0005891323 0.0186417866 -0.0115624527 0.5112480521
  -1.5055367947 -0.0000059605 0.0011825562 0.0000105004 0.7071008682 -0.0000123825
  -2.1457815170 -0.0792675614 2.5121209621 0.0795318782 -0.4358264208 0.3166430295
  -1.6636118889 -0.0215017796 -0.0294200182 -0.1323002577 -0.3390545845 0.1692510396
  -1.2707835436 0.0000320673 0.0011656284 -0.0000000843 0.7071065903 -0.0000002055
  -1.1617155075 -0.4687232971 6.2216262817 0.4803776145 -0.5438483357 0.4272538126
  -1.4778456688 -0.0012515783 0.0014455318 0.0268109329 -0.0268564634 0.2610144317
  -0.9766049981 -0.0043344498 0.0003552437 0.2762081623 0.6432811618 0.2330488116
  0.0011332035 -0.0000015497 1.2383992672 -0.0000005282 -0.0000000305 -0.0000000522
  1.0011157990 -0.4596709013 3.6390306950 0.1633753628 -0.7046146989 0.1056701541
  -1.8531154394 0.0007327795 0.0014579296 0.0384744406 -0.0210313369 0.2334486544
  -1.0480575562 -0.0147852525 0.0012012720 0.0431204699 0.0045896056 0.6846183538
  -1.5055376291 -0.0000048876 0.0011819601 0.0000105116 0.7071008682 -0.0000123865
  -0.4064104557 8.1463708878 8.3328666687 0.0000000743 -0.0000006263 -1.0000000000
  10.2216959000 14.4490957260 -5.6510787010 -0.0771748498 -0.9826090336 0.0744094029
}

frame 9 {
  -0.0000000251 -0.0000000089 0.0000013374 -0.7071068287 -0.0000000188 -0.0000000124
  -0.0175175872 4.5148844719 1.4526960850 -0.0000001064 0.0000000004 -1.0000000000
  -2.0376806259 -1.0987175703 0.5451019406 -0.0000000014 -0.0000001751 -0.0000000857
  2.5079936981 0.1487963647 3.5524599552 -0.0000000275 0.0000000224 0.0000000745
  -1.0437753201 1.6534475088 2.9099972248 0.8550048470 0.0570671447 0.3945004046
  -8.3812904358 0.0000026226 -0.0005170107 0.0000000075 -0.0000000037 0.0000001304
  -3.9075467587 0.0000011623 0.0005267560 0.0000004186 0.2833969593 0.5275048018
  -9.0582656860 0.0000010729 0.0000071526 -0.1226942390 0.8145789504 0.2600542009
  -2.4121801853 -0.4690750241 4.9682650566 0.2278126925 -0.6577841640 0.2557729781
  -1.4861816168 -0.0092599392 0.0023765564 -0.0182543490 0.0115488544 0.4644549489
  -0.9848702550 -0.0127547309 0.0012271404 0.3776762486 0.5943307877 0.4060391486
  0.0011329651 -0.0000020266 1.2383981943 -0.0000005318 0.0000000279 -0.0000000154
  -0.0485572368 -0.4682647884 4.8929104805 0.2945400774 -0.6570016146 0.2687330842
  -1.8586759567 -0.0117368698 0.0021865368 0.0182136614 -0.0123658460 0.5519973040
  -1.0443675518 -0.0123029351 0.0005886555 0.0186417755 -0.0115624890 0.5112479925
  -1.5055366755 -0.0000045300 0.0011813641 0.0000105009 0.7071008682 -0.0000123815
  -2.1457822323 -0.0792680830 2.5121200085 0.0795318782 -0.4358264804 0.3166429698
  -1.6636109352 -0.0215011835 -0.0294207335 -0.1323003322 -0.3390546441 0.1692509204
  -1.2707854509 0.0000318289 0.0011653304 -0.0000001238 0.7071065903 -0.0000001949
  -1.1617162228 -0.4687243104 6.2216229439 0.4803776741 -0.5438483357 0.4272537827
  -1.4778461456 -0.0012523979 0.0014457703 0.0268110186 -0.0268564932 0.2610143721
  -0.9766059518 -0.0043360591 0.0003547668 0.2762080431 0.6432811618 0.2330486625
  0.0011333227 -0.0000022650 1.2383997440 -0.0000005066 -0.0000000270 -0.0000000354
  1.0011148453 -0.4596716464 3.6390302181 0.1633753777 -0.7046147585 0.1056701615
  -1.8531126976 0.0007327795 0.0014579296 0.0384743325 -0.0210313275 0.2334485650
  -1.0480588675 -0.0147854090 0.0012012720 0.0431203842 0.0045895283 0.6846181154
  -1.5055363178 -0.0000054836 0.0011821985 0.0000104961 0.7071008682 -0.0000123621
  -0.4064104557 8.1463708878 8.3328666687 0.0000000743 -0.0000006263 -1.0000000000
  9.8444309235 14.5601568222 -5.4136009216 -0.0482037365 -0.9899066091 0.0372028686
}

frame 10 {
  -0.0000000251 -0.0000000089 0.0000013374 -0.7071068287 -0.0000000188 -0.0000000124
  -0.0175175872 4.5148844719 1.4526960850 -0.0000001064 0.0000000004 -1.0000000000
  -2.0376806259 -1.0987175703 0.5451019406 -0.0000000014 -0.0000001751 -0.0000000857
  2.5079936981 0.1487963647 3.5524599552 -0.0000000275 0.0000000224 0.0000000745
  -1.0437753201 1.6534477472 2.9099972248 0.8492268920 0.0602117106 0.3814824820
  -8.3812923431 0.0000034571 -0.0005177259 -0.0000000075 0.0000000149 0.0000001527
  -3.9075448513 0.0000001714 0.0005271006 0.0000005168 0.3005196750 0.5300167203
  -9.0582647324 -0.0000011921 0.0000066757 -0.1605007350 0.8038526773 0.2172387540
  -2.4121792316 -0.4690744281 4.9682655334 0.2278126925 -0.6577842236 0.2557729781
  -1.4861812592 -0.0092620850 0.0023765564 -0.0182543769 0.0115489075 0.4644549489
  -0.9848707318 -0.0127556622 0.0012273490 0.3776762784 0.5943307877 0.4060392678
  0.0011331439 -0.0000018477 1.2384003401 -0.0000005597 0.0000000296 -0.0000000089
  -0.0485559702 -0.4682633281 4.8929114342 0.2945401073 -0.6570016146 0.2687331140
  -1.8586751223 -0.0117321014 0.0021860600 0.0182136539 -0.0123658469 0.5519973040
  -1.0443675518 -0.0123014450 0.0005898476 0.0186417922 -0.0115624275 0.5112479925
  -1.5055352449 -0.0000046492 0.0011813641 0.0000104978 0.7071008682 -0.0000123878
  -2.1457815170 -0.0792667270 2.5121204853 0.0795318633 -0.4358264208 0.3166430295
  -1.6636114120 -0.0215009451 -0.0294219255 -0.1323003769 -0.3390545845 0.1692510396
  -1.2707867622 0.0000313520 0.0011674166 -0.0000000948 0.7071065903 -0.0000001554
  -1.1617151499 -0.4687230587 6.2216253281 0.4803776741 -0.5438483357 0.4272537827
  -1.4778439999 -0.0012516975 0.0014457703 0.0268109553 -0.0268564522 0.2610144913
  -0.9766047597 -0.0043363571 0.0003550053 0.2762081623 0.6432811022 0.2330488265
  0.0011336803 -0.0000013113 1.2383999825 -0.0000005232 -0.0000000198 -0.0000000447
  1.0011156797 -0.4596707821 3.6390311718 0.1633753479 -0.7046147585 0.1056701615
  -1.8531153202 0.0007333755 0.0014575720 0.0384743474 -0.0210313294 0.2334484458
  -1.0480583906 -0.0147879943 0.0012015104 0.0431203656 0.0045895549 0.6846181750
  -1.5055363178 -0.0000061989 0.0011820793 0.0000105412 0.7071008682 -0.0000124280
  -0.4064104557 8.1463708878 8.3328666687 0.0000000743 -0.0000006263 -1.0000000000
  10.2272663116 14.3981552124 -5.5950117111 -0.0775823444 -0.9824747443 0.0753617063
}

frame 11 {
  -0.0000000251 -0.0000000089 0.0000013374 -0.7071068287 -0.0000000188 -0.0000000124
  -0.0175175872 4.5148844719 1.4526960850 -0.0000001064 0.0000000004 -1.0000000000
  -2.0376806259 -1.0987175703 0.5451019406 -0.0000000014 -0.0000001751 -0.0000000857
  2.5079936981 0.1487963647 3.5524599552 -0.0000000275 0.0000000224 0.0000000745
  -1.0437752008 1.6534479856 2.9099972248 0.8264128566 0.0615505688 0.3398778737
  -8.3812913895 0.0000030994 -0.0005164146 -0.0000000186 -0.0000000037 0.0000001434
  -3.9075469971 0.0000003576 0.0005266964 0.0000003318 0.3571395278 0.5380063057
  -9.0582656860 -0.0000016838 0.0000071526 -0.2641225755 0.7370815277 0.0808207765
  -2.4121797085 -0.4690750837 4.9682650566 0.2278127223 -0.6577842236 0.2557729185
  -1.4861793518 -0.0092614889 0.0023764372 -0.0182544068 0.0115489289 0.4644549489
  -0.9848688245 -0.0127533674 0.0012271404 0.3776762187 0.5943309069 0.4060392082
  0.0011327267 -0.0000023246 1.2383987904 -0.0000005811 0.0000000512 -0.0000000298
  -0.0485560894 -0.4682645798 4.8929104805 0.2945400774 -0.6570016742 0.2687330842
  -1.8586766720 -0.0117353797 0.0021886826 0.0182136968 -0.0123659316 0.5519971848
  -1.0443676710 -0.0123008490 0.0005881786 0.0186418053 -0.0115625337 0.5112478137
  -1.5055364370 -0.0000047684 0.0011823177 0.0000104787 0.7071008682 -0.0000123805
  -2.1457819939 -0.0792673826 2.5121204853 0.0795318931 -0.4358264208 0.3166429698
  -1.6636102200 -0.0215008259 -0.0294207335 -0.1323002875 -0.3390546441 0.1692510098
  -1.2707846165 0.0000319481 0.0011671185 -0.0000000665 0.7071065903 -0.0000001581
  -1.1617159843 -0.4687230587 6.2216258049 0.4803776443 -0.5438482761 0.4272537827
  -1.4778451920 -0.0012534857 0.0014456511 0.0268109459 -0.0268564858 0.2610144317
  -0.9766048193 -0.0043359250 0.0003542304 0.2762081027 0.6432810426 0.2330487072
  0.0011327863 -0.0000030994 1.2384002209 -0.0000005150 -0.0000000084 -0.0000000559
  1.0011160374 -0.4596707821 3.6390309334 0.1633753926 -0.7046147585 0.1056701392
  -1.8531169891 0.0007348061 0.0014588833 0.0384744070 -0.0210312977 0.2334485948
  -1.0480585098 -0.0147858113 0.0012012720 0.0431203507 0.0045896620 0.6846181750
  -1.5055347681 -0.0000057220 0.0011815652 0.0000105195 0.7071008682 -0.0000123792
  -0.4064104557 8.1463708878 8.3328666687 0.0000000743 -0.0000006263 -1.0000000000
  11.4967746735 13.4693193436 -5.9071531296 -0.1694420576 -0.9395049214 0.1959378123
}

frame 12 {
  -0.0000000251 -0.0000000089 0.0000013374 -0.7071068287 -0.0000000188 -0.0000000124
  -0.0175175872 4.5148844719 1.4526960850 -0.0000001064 0.0000000004 -1.0000000000
  -2.0376806259 -1.0987175703 0.5451019406 -0.0000000014 -0.0000001751 -0.0000000857
  2.5079936981 0.1487963647 3.5524599552 -0.0000000275 0.0000000224 0.0000000745
  -1.0437753201 1.6534484625 2.9099962711 0.7787874937 0.0414316095 0.2747807801
  -8.3812913895 0.0000033975 -0.0005158782 -0.0000000037 0.0000000056 0.0000001322
  -3.9075448513 0.0000036061 0.0005264878 0.0000003683 0.4495221376 0.5446460843
  -9.0582647324 0.0000006855 0.0000071526 -0.3633151948 0.5545382500 -0.1118702069
  -2.4121804237 -0.4690741301 4.9682664871 0.2278127074 -0.6577842236 0.2557729185
  -1.4861819744 -0.0092629194 0.0023779869 -0.0182543341 0.0115489056 0.4644549191
  -0.9848691225 -0.0127546787 0.0012273788 0.3776762784 0.5943309069 0.4060391486
  0.0011332035 -0.0000033379 1.2383983135 -0.0000005532 0.0000000373 -0.0000000075
  -0.0485559702 -0.4682648182 4.8929119110 0.2945401371 -0.6570017338 0.2687330544
  -1.8586761951 -0.0117368698 0.0021886826 0.0182137154 -0.0123658637 0.5519973040
  -1.0443692207 -0.0123019218 0.0005893707 0.0186418779 -0.0115624620 0.5112479925
  -1.5055372715 -0.0000043511 0.0011811256 0.0000104971 0.7071008682 -0.0000123805
  -2.1457810402 -0.0792682171 2.5121216774 0.0795319080 -0.4358264208 0.3166429698
  -1.6636121273 -0.0215009451 -0.0294220448 -0.1323003173 -0.3390546143 0.1692510098
  -1.2707843781 0.0000317097 0.0011658072 -0.0000001185 0.7071065903 -0.0000001765
  -1.1617151499 -0.4687232971 6.2216248512 0.4803777039 -0.5438483357 0.4272537827
  -1.4778447151 -0.0012542009 0.0014464855 0.0268110130 -0.0268564448 0.2610143721
  -0.9766042233 -0.0043344498 0.0003569126 0.2762080729 0.6432811618 0.2330485582
  0.0011320114 -0.0000021458 1.2384008169 -0.0000005253 -0.0000000345 -0.0000000410
  1.0011161566 -0.4596717358 3.6390326023 0.1633753926 -0.7046147585 0.1056701541
  -1.8531143665 0.0007342473 0.0014599562 0.0384744331 -0.0210313369 0.2334486246
  -1.0480581522 -0.0147871673 0.0012016296 0.0431204289 0.0045896177 0.6846182346
  -1.5055363178 -0.0000052750 0.0011807680 0.0000104977 0.7071008682 -0.0000124255
  -0.4064104557 8.1463708878 8.3328666687 0.0000000743 -0.0000006263 -1.0000000000
  13.2860994339 11.0041046143 -5.4070205688 -0.2984730303 -0.8203364611 0.3688347936
}

frame 13 {
  -0.0000000251 -0.0000000089 0.0000013374 -0.7071068287 -0.0000000188 -0.0000000124
  -0.0175175872 4.5148844719 1.4526960850 -0.0000001064 0.0000000004 -1.0000000000
  -2.0376806259 -1.0987175703 0.5451019406 -0.0000000014 -0.0000001751 -0.0000000857
  2.5079936981 0.1487963647 3.5524599552 -0.0000000275 0.0000000224 0.0000000745
  -1.0437755585 1.6534491777 2.9099962711 0.7111446857 -0.0147556886 0.2063318789
  -8.3812913895 0.0000033081 -0.0005167499 -0.0000000014 0.0000000019 0.0000001490
  -3.9075467587 0.0000031879 0.0005268380 0.0000002823 0.5537501574 0.5405926108
  -9.0582656860 0.0000006855 0.0000075996 -0.3748072088 0.3217864037 -0.2614577115
  -2.4121801853 -0.4690742493 4.9682655334 0.2278127521 -0.6577842832 0.2557729185
  -1.4861798286 -0.0092598200 0.0023776293 -0.0182543192 0.0115489429 0.4644548893
  -0.9848695993 -0.0127538443 0.0012277365 0.3776762187 0.5943308473 0.4060391486
  0.0011335611 -0.0000026226 1.2383974791 -0.0000005513 0.0000000373 -0.0000000251
  -0.0485570431 -0.4682637453 4.8929104805 0.2945401371 -0.6570017338 0.2687330544
  -1.8586761951 -0.0117360950 0.0021888018 0.0182136800 -0.0123658944 0.5519973040
  -1.0443687439 -0.0123012066 0.0005878210 0.0186417904 -0.0115624936 0.5112479329
  -1.5055376291 -0.0000049472 0.0011828542 0.0000104859 0.7071008682 -0.0000123944
  -2.1457815170 -0.0792675614 2.5121197701 0.0795319378 -0.4358264804 0.3166429400
  -1.6636114120 -0.0215007067 -0.0294201374 -0.1323003769 -0.3390545845 0.1692509949
  -1.2707833052 0.0000325441 0.0011649057 -0.0000000882 0.7071065903 -0.0000001646
  -1.1617157459 -0.4687228203 6.2216243744 0.4803776145 -0.5438483357 0.4272538126
  -1.4778437614 -0.0012509823 0.0014457107 0.0268109795 -0.0268564615 0.2610144317
  -0.9766050577 -0.0043365955 0.0003545284 0.2762081921 0.6432809830 0.2330487669
  0.0011327565 -0.0000021979 1.2383981943 -0.0000005207 -0.0000000332 -0.0000000516
  1.0011155605 -0.4596706033 3.6390297413 0.1633754075 -0.7046147585 0.1056701615
  -1.8531146049 0.0007318258 0.0014582276 0.0384743735 -0.0210313331 0.2334485203
  -1.0480577946 -0.0147868097 0.0012004077 0.0431203693 0.0045895753 0.6846181750
  -1.5055360794 -0.0000058413 0.0011821985 0.0000105294 0.7071008682 -0.0000123970
  -0.4064104557 8.1463708878 8.3328666687 0.0000000743 -0.0000006263 -1.0000000000
  14.4020700455 7.6868867874 -3.4056544304 -0.3992483020 -0.6579117775 0.5092605948
}

frame 14 {
  -0.0000000251 -0.0000000089 0.0000013374 -0.7071068287 -0.0000000188 -0.0000000124
  -0.0175175872 4.5148844719 1.4526960850 -0.0000001064 0.0000000004 -1.0000000000
  -2.0376806259 -1.0987175703 0.5451019406 -0.0000000014 -0.0000001751 -0.0000000857
  2.5079936981 0.1487963647 3.5524599552 -0.0000000275 0.0000000224 0.0000000745
  -1.0437760353 1.6534498930 2.9099962711 0.6361117959 -0.1047929376 0.1535406262
  -8.3812913895 0.0000036582 -0.0005164146 0.0000000056 -0.0000000077 0.0000001406
  -3.9075469971 0.0000002533 0.0005266666 0.0000003214 0.6435247660 0.5256827474
  -9.0582656860 0.0000017285 0.0000079870 -0.3198610842 0.1731094569 -0.3367633224
  -2.4121785164 -0.4690745175 4.9682645798 0.2278127223 -0.6577842832 0.2557729483
  -1.4861797094 -0.0092622638 0.0023768833 -0.0182543509 0.0115489326 0.4644549191
  -0.9848691225 -0.0127546191 0.0012265006 0.3776761889 0.5943309069 0.4060390294
  0.0011335313 -0.0000025332 1.2383995056 -0.0000005543 0.0000000227 -0.0000000119
  -0.0485561788 -0.4682638645 4.8929100037 0.2945401073 -0.6570017338 0.2687330544
  -1.8586750031 -0.0117338002 0.0021881443 0.0182136558 -0.0123658525 0.5519973040
  -1.0443679094 -0.0123025179 0.0005886592 0.0186417829 -0.0115624527 0.5112479925
  -1.5055360794 -0.0000047982 0.0011823103 0.0000104971 0.7071008682 -0.0000124200
  -2.1457805634 -0.0792668015 2.5121183395 0.0795318782 -0.4358264804 0.3166429698
  -1.6636111736 -0.0215037316 -0.0294204298 -0.1323003471 -0.3390546739 0.1692508906
  -1.2707850933 0.0000328720 0.0011664480 -0.0000000948 0.7071065903 -0.0000001581
  -1.1617151499 -0.4687234759 6.2216253281 0.4803776443 -0.5438482761 0.4272537529
  -1.4778448343 -0.0012511164 0.0014455728 0.0268109627 -0.0268564466 0.2610143721
  -0.9766057134 -0.0043343902 0.0003549978 0.2762081325 0.6432811618 0.2330487370
  0.0011341572 -0.0000028610 1.2383997440 -0.0000005160 -0.0000000319 -0.0000000501
  1.0011160374 -0.4596706033 3.6390290260 0.1633754075 -0.7046147585 0.1056701019
  -1.8531165123 0.0007327348 0.0014582928 0.0384743884 -0.0210312847 0.2334486246
  -1.0480575562 -0.0147862732 0.0012024194 0.0431203656 0.0045896536 0.6846182346
  -1.5055348873 -0.0000050664 0.0011821091 0.0000105086 0.7071008682 -0.0000123937
  -0.4064104557 8.1463708878 8.3328666687 0.0000000743 -0.0000006263 -1.0000000000
  14.6781787872 4.8149185181 -0.7579120398 -0.4487881958 -0.5366631150 0.5846298933
}

frame 15 {
  -0.0000000251 -0.0000000089 0.0000013374 -0.7071068287 -0.0000000188 -0.0000000124
  -0.0175175872 4.5148844719 1.4526960850 -0.0000001064 0.0000000004 -1.0000000000
  -2.0376806259 -1.0987175703 0.5451019406 -0.0000000014 -0.0000001751 -0.0000000857
  2.5079936981 0.1487963647 3.5524599552 -0.0000000275 0.0000000224 0.0000000745
  -1.0437766314 1.6534508467 2.9099972248 0.5241222382 -0.2581482530 0.1154283583
  -8.3812913895 0.0000026301 -0.0005169129 0.0000000130 0.0000000130 0.0000001434
  -3.9075479507 0.0000007153 0.0005262494 0.0000003153 0.7304776907 0.4930186272
  -9.0582656860 -0.0000013113 0.0000071526 -0.2243487239 0.1254558563 -0.3947999775
  -2.4121799469 -0.4690739810 4.9682664871 0.2278127521 -0.6577842832 0.2557728887
  -1.4861805439 -0.0092612803 0.0023764074 -0.0182543248 0.0115489047 0.4644549191
  -0.9848687649 -0.0127557516 0.0012267977 0.3776762187 0.5943309665 0.4060391784
  0.0011333078 -0.0000020862 1.2383992672 -0.0000005469 0.0000000191 -0.0000000087
  -0.0485571325 -0.4682638645 4.8929128647 0.2945401967 -0.6570016742 0.2687330842
  -1.8586757183 -0.0117377937 0.0021881312 0.0182136782 -0.0123658692 0.5519973040
  -1.0443670750 -0.0123017430 0.0005886406 0.0186418239 -0.0115624638 0.5112479329
  -1.5055350065 -0.0000047982 0.0011813641 0.0000104965 0.7071008682 -0.0000123720
  -2.1457817554 -0.0792669952 2.5121212006 0.0795319453 -0.4358264804 0.3166429400
  -1.6636097431 -0.0215003490 -0.0294211507 -0.1323003173 -0.3390546441 0.1692509949
  -1.2707848549 0.0000318885 0.0011668205 -0.0000000843 0.7071065903 -0.0000002160
  -1.1617158651 -0.4687227905 6.2216253281 0.4803776741 -0.5438483357 0.4272537529
  -1.4778447151 -0.0012529641 0.0014461428 0.0268109795 -0.0268565100 0.2610144913
  -0.9766033292 -0.0043357611 0.0003553033 0.2762082219 0.6432809830 0.2330487370
  0.0011330396 -0.0000021458 1.2383985519 -0.0000005290 -0.0000000317 -0.0000000596
  1.0011154413 -0.4596711099 3.6390321255 0.1633753777 -0.7046147585 0.1056701168
  -1.8531157970 0.0007342994 0.0014580637 0.0384743959 -0.0210313220 0.2334485203
  -1.0480580330 -0.0147871971 0.0012013614 0.0431203507 0.0045896098 0.6846181750
  -1.5055356026 -0.0000050962 0.0011813566 0.0000105103 0.7071008682 -0.0000124095
  -0.4064104557 8.1463708878 8.3328666687 0.0000000743 -0.0000006263 -1.0000000000
  14.4503889084 1.6831276417 2.7279503345 -0.4899996817 -0.4493259490 0.6260923147
}

frame 16 {
  -0.0000000251 -0.0000000089 0.0000013374 -0.7071068287 -0.0000000188 -0.0000000124
  -0.0175175872 4.5148844719 1.4526960850 -0.0000001064 0.0000000004 -1.0000000000
  -2.0376806259 -1.0987175703 0.5451019406 -0.0000000014 -0.0000001751 -0.0000000857
  2.5079936981 0.1487963647 3.5524599552 -0.0000000275 0.0000000224 0.0000000745
  -1.0437767506 1.6534518003 2.9099981785 0.3476622701 -0.4887575507 0.0923302472
  -8.3812904358 0.0000033230 -0.0005167350 -0.0000000149 -0.0000000149 0.0000001322
  -3.9075486660 -0.0000010729 0.0005270690 0.0000004008 0.7514856458 0.4859933257
  -9.0582666397 -0.0000003874 0.0000071228 -0.1057214439 0.2533939481 -0.4322831035
  -2.4121789932 -0.4690755904 4.9682660103 0.2278126776 -0.6577842236 0.2557728887
  -1.4861797094 -0.0092617013 0.0023768097 -0.0182543080 0.0115489131 0.4644548595
  -0.9848704934 -0.0127533786 0.0012267232 0.3776763082 0.5943308473 0.4060391486
  0.0011322498 -0.0000023842 1.2383964062 -0.0000005420 0.0000000405 -0.0000000149
  -0.0485562086 -0.4682638347 4.8929114342 0.2945401371 -0.6570016146 0.2687330842
  -1.8586751223 -0.0117366314 0.0021881461 0.0182136633 -0.0123658460 0.5519973040
  -1.0443682671 -0.0123001337 0.0005890727 0.0186417811 -0.0115624797 0.5112479329
  -1.5055358410 -0.0000051558 0.0011824369 0.0000104971 0.7071008682 -0.0000123687
  -2.1457810402 -0.0792689249 2.5121207237 0.0795319006 -0.4358264208 0.3166429400
  -1.6636105776 -0.0215004683 -0.0294204950 -0.1323003173 -0.3390546739 0.1692510098
  -1.2707841396 0.0000314116 0.0011661649 -0.0000000922 0.7071065903 -0.0000001949
  -1.1617153883 -0.4687244892 6.2216253281 0.4803777039 -0.5438483357 0.4272537827
  -1.4778443575 -0.0012519211 0.0014456511 0.0268110279 -0.0268564895 0.2610144317
  -0.9766044617 -0.0043354928 0.0003562570 0.2762081623 0.6432810426 0.2330486923
  0.0011320412 -0.0000015199 1.2383981943 -0.0000005104 -0.0000000503 -0.0000000615
  1.0011161566 -0.4596714377 3.6390304565 0.1633753777 -0.7046147585 0.1056701839
  -1.8531142473 0.0007327795 0.0014588833 0.0384744108 -0.0210312903 0.2334485501
  -1.0480582714 -0.0147868395 0.0012017190 0.0431204028 0.0045897560 0.6846182346
  -1.5055356026 -0.0000048280 0.0011822879 0.0000105248 0.7071008682 -0.0000124214
  -0.4064104557 8.1463708878 8.3328666687 0.0000000743 -0.0000006263 -1.0000000000
  13.6527147293 -2.4130868912 7.5206398964 -0.5509621501 -0.3623103797 0.6508120298
}

frame 17 {
  -0.0000000251 -0.0000000089 0.0000013374 -0.7071068287 -0.0000000188 -0.0000000124
  -0.0175175872 4.5148844719 1.4526960850 -0.0000001064 0.0000000004 -1.0000000000
  -2.0376806259 -1.0987175703 0.5451019406 -0.0000000014 -0.0000001751 -0.0000000857
  2.5079936981 0.1487963647 3.5524599552 -0.0000000275 0.0000000224 0.0000000745
  -1.0437763929 1.6534525156 2.9099991322 0.1817730069 -0.6220683455 0.0667573437
  -8.3812894821 0.0000042915 -0.0005171075 0.0000000037 -0.0000000000 0.0000001509
  -3.9075477123 -0.0000003725 0.0005268529 0.0000005366 0.6233406067 0.5504118204
  -9.0582675934 0.0000011921 0.0000053793 -0.0062939925 0.5028048158 -0.4028763175
  -2.4121794701 -0.4690737724 4.9682655334 0.2278126925 -0.6577842236 0.2557729185
  -1.4861804247 -0.0092604160 0.0023765564 -0.0182543509 0.0115489354 0.4644549489
  -0.9848693013 -0.0127526522 0.0012266636 0.3776762784 0.5943309069 0.4060392976
  0.0011321902 -0.0000031590 1.2383980751 -0.0000005458 -0.0000000058 0.0000000019
  -0.0485564470 -0.4682629704 4.8929109573 0.2945401073 -0.6570016146 0.2687330842
  -1.8586764336 -0.0117340088 0.0021877885 0.0182136744 -0.0123658776 0.5519973040
  -1.0443677902 -0.0123028755 0.0005903244 0.0186417755 -0.0115624676 0.5112479329
  -1.5055358410 -0.0000051260 0.0011814833 0.0000105024 0.7071008682 -0.0000123753
  -2.1457819939 -0.0792665035 2.5121204853 0.0795319304 -0.4358264208 0.3166430295
  -1.6636117697 -0.0214994848 -0.0294208527 -0.1323003471 -0.3390545845 0.1692510396
  -1.2707837820 0.0000331402 0.0011640787 -0.0000000685 0.7071065903 -0.0000002160
  -1.1617157459 -0.4687226415 6.2216253281 0.4803776741 -0.5438483357 0.4272538126
  -1.4778437614 -0.0012516975 0.0014460087 0.0268110074 -0.0268564373 0.2610144317
  -0.9766047001 -0.0043375492 0.0003556013 0.2762081623 0.6432811022 0.2330487669
  0.0011332035 -0.0000017881 1.2384011745 -0.0000005290 -0.0000000354 -0.0000000596
  1.0011154413 -0.4596711397 3.6390316486 0.1633753777 -0.7046147585 0.1056701615
  -1.8531143665 0.0007352829 0.0014584512 0.0384743959 -0.0210312903 0.2334485948
  -1.0480582714 -0.0147888660 0.0012006462 0.0431203730 0.0045896620 0.6846181750
  -1.5055360794 -0.0000039041 0.0011820048 0.0000105274 0.7071008682 -0.0000123990
  -0.4064104557 8.1463708878 8.3328666687 0.0000000743 -0.0000006263 -1.0000000000
  12.5116958618 -6.5055027008 12.3661766052 -0.6156482697 -0.2842320502 0.6577977538
}

frame 18 {
  -0.0000000251 -0.0000000089 0.0000013374 -0.7071068287 -0.0000000188 -0.0000000124
  -0.0175175872 4.5148844719 1.4526960850 -0.0000001064 0.0000000004 -1.0000000000
  -2.0376806259 -1.0987175703 0.5451019406 -0.0000000014 -0.0000001751 -0.0000000857
  2.5079936981 0.1487963647 3.5524599552 -0.0000000275 0.0000000224 0.0000000745
  -1.0437761545 1.6534525156 2.9099991322 0.1070756093 -0.6305873990 0.0773755088
  -8.3812913895 0.0000031106 -0.0005169287 -0.0000000009 0.0000000070 0.0000001478
  -3.9075455666 0.0000003502 0.0005272925 0.0000004127 0.4755760729 0.5507004857
  -9.0582675934 0.0000019073 0.0000057220 0.0879722536 0.6391910315 -0.3472214043
  -2.4121794701 -0.4690756798 4.9682650566 0.2278126925 -0.6577841640 0.2557729781
  -1.4861798286 -0.0092623234 0.0023752451 -0.0182543602 0.0115489392 0.4644548595
  -0.9848706126 -0.0127546787 0.0012270808 0.3776761591 0.5943309069 0.4060391486
  0.0011334270 -0.0000026226 1.2383992672 -0.0000005420 0.0000000006 -0.0000000063
  -0.0485563576 -0.4682651162 4.8929109573 0.2945401371 -0.6570016146 0.2687330842
  -1.8586752415 -0.0117373466 0.0021868125 0.0182136148 -0.0123658814 0.5519973636
  -1.0443663597 -0.0123000145 0.0005887449 0.0186417326 -0.0115624182 0.5112480521
  -1.5055367947 -0.0000042375 0.0011813045 0.0000104983 0.7071008682 -0.0000123735
  -2.1457819939 -0.0792662203 2.5121200085 0.0795318931 -0.4358264208 0.3166429698
  -1.6636112928 -0.0215010941 -0.0294204950 -0.1323003471 -0.3390546739 0.1692510396
  -1.2707839012 0.0000319481 0.0011656284 -0.0000000975 0.7071065903 -0.0000001976
  -1.1617152691 -0.4687241018 6.2216243744 0.4803776741 -0.5438483357 0.4272537827
  -1.4778451920 -0.0012507439 0.0014458299 0.0268110111 -0.0268564839 0.2610144913
  -0.9766049385 -0.0043373108 0.0003553331 0.2762082219 0.6432810426 0.2330488116
  0.0011337996 -0.0000019073 1.2383985519 -0.0000005215 -0.0000000009 -0.0000000652
  1.0011156797 -0.4596694410 3.6390306950 0.1633753926 -0.7046147585 0.1056701615
  -1.8531141281 0.0007317066 0.0014585853 0.0384743549 -0.0210313108 0.2334484905
  -1.0480563641 -0.0147881508 0.0012017488 0.0431204289 0.0045896191 0.6846182346
  -1.5055346489 -0.0000056028 0.0011814833 0.0000105103 0.7071008682 -0.0000123937
  -0.4064104557 8.1463708878 8.3328666687 0.0000000743 -0.0000006263 -1.0000000000
  11.5590734482 -9.3187332153 15.7013168335 -0.6614364386 -0.2316952944 0.6537060738
}

frame 19 {
  -0.0000000251 -0.0000000089 0.0000013374 -0.7071068287 -0.0000000188 -0.0000000124
  -0.0175175872 4.5148844719 1.4526960850 -0.0000001064 0.0000000004 -1.0000000000
  -2.0376806259 -1.0987175703 0.5451019406 -0.0000000014 -0.0000001751 -0.0000000857
  2.5079936981 0.1487963647 3.5524599552 -0.0000000275 0.0000000224 0.0000000745
  -1.0437760353 1.6534525156 2.9099991322 0.0919475183 -0.6236754656 0.0919475183
  -8.3812913895 0.0000036731 -0.0005167350 0.0000000014 0.0000000036 0.0000001568
  -3.9075496197 0.0000009909 0.0005270541 0.0000004051 0.4231272340 0.5289086699
  -9.0582656860 -0.0000013113 0.0000083447 0.1307646483 0.6702280045 -0.3235573173
  -2.4121787548 -0.4690734744 4.9682669640 0.2278127223 -0.6577842236 0.2557729185
  -1.4861807823 -0.0092604160 0.0023763180 -0.0182543006 0.0115489010 0.4644549489
  -0.9848700166 -0.0127555132 0.0012280047 0.3776761889 0.5943309069 0.4060390890
  0.0011344403 -0.0000020266 1.2383975983 -0.0000005588 0.0000000638 -0.0000000289
  -0.0485565849 -0.4682635963 4.8929109573 0.2945401669 -0.6570017338 0.2687330544
  -1.8586747646 -0.0117373466 0.0021863878 0.0182136633 -0.0123659251 0.5519972444
  -1.0443670750 -0.0123009682 0.0005882531 0.0186417848 -0.0115625458 0.5112479925
  -1.5055371523 -0.0000058562 0.0011833310 0.0000105096 0.7071008682 -0.0000123795
  -2.1457803249 -0.0792678669 2.5121209621 0.0795319006 -0.4358265102 0.3166429698
  -1.6636128426 -0.0215007216 -0.0294201374 -0.1323003173 -0.3390547335 0.1692510098
  -1.2707836628 0.0000313520 0.0011672974 -0.0000000421 0.7071065903 -0.0000001778
  -1.1617157459 -0.4687233567 6.2216267586 0.4803776741 -0.5438483357 0.4272537827
  -1.4778456688 -0.0012516975 0.0014481544 0.0268109776 -0.0268564131 0.2610144913
  -0.9766025543 -0.0043349266 0.0003546178 0.2762081325 0.6432811022 0.2330487967
  0.0011335611 -0.0000023842 1.2383971214 -0.0000005141 -0.0000000009 -0.0000000522
  1.0011165142 -0.4596720040 3.6390306950 0.1633753777 -0.7046147585 0.1056701168
  -1.8531141281 0.0007317066 0.0014575720 0.0384743810 -0.0210312735 0.2334485650
  -1.0480554104 -0.0147867203 0.0012030602 0.0431203507 0.0045896429 0.6846181750
  -1.5055353642 -0.0000061989 0.0011810064 0.0000105077 0.7071008682 -0.0000123911
  -0.4064104557 8.1463708878 8.3328666687 0.0000000743 -0.0000006263 -1.0000000000
  11.2120428085 -10.2532491684 16.8074169159 -0.6769390702 -0.2143609673 0.6505261660
}

