MD5Version 10 // Parameters used during export: Reorient: False; Scale: 1.0
commandline ""

numFrames 20
numJoints 29
frameRate 24
numAnimatedComponents 174

hierarchy {
  "Origin" -1 63 0 //
  "RightShoulder_Dummy" 0 63 6 //
  "RightShoulder" 1 63 12 //
  "RightArm_Dummy" 2 63 18 //
  "RightArm" 3 63 24 //
  "RightArmRoll" 4 63 30 //
  "RightForeArm" 5 63 36 //
  "RightHand" 6 63 42 //
  "RightHandIndex1" 7 63 48 //
  "RightHandIndex2" 8 63 54 //
  "RightHandIndex3" 9 63 60 //
  "RightHandIndex4" 10 63 66 //
  "RightHandRing1" 7 63 72 //
  "RightHandRing2" 12 63 78 //
  "RightHandRing3" 13 63 84 //
  "RightHandRing4" 14 63 90 //
  "RightHandThumb1" 7 63 96 //
  "RightHandThumb2" 16 63 102 //
  "RightHandThumb3" 17 63 108 //
  "RightHandMiddle1" 7 63 114 //
  "RightHandMiddle2" 19 63 120 //
  "RightHandMiddle3" 20 63 126 //
  "RightHandMiddle4" 21 63 132 //
  "RightHandPinky1" 7 63 138 //
  "RightHandPinky2" 23 63 144 //
  "RightHandPinky3" 24 63 150 //
  "RightHandPinky4" 25 63 156 //
  "rightpad" 0 63 162 //
  "Melee" 0 63 168 //
}

bounds {
  ( -1.3818937540 -22.0332183838 -11.3636646271 ) ( 20.9481849670 -5.7942371368 8.1285114288 )
  ( -1.3818937540 -22.1100578308 -9.7932262421 ) ( 20.4756813049 -5.8407425880 8.1249332428 )
  ( -1.3818937540 -21.6711120605 -5.1674904823 ) ( 18.5661754608 -5.8002629280 8.1143808365 )
  ( -1.3818937540 -19.7260780334 -1.6889185905 ) ( 16.6570110321 -2.9752817154 12.5212535858 )
  ( -1.3818937540 -17.0746154785 -0.3059334755 ) ( 16.8126888275 0.4866476059 15.8385038376 )
  ( -1.3818937540 -14.6673069000 0.3517316580 ) ( 16.7418880463 2.2886972427 18.3573341370 )
  ( -1.3818937540 -12.1507530212 0.3517316580 ) ( 16.2928180695 3.5995702744 20.7212486267 )
  ( -1.3818937540 -10.7354240417 0.3517316580 ) ( 16.0355033875 6.2971954346 22.3003234863 )
  ( -1.3818937540 -10.6688604355 0.3517316580 ) ( 15.9281463623 7.9315643311 22.9257659912 )
  ( -1.3818937540 -10.6623477936 0.3517316580 ) ( 15.8799743652 8.4008598328 23.0434169769 )
  ( -1.3818937540 -10.6730918884 0.3517316580 ) ( 15.9235782623 7.8924407959 22.8760528564 )
  ( -1.3818937540 -10.7432880402 0.3517316580 ) ( 16.0190982819 6.1591911316 22.1280956268 )
  ( -1.3818937540 -12.3531370163 0.3517316580 ) ( 16.2729835510 3.4213540554 20.4450531006 )
  ( -1.3818937540 -14.8190917969 0.3517316580 ) ( 16.7260627747 2.1313397884 18.1202545166 )
  ( -1.3818937540 -17.0746154785 -0.3059334755 ) ( 16.8126888275 0.4866476059 15.8385038376 )
  ( -1.3818937540 -19.3018741608 -1.5639662743 ) ( 16.7017478943 -2.1673936844 13.2216243744 )
  ( -1.3818937540 -21.2176971436 -2.9584887028 ) ( 17.5092792511 -5.6353478432 9.3475131989 )
  ( -1.3818937540 -22.0129032135 -7.3742632866 ) ( 19.5348701477 -5.8750972748 8.1156291962 )
  ( -1.3818937540 -22.1019687653 -10.3851099014 ) ( 20.6669731140 -5.8264946938 8.1266880035 )
  ( -1.3818937540 -22.0332183838 -11.3636646271 ) ( 20.9481849670 -5.7942371368 8.1285114288 )
}

baseframe {
  ( 0.0000000000 0.0000000000 0.0000000000 ) ( -0.7071068287 -0.0000000000 -0.0000000000 )
  ( -0.0186605453 4.5159912109 1.4360997677 ) ( 0.0000280102 0.0000000016 -1.0000000000 )
  ( -2.0367097855 -1.0987091064 0.5481596589 ) ( 0.0000083447 0.0000000002 -0.0000279347 )
  ( 2.5132143497 0.1486579478 3.5487740040 ) ( -0.0000000000 -0.0000000000 -0.0000000000 )
  ( -1.0394111872 1.6535054445 2.9115278721 ) ( -0.0000195275 -0.7070870399 0.0000196410 )
  ( -8.3812847137 0.0000042481 0.0122467289 ) ( -0.0000000199 0.0000001187 -0.0000001589 )
  ( -3.9075412750 0.0000038572 0.0064787311 ) ( -0.0000000000 -0.0000002980 -0.0000000000 )
  ( -9.0582580566 0.0000030984 0.0137990611 ) ( -0.0000195275 0.7071262598 0.0000195286 )
  ( -2.4562108517 -0.4589804113 4.9792232513 ) ( 0.0000195005 -0.7071262598 -0.0000194994 )
  ( -1.4808013439 -0.0000023665 0.0022553869 ) ( 0.0001794795 -0.0001792844 0.1336774677 )
  ( -0.9798917770 -0.0000008648 0.0011381970 ) ( 0.0759933963 0.7029330134 0.0758283958 )
  ( 0.0011322881 -0.0000015907 1.2384006977 ) ( 0.0000000372 0.0000000035 0.0000000379 )
  ( -0.0923869684 -0.4588496685 4.9064965248 ) ( 0.0429671630 -0.7058849931 0.0428026877 )
  ( -1.8562849760 -0.0000013817 0.0025038412 ) ( 0.0001730661 -0.0001778290 0.1480355263 )
  ( -1.0458492041 -0.0000023897 0.0010347852 ) ( 0.0000889879 -0.0001018705 0.1002773046 )
  ( -1.5055357218 -0.0000026549 0.0011810474 ) ( 0.0000114150 0.7071009874 -0.0000114465 )
  ( -2.1882109642 -0.0633600801 2.5236830711 ) ( 0.0967313573 -0.4675333202 0.1567362249 )
  ( -1.6791052818 -0.0000239015 0.0014968514 ) ( 0.0000000014 -0.0000001944 -0.0000000186 )
  ( -1.2707813978 0.0000282526 0.0011651963 ) ( 0.0000001495 0.7071062922 -0.0000001442 )
  ( -1.2061427832 -0.4589325786 6.2291550636 ) ( 0.0000194864 -0.7071262598 -0.0000194854 )
  ( -1.4808018208 -0.0000020948 0.0022557802 ) ( 0.0001794997 -0.0001792818 0.1336775273 )
  ( -0.9798946381 -0.0000022332 0.0011384857 ) ( 0.0759933889 0.7029330134 0.0758283883 )
  ( 0.0011323692 -0.0000017502 1.2384005785 ) ( 0.0000000149 0.0000000035 0.0000000388 )
  ( 0.9575448036 -0.4587714672 3.6564393044 ) ( 0.0429671444 -0.7058849931 0.0428026579 )
  ( -1.8562816381 -0.0000014087 0.0025037199 ) ( 0.0001730594 -0.0001778291 0.1480355561 )
  ( -1.0458487272 -0.0000009410 0.0010346614 ) ( 0.0000889888 -0.0001018699 0.1002773046 )
  ( -1.5055395365 -0.0000035905 0.0011810367 ) ( 0.0000114884 0.7071009874 -0.0000113619 )
  ( -0.4129891396 8.1527709961 8.3131628036 ) ( 0.0000279307 0.0000000016 -1.0000000000 )
  ( 0.0000000000 0.0000000000 0.0000000000 ) ( 0.7071067095 0.0000000000 -0.7071068287 )
}

frame 0 {
  -0.0000000251 -0.0000000089 0.0000013374 -0.7071068287 -0.0000000188 -0.0000000124
  -0.0175175872 4.5148844719 1.4526960850 -0.0000001064 0.0000000004 -1.0000000000
  -2.0376806259 -1.0987175703 0.5451019406 -0.0000000014 -0.0000001751 -0.0000000857
  2.5079936981 0.1487963647 3.5524599552 -0.0000000275 0.0000000224 0.0000000745
  -1.0437760353 1.6534525156 2.9099991322 0.0919475183 -0.6236754656 0.0919475183
  -8.3812913895 0.0000036731 -0.0005167350 0.0000000014 0.0000000036 0.0000001568
  -3.9075496197 0.0000009909 0.0005270541 0.0000004051 0.4231272340 0.5289086699
  -9.0582656860 -0.0000013113 0.0000083447 0.1307646483 0.6702280045 -0.3235573173
  -2.4121787548 -0.4690734744 4.9682669640 0.2278127223 -0.6577842236 0.2557729185
  -1.4861807823 -0.0092604160 0.0023763180 -0.0182543006 0.0115489010 0.4644549489
  -0.9848700166 -0.0127555132 0.0012280047 0.3776761889 0.5943309069 0.4060390890
  0.0011344403 -0.0000020266 1.2383975983 -0.0000005588 0.0000000638 -0.0000000289
  -0.0485565849 -0.4682635963 4.8929109573 0.2945401669 -0.6570017338 0.2687330544
  -1.8586747646 -0.0117373466 0.0021863878 0.0182136633 -0.0123659251 0.5519972444
  -1.0443670750 -0.0123009682 0.0005882531 0.0186417848 -0.0115625458 0.5112479925
  -1.5055371523 -0.0000058562 0.0011833310 0.0000105096 0.7071008682 -0.0000123795
  -2.1457803249 -0.0792678669 2.5121209621 0.0795319006 -0.4358265102 0.3166429698
  -1.6636128426 -0.0215007216 -0.0294201374 -0.1323003173 -0.3390547335 0.1692510098
  -1.2707836628 0.0000313520 0.0011672974 -0.0000000421 0.7071065903 -0.0000001778
  -1.1617157459 -0.4687233567 6.2216267586 0.4803776741 -0.5438483357 0.4272537827
  -1.4778456688 -0.0012516975 0.0014481544 0.0268109776 -0.0268564131 0.2610144913
  -0.9766025543 -0.0043349266 0.0003546178 0.2762081325 0.6432811022 0.2330487967
  0.0011335611 -0.0000023842 1.2383971214 -0.0000005141 -0.0000000009 -0.0000000522
  1.0011165142 -0.4596720040 3.6390306950 0.1633753777 -0.7046147585 0.1056701168
  -1.8531141281 0.0007317066 0.0014575720 0.0384743810 -0.0210312735 0.2334485650
  -1.0480554104 -0.0147867203 0.0012030602 0.0431203507 0.0045896429 0.6846181750
  -1.5055353642 -0.0000061989 0.0011810064 0.0000105077 0.7071008682 -0.0000123911
  -0.4064104557 8.1463708878 8.3328666687 0.0000000743 -0.0000006263 -1.0000000000
  11.2120428085 -10.2532491684 16.8074169159 -0.6769390702 -0.2143609673 0.6505261660
}

frame 1 {
  -0.0000000251 -0.0000000089 0.0000013374 -0.7071068287 -0.0000000188 -0.0000000124
  -0.0175175872 4.5148844719 1.4526960850 -0.0000001064 0.0000000004 -1.0000000000
  -2.0376806259 -1.0987175703 0.5451019406 -0.0000000014 -0.0000001751 -0.0000000857
  2.5079936981 0.1487963647 3.5524599552 -0.0000000275 0.0000000224 0.0000000745
  -1.0437760353 1.6534525156 2.9099991322 0.0700038597 -0.6261066794 0.0750227720
  -8.3812932968 0.0000024214 -0.0005163569 0.0000000002 0.0000000011 0.0000001374
  -3.9075467587 0.0000014156 0.0005262345 0.0000005294 0.5028809905 0.5391807556
  -9.0582647324 0.0000008345 0.0000073910 0.0777826980 0.6505619884 -0.3608779311
  -2.4121806622 -0.4690746367 4.9682645798 0.2278126776 -0.6577841043 0.2557729483
  -1.4861791134 -0.0092599392 0.0023764372 -0.0182542726 0.0115489224 0.4644548297
  -0.9848685265 -0.0127528906 0.0012274384 0.3776761889 0.5943309069 0.4060392082
  0.0011333227 -0.0000044107 1.2384028435 -0.0000005551 0.0000000349 -0.0000000130
  -0.0485567600 -0.4682642817 4.8929095268 0.2945401073 -0.6570016146 0.2687331140
  -1.8586759567 -0.0117371082 0.0021880865 0.0182136633 -0.0123658767 0.5519973040
  -1.0443686247 -0.0123028755 0.0005884171 0.0186417494 -0.0115624247 0.5112479329
  -1.5055352449 -0.0000040233 0.0011824965 0.0000105129 0.7071008682 -0.0000123898
  -2.1457819939 -0.0792685747 2.5121178627 0.0795318782 -0.4358264208 0.3166429698
  -1.6636111736 -0.0214997530 -0.0294205025 -0.1323003471 -0.3390546739 0.1692510396
  -1.2707844973 0.0000344515 0.0011668205 -0.0000000738 0.7071065903 -0.0000001870
  -1.1617169380 -0.4687241316 6.2216238976 0.4803776443 -0.5438482165 0.4272538126
  -1.4778451920 -0.0012509823 0.0014461875 0.0268109795 -0.0268565062 0.2610144317
  -0.9766061306 -0.0043358803 0.0003563166 0.2762081921 0.6432811022 0.2330487072
  0.0011334419 -0.0000023842 1.2383985519 -0.0000005178 -0.0000000093 -0.0000000484
  1.0011153221 -0.4596723318 3.6390295029 0.1633753479 -0.7046147585 0.1056701690
  -1.8531146049 0.0007336140 0.0014586151 0.0384744033 -0.0210312475 0.2334485948
  -1.0480587482 -0.0147852898 0.0012023151 0.0431203581 0.0045896852 0.6846181750
  -1.5055356026 -0.0000061393 0.0011819899 0.0000105248 0.7071008682 -0.0000123753
  -0.4064104557 8.1463708878 8.3328666687 0.0000000743 -0.0000006263 -1.0000000000
  11.7583456039 -8.7273826599 15.9420042038 -0.6346201897 -0.2371503860 0.6630194783
}

frame 2 {
  -0.0000000251 -0.0000000089 0.0000013374 -0.7071068287 -0.0000000188 -0.0000000124
  -0.0175175872 4.5148844719 1.4526960850 -0.0000001064 0.0000000004 -1.0000000000
  -2.0376806259 -1.0987175703 0.5451019406 -0.0000000014 -0.0000001751 -0.0000000857
  2.5079936981 0.1487963647 3.5524599552 -0.0000000275 0.0000000224 0.0000000745
  -1.0437760353 1.6534525156 2.9099991322 0.0462400392 -0.6146100760 0.0598514192
  -8.3812904358 0.0000032336 -0.0005167304 -0.0000000011 -0.0000000025 0.0000001360
  -3.9075446129 0.0000006706 0.0005263289 0.0000003669 0.7448652983 0.4078927934
  -9.0582666397 0.0000016689 0.0000075102 0.0214633550 0.5082857013 -0.4277746975
  -2.4121804237 -0.4690756500 4.9682669640 0.2278127223 -0.6577842236 0.2557729483
  -1.4861792326 -0.0092606191 0.0023761988 -0.0182543304 0.0115489271 0.4644548595
  -0.9848682880 -0.0127537847 0.0012264252 0.3776761889 0.5943308473 0.4060391486
  0.0011336803 -0.0000026822 1.2384001017 -0.0000005476 0.0000000354 -0.0000000210
  -0.0485570431 -0.4682637453 4.8929123878 0.2945401371 -0.6570016146 0.2687330842
  -1.8586758375 -0.0117355585 0.0021874905 0.0182137378 -0.0123659028 0.5519973040
  -1.0443677902 -0.0123023987 0.0005877018 0.0186418518 -0.0115624787 0.5112480521
  -1.5055363178 -0.0000070333 0.0011816025 0.0000105044 0.7071008682 -0.0000123832
  -2.1457824707 -0.0792681798 2.5121221542 0.0795318931 -0.4358264208 0.3166429698
  -1.6636104584 -0.0215011984 -0.0294206738 -0.1323002875 -0.3390546441 0.1692510247
  -1.2707834244 0.0000318289 0.0011664033 -0.0000000843 0.7071065903 -0.0000001660
  -1.1617162228 -0.4687245488 6.2216262817 0.4803776741 -0.5438483357 0.4272538424
  -1.4778468609 -0.0012531281 0.0014454722 0.0268109795 -0.0268564560 0.2610144615
  -0.9766047001 -0.0043351650 0.0003558099 0.2762081325 0.6432810426 0.2330486327
  0.0011330247 -0.0000014305 1.2383997440 -0.0000005253 -0.0000000186 -0.0000000615
  1.0011153221 -0.4596717954 3.6390323639 0.1633753628 -0.7046147585 0.1056701615
  -1.8531134129 0.0007346720 0.0014585257 0.0384743810 -0.0210313592 0.2334485650
  -1.0480570793 -0.0147879124 0.0012010317 0.0431203656 0.0045895604 0.6846182346
  -1.5055345297 -0.0000059754 0.0011821985 0.0000105366 0.7071008682 -0.0000123805
  -0.4064104557 8.1463708878 8.3328666687 0.0000000743 -0.0000006263 -1.0000000000
  13.1279754639 -4.2886123657 13.1577024460 -0.5068349838 -0.2975682616 0.6801508069
}

frame 3 {
  -0.0000000251 -0.0000000089 0.0000013374 -0.7071068287 -0.0000000188 -0.0000000124
  -0.0175175872 4.5148844719 1.4526960850 -0.0000001064 0.0000000004 -1.0000000000
  -2.0376806259 -1.0987175703 0.5451019406 -0.0000000014 -0.0000001751 -0.0000000857
  2.5079936981 0.1487963647 3.5524599552 -0.0000000275 0.0000000224 0.0000000745
  -1.0437761545 1.6534525156 2.9099991322 0.0646898896 -0.4993325770 0.0706910565
  -8.3812904358 0.0000033379 -0.0005162284 0.0000000000 -0.0000000008 0.0000001285
  -3.9075472355 -0.0000001490 0.0005258955 0.0000000707 0.9005846381 -0.0089502949
  -9.0582685471 0.0000007749 0.0000067353 0.1796094328 0.2300869972 -0.4030715525
  -2.4121792316 -0.4690771103 4.9682674408 0.2278127074 -0.6577842832 0.2557729185
  -1.4861812592 -0.0092608929 0.0023761392 -0.0182543267 0.0115489522 0.4644548893
  -0.9848686457 -0.0127546191 0.0012267828 0.3776761591 0.5943309069 0.4060390890
  0.0011333823 -0.0000026226 1.2384012938 -0.0000005490 0.0000000256 0.0000000024
  -0.0485559702 -0.4682661295 4.8929119110 0.2945401371 -0.6570017338 0.2687330842
  -1.8586773872 -0.0117343962 0.0021870732 0.0182136893 -0.0123659251 0.5519973040
  -1.0443702936 -0.0123004913 0.0005885363 0.0186417960 -0.0115624871 0.5112479329
  -1.5055375099 -0.0000057817 0.0011814833 0.0000105109 0.7071008682 -0.0000123400
  -2.1457805634 -0.0792696476 2.5121216774 0.0795319304 -0.4358264208 0.3166429400
  -1.6636114120 -0.0215017796 -0.0294201374 -0.1323002130 -0.3390546739 0.1692509800
  -1.2707831860 0.0000327528 0.0011663437 -0.0000000731 0.7071065903 -0.0000002068
  -1.1617152691 -0.4687249660 6.2216272354 0.4803776145 -0.5438483953 0.4272538126
  -1.4778435230 -0.0012519062 0.0014463663 0.0268109795 -0.0268564671 0.2610144317
  -0.9766061306 -0.0043340325 0.0003557801 0.2762081921 0.6432811022 0.2330486476
  0.0011336207 -0.0000019073 1.2383984327 -0.0000005262 -0.0000000182 -0.0000000284
  1.0011165142 -0.4596728683 3.6390323639 0.1633754373 -0.7046147585 0.1056701392
  -1.8531141281 0.0007332861 0.0014581680 0.0384743661 -0.0210313015 0.2334486693
  -1.0480560064 -0.0147856809 0.0012020469 0.0431203097 0.0045897025 0.6846182942
  -1.5055350065 -0.0000044405 0.0011820197 0.0000104780 0.7071008682 -0.0000124084
  -0.4064104557 8.1463708878 8.3328666687 0.0000000743 -0.0000006263 -1.0000000000
  14.3258018494 0.9978486896 9.2100334167 -0.3591902256 -0.3625982702 0.6726211309
}

frame 4 {
  -0.0000000251 -0.0000000089 0.0000013374 -0.7071068287 -0.0000000188 -0.0000000124
  -0.0175175872 4.5148844719 1.4526960850 -0.0000001064 0.0000000004 -1.0000000000
  -2.0376806259 -1.0987175703 0.5451019406 -0.0000000014 -0.0000001751 -0.0000000857
  2.5079936981 0.1487963647 3.5524599552 -0.0000000275 0.0000000224 0.0000000745
  -1.0437763929 1.6534525156 2.9099991322 0.0674118251 -0.3418162465 0.0237910654
  -8.3812913895 0.0000031963 -0.0005165040 -0.0000000009 0.0000000084 0.0000001386
  -3.9075479507 0.0000002282 0.0005275011 -0.0000002918 0.8592258692 -0.2248175889
  -9.0582656860 0.0000007153 0.0000065565 0.3128606379 0.0907621235 -0.3587801754
  -2.4121799469 -0.4690732956 4.9682645798 0.2278126925 -0.6577842236 0.2557729781
  -1.4861811399 -0.0092600584 0.0023764372 -0.0182543583 0.0115489392 0.4644548595
  -0.9848687649 -0.0127525404 0.0012279153 0.3776761889 0.5943308473 0.4060390592
  0.0011327267 -0.0000022352 1.2384009361 -0.0000005600 0.0000000177 -0.0000000169
  -0.0485571623 -0.4682626724 4.8929109573 0.2945401371 -0.6570016742 0.2687331140
  -1.8586772680 -0.0117367506 0.0021884143 0.0182136502 -0.0123658497 0.5519973040
  -1.0443682671 -0.0123004913 0.0005875826 0.0186417773 -0.0115624219 0.5112479329
  -1.5055363178 -0.0000057220 0.0011818111 0.0000104951 0.7071008682 -0.0000123486
  -2.1457829475 -0.0792660713 2.5121190548 0.0795318857 -0.4358264208 0.3166430295
  -1.6636111736 -0.0215017796 -0.0294187069 -0.1323002577 -0.3390546441 0.1692509651
  -1.2707836628 0.0000323653 0.0011657476 -0.0000000711 0.7071065903 -0.0000001765
  -1.1617163420 -0.4687225819 6.2216248512 0.4803777337 -0.5438482761 0.4272538126
  -1.4778439999 -0.0012533218 0.0014462471 0.0268109795 -0.0268564783 0.2610145509
  -0.9766047001 -0.0043351650 0.0003556013 0.2762081027 0.6432811022 0.2330488116
  0.0011330843 -0.0000019073 1.2383997440 -0.0000005234 -0.0000000242 -0.0000000447
  1.0011149645 -0.4596705437 3.6390306950 0.1633753628 -0.7046147585 0.1056701988
  -1.8531156778 0.0007357597 0.0014582798 0.0384744033 -0.0210313257 0.2334485650
  -1.0480580330 -0.0147867203 0.0012007654 0.0431203656 0.0045896629 0.6846182346
  -1.5055370331 -0.0000051260 0.0011816621 0.0000105287 0.7071008682 -0.0000123634
  -0.4064104557 8.1463708878 8.3328666687 0.0000000743 -0.0000006263 -1.0000000000
  14.8971185684 4.4489660263 5.8379597664 -0.2861911058 -0.4158309996 0.6587700844
}

frame 5 {
  -0.0000000251 -0.0000000089 0.0000013374 -0.7071068287 -0.0000000188 -0.0000000124
  -0.0175175872 4.5148844719 1.4526960850 -0.0000001064 0.0000000004 -1.0000000000
  -2.0376806259 -1.0987175703 0.5451019406 -0.0000000014 -0.0000001751 -0.0000000857
  2.5079936981 0.1487963647 3.5524599552 -0.0000000275 0.0000000224 0.0000000745
  -1.0437766314 1.6534522772 2.9099981785 0.1159954891 -0.2103914320 -0.0266434737
  -8.3812904358 0.0000030398 -0.0005168319 -0.0000000028 0.0000000113 0.0000001429
  -3.9075441360 0.0000011921 0.0005257130 -0.0000002828 0.8267396092 -0.1971739382
  -9.0582647324 0.0000000000 0.0000077486 0.3277311623 0.0819191933 -0.3733828962
  -2.4121789932 -0.4690730572 4.9682660103 0.2278128117 -0.6577842236 0.2557728887
  -1.4861797094 -0.0092587769 0.0023773611 -0.0182543602 0.0115488851 0.4644548893
  -0.9848695993 -0.0127553046 0.0012255907 0.3776761889 0.5943307877 0.4060391188
  0.0011327863 -0.0000017881 1.2383991480 -0.0000005588 0.0000000149 -0.0000000130
  -0.0485568047 -0.4682638645 4.8929123878 0.2945401967 -0.6570017338 0.2687330246
  -1.8586769104 -0.0117355883 0.0021881461 0.0182136949 -0.0123659335 0.5519973040
  -1.0443677902 -0.0123025775 0.0005879700 0.0186418500 -0.0115624620 0.5112479329
  -1.5055376291 -0.0000052452 0.0011820793 0.0000104869 0.7071008682 -0.0000123766
  -2.1457810402 -0.0792665482 2.5121207237 0.0795319602 -0.4358265102 0.3166429996
  -1.6636111736 -0.0215017200 -0.0294211209 -0.1323003471 -0.3390545845 0.1692509651
  -1.2707831860 0.0000320822 0.0011661649 -0.0000000500 0.7071065903 -0.0000001396
  -1.1617155075 -0.4687219858 6.2216258049 0.4803776741 -0.5438483953 0.4272538722
  -1.4778451920 -0.0012532473 0.0014473200 0.0268109608 -0.0268564671 0.2610144913
  -0.9766049385 -0.0043366253 0.0003544092 0.2762081921 0.6432811618 0.2330487669
  0.0011323243 -0.0000018775 1.2383975983 -0.0000005243 -0.0000000347 -0.0000000792
  1.0011163950 -0.4596700668 3.6390311718 0.1633754522 -0.7046147585 0.1056700796
  -1.8531157970 0.0007324219 0.0014587641 0.0384743810 -0.0210313387 0.2334485948
  -1.0480566025 -0.0147870779 0.0012018681 0.0431203656 0.0045895763 0.6846181750
  -1.5055370331 -0.0000051260 0.0011815429 0.0000104923 0.7071008682 -0.0000124000
  -0.4064104557 8.1463708878 8.3328666687 0.0000000743 -0.0000006263 -1.0000000000
  15.0825948715 6.4707255363 2.6148078442 -0.2602638900 -0.4886484146 0.6516768336
}

frame 6 {
  -0.0000000251 -0.0000000089 0.0000013374 -0.7071068287 -0.0000000188 -0.0000000124
  -0.0175175872 4.5148844719 1.4526960850 -0.0000001064 0.0000000004 -1.0000000000
  -2.0376806259 -1.0987175703 0.5451019406 -0.0000000014 -0.0000001751 -0.0000000857
  2.5079936981 0.1487963647 3.5524599552 -0.0000000275 0.0000000224 0.0000000745
  -1.0437765121 1.6534518003 2.9099972248 0.2517864406 -0.0707594976 -0.0492375009
  -8.3812904358 0.0000025034 -0.0005165339 -0.0000000063 0.0000000005 0.0000001388
  -3.9075462818 0.0000017881 0.0005259514 0.0000000375 0.7832956314 -0.0019914361
  -9.0582656860 0.0000001192 0.0000056028 0.2650842667 0.1930427551 -0.4058151245
  -2.4121799469 -0.4690733552 4.9682660103 0.2278127223 -0.6577842236 0.2557729185
  -1.4861795902 -0.0092604458 0.0023780465 -0.0182543006 0.0115488730 0.4644548297
  -0.9848684072 -0.0127544403 0.0012267232 0.3776762486 0.5943309069 0.4060390890
  0.0011329353 -0.0000035763 1.2383995056 -0.0000005495 0.0000000275 -0.0000000149
  -0.0485551916 -0.4682631493 4.8929123878 0.2945401967 -0.6570016742 0.2687331140
  -1.8586759567 -0.0117345974 0.0021863580 0.0182136539 -0.0123658553 0.5519973040
  -1.0443696976 -0.0123026371 0.0005882382 0.0186417606 -0.0115624825 0.5112479925
  -1.5055348873 -0.0000039339 0.0011818111 0.0000104813 0.7071008682 -0.0000123707
  -2.1457808018 -0.0792663395 2.5121212006 0.0795319453 -0.4358264208 0.3166429698
  -1.6636109352 -0.0214999020 -0.0294204950 -0.1323003173 -0.3390546441 0.1692509353
  -1.2707840204 0.0000324100 0.0011667013 -0.0000000698 0.7071065903 -0.0000001791
  -1.1617146730 -0.4687224627 6.2216253281 0.4803776741 -0.5438483357 0.4272538126
  -1.4778447151 -0.0012518167 0.0014465451 0.0268109217 -0.0268564988 0.2610144317
  -0.9766044617 -0.0043346286 0.0003567934 0.2762081921 0.6432811022 0.2330487967
  0.0011345744 -0.0000028610 1.2383989096 -0.0000005225 -0.0000000261 -0.0000000419
  1.0011165142 -0.4596702158 3.6390318871 0.1633754373 -0.7046147585 0.1056701317
  -1.8531144857 0.0007353127 0.0014585480 0.0384744629 -0.0210313238 0.2334485054
  -1.0480577946 -0.0147880837 0.0012006462 0.0431204960 0.0045896405 0.6846182346
  -1.5055373907 -0.0000051260 0.0011824667 0.0000104983 0.7071008682 -0.0000124011
  -0.4064104557 8.1463708878 8.3328666687 0.0000000743 -0.0000006263 -1.0000000000
  14.8690786362 8.1821832657 -1.1862915754 -0.2291193902 -0.5957061648 0.6401944757
}

frame 7 {
  -0.0000000251 -0.0000000089 0.0000013374 -0.7071068287 -0.0000000188 -0.0000000124
  -0.0175175872 4.5148844719 1.4526960850 -0.0000001064 0.0000000004 -1.0000000000
  -2.0376806259 -1.0987175703 0.5451019406 -0.0000000014 -0.0000001751 -0.0000000857
  2.5079936981 0.1487963647 3.5524599552 -0.0000000275 0.0000000224 0.0000000745
  -1.0437760353 1.6534508467 2.9099962711 0.4111052752 0.0444820151 -0.0282554403
  -8.3812913895 0.0000033826 -0.0005164742 0.0000000036 -0.0000000000 0.0000001383
  -3.9075462818 0.0000000447 0.0005260706 0.0000002501 0.6650055051 0.2156314552
  -9.0582656860 0.0000014780 0.0000077127 0.1933011115 0.3649542034 -0.3995290101
  -2.4121811390 -0.4690734148 4.9682655334 0.2278127670 -0.6577842832 0.2557729185
  -1.4861800671 -0.0092594475 0.0023770332 -0.0182543062 0.0115489531 0.4644549787
  -0.9848718643 -0.0127532482 0.0012267828 0.3776762784 0.5943309069 0.4060391188
  0.0011336207 -0.0000017732 1.2383971214 -0.0000005432 0.0000000261 -0.0000000084
  -0.0485571027 -0.4682626724 4.8929109573 0.2945401967 -0.6570017338 0.2687330842
  -1.8586759567 -0.0117360950 0.0021887422 0.0182136986 -0.0123658581 0.5519973040
  -1.0443699360 -0.0123034716 0.0005898476 0.0186418090 -0.0115624480 0.5112479925
  -1.5055351257 -0.0000053644 0.0011822656 0.0000104862 0.7071008682 -0.0000123822
  -2.1457817554 -0.0792669058 2.5121207237 0.0795319378 -0.4358265102 0.3166429698
  -1.6636114120 -0.0215009451 -0.0294221640 -0.1323003769 -0.3390546441 0.1692509800
  -1.2707842588 0.0000299811 0.0011651516 -0.0000000514 0.7071065903 -0.0000001758
  -1.1617162228 -0.4687217474 6.2216238976 0.4803776741 -0.5438483357 0.4272537827
  -1.4778437614 -0.0012512207 0.0014474988 0.0268110167 -0.0268564504 0.2610144317
  -0.9766049385 -0.0043352246 0.0003557056 0.2762081027 0.6432811618 0.2330487520
  0.0011342019 -0.0000009537 1.2383997440 -0.0000005355 -0.0000000186 -0.0000000466
  1.0011146069 -0.4596697092 3.6390304565 0.1633754373 -0.7046147585 0.1056701392
  -1.8531150818 0.0007331371 0.0014577508 0.0384743661 -0.0210313294 0.2334485203
  -1.0480571985 -0.0147848129 0.0012027323 0.0431203581 0.0045895819 0.6846182346
  -1.5055369139 -0.0000048056 0.0011818036 0.0000105084 0.7071008682 -0.0000123905
  -0.4064104557 8.1463708878 8.3328666687 0.0000000743 -0.0000006263 -1.0000000000
  14.3141336441 9.5089349747 -4.4724235535 -0.1970230043 -0.6951405406 0.6173617840
}

frame 8 {
  -0.0000000251 -0.0000000089 0.0000013374 -0.7071068287 -0.0000000188 -0.0000000124
  -0.0175175872 4.5148844719 1.4526960850 -0.0000001064 0.0000000004 -1.0000000000
  -2.0376806259 -1.0987175703 0.5451019406 -0.0000000014 -0.0000001751 -0.0000000857
  2.5079936981 0.1487963647 3.5524599552 -0.0000000275 0.0000000224 0.0000000745
  -1.0437756777 1.6534503698 2.9099962711 0.5126512647 0.1099766642 0.0027498186
  -8.3812913895 0.0000032187 -0.0005166531 0.0000000014 -0.0000000056 0.0000001332
  -3.9075477123 0.0000011921 0.0005266070 0.0000003067 0.5370770097 0.3277213275
  -9.0582656860 -0.0000002384 0.0000075996 0.1623417884 0.4906808436 -0.3599631488
  -2.4121799469 -0.4690734148 4.9682664871 0.2278126925 -0.6577842236 0.2557729185
  -1.4861798286 -0.0092599392 0.0023753643 -0.0182543565 0.0115489187 0.4644548595
  -0.9848692417 -0.0127544403 0.0012276173 0.3776762187 0.5943309665 0.4060391188
  0.0011324883 -0.0000015497 1.2383978367 -0.0000005765 0.0000000373 -0.0000000186
  -0.0485564470 -0.4682628214 4.8929109573 0.2945401371 -0.6570017338 0.2687330544
  -1.8586757183 -0.0117354393 0.0021879673 0.0182137191 -0.0123658879 0.5519973040
  -1.0443687439 -0.0123011470 0.0005888939 0.0186418537 -0.0115624825 0.5112480521
  -1.5055365562 -0.0000053048 0.0011819601 0.0000105011 0.7071008682 -0.0000123898
  -2.1457827091 -0.0792661011 2.5121204853 0.0795319155 -0.4358265102 0.3166429996
  -1.6636116505 -0.0215011835 -0.0294208527 -0.1323003620 -0.3390545845 0.1692510098
  -1.2707841396 0.0000334680 0.0011676326 -0.0000000325 0.7071065903 -0.0000001815
  -1.1617152691 -0.4687215984 6.2216253281 0.4803776741 -0.5438483357 0.4272537827
  -1.4778451920 -0.0012528896 0.0014470816 0.0268110093 -0.0268564448 0.2610144317
  -0.9766060114 -0.0043354034 0.0003553629 0.2762079835 0.6432812214 0.2330487221
  0.0011333823 -0.0000014193 1.2383983135 -0.0000005192 -0.0000000335 -0.0000000533
  1.0011156797 -0.4596700668 3.6390311718 0.1633754224 -0.7046147585 0.1056701243
  -1.8531155586 0.0007356405 0.0014594793 0.0384744033 -0.0210312977 0.2334485501
  -1.0480576754 -0.0147857666 0.0012018979 0.0431203693 0.0045896876 0.6846181750
  -1.5055351257 -0.0000026226 0.0011811852 0.0000105035 0.7071008682 -0.0000124036
  -0.4064104557 8.1463708878 8.3328666687 0.0000000743 -0.0000006263 -1.0000000000
  13.8405714035 10.2781200409 -6.3950734138 -0.1745899618 -0.7525215149 0.5943056345
}

frame 9 {
  -0.0000000251 -0.0000000089 0.0000013374 -0.7071068287 -0.0000000188 -0.0000000124
  -0.0175175872 4.5148844719 1.4526960850 -0.0000001064 0.0000000004 -1.0000000000
  -2.0376806259 -1.0987175703 0.5451019406 -0.0000000014 -0.0000001751 -0.0000000857
  2.5079936981 0.1487963647 3.5524599552 -0.0000000275 0.0000000224 0.0000000745
  -1.0437755585 1.6534501314 2.9099962711 0.5434070826 0.1293335408 0.0151637066
  -8.3812904358 0.0000047684 -0.0005172491 0.0000000019 -0.0000000000 0.0000001378
  -3.9075450897 0.0000009537 0.0005260706 0.0000001962 0.4887316525 0.3542515934
  -9.0582656860 0.0000007153 0.0000073314 0.1569839716 0.5306879282 -0.3402707279
  -2.4121794701 -0.4690734148 4.9682650566 0.2278126776 -0.6577841640 0.2557729483
  -1.4861798286 -0.0092598200 0.0023770332 -0.0182543583 0.0115489308 0.4644548595
  -0.9848688841 -0.0127539635 0.0012269020 0.3776760995 0.5943308473 0.4060391784
  0.0011332035 -0.0000016689 1.2384004593 -0.0000005495 0.0000000466 -0.0000000149
  -0.0485556126 -0.4682651758 4.8929109573 0.2945401073 -0.6570016742 0.2687330842
  -1.8586773872 -0.0117366314 0.0021873713 0.0182136483 -0.0123658618 0.5519973040
  -1.0443679094 -0.0123033617 0.0005885363 0.0186418146 -0.0115624685 0.5112479329
  -1.5055356026 -0.0000056773 0.0011838675 0.0000104955 0.7071008682 -0.0000123766
  -2.1457812786 -0.0792675540 2.5121200085 0.0795318633 -0.4358264208 0.3166429400
  -1.6636087894 -0.0215018988 -0.0294198990 -0.1323003024 -0.3390546441 0.1692509204
  -1.2707843781 0.0000324249 0.0011663437 -0.0000000810 0.7071065903 -0.0000001704
  -1.1617145538 -0.4687242210 6.2216253281 0.4803776741 -0.5438483357 0.4272538126
  -1.4778443575 -0.0012528896 0.0014456511 0.0268109478 -0.0268564932 0.2610144317
  -0.9766072035 -0.0043351650 0.0003551245 0.2762081027 0.6432811618 0.2330488414
  0.0011327267 -0.0000014305 1.2383999825 -0.0000005306 -0.0000000279 -0.0000000540
  1.0011166334 -0.4596715271 3.6390309334 0.1633753628 -0.7046147585 0.1056701466
  -1.8531144857 0.0007337034 0.0014586449 0.0384744294 -0.0210313667 0.2334486097
  -1.0480575562 -0.0147857666 0.0012015477 0.0431204885 0.0045896177 0.6846182346
  -1.5055375099 -0.0000053644 0.0011804700 0.0000105295 0.7071008682 -0.0000123828
  -0.4064104557 8.1463708878 8.3328666687 0.0000000743 -0.0000006263 -1.0000000000
  13.6796503067 10.4994125366 -6.9696254730 -0.1672690213 -0.7691227198 0.5855233073
}

frame 10 {
  -0.0000000251 -0.0000000089 0.0000013374 -0.7071068287 -0.0000000188 -0.0000000124
  -0.0175175872 4.5148844719 1.4526960850 -0.0000001064 0.0000000004 -1.0000000000
  -2.0376806259 -1.0987175703 0.5451019406 -0.0000000014 -0.0000001751 -0.0000000857
  2.5079936981 0.1487963647 3.5524599552 -0.0000000275 0.0000000224 0.0000000745
  -1.0437756777 1.6534503698 2.9099962711 0.5123822689 0.1075251028 0.0029935716
  -8.3812904358 0.0000035763 -0.0005173087 -0.0000000093 -0.0000000000 0.0000001378
  -3.9075458050 -0.0000003576 0.0005270243 0.0000002500 0.5393099189 0.3294690549
  -9.0582647324 -0.0000011921 0.0000071228 0.1609494537 0.4900901318 -0.3608109355
  -2.4121794701 -0.4690743685 4.9682674408 0.2278126776 -0.6577842236 0.2557729781
  -1.4861800671 -0.0092604160 0.0023770332 -0.0182543546 0.0115489354 0.4644547999
  -0.9848685265 -0.0127549171 0.0012269020 0.3776761293 0.5943308473 0.4060390890
  0.0011346340 -0.0000028610 1.2384002209 -0.0000005690 0.0000000410 -0.0000000224
  -0.0485563278 -0.4682639539 4.8929119110 0.2945401073 -0.6570016146 0.2687330842
  -1.8586757183 -0.0117361546 0.0021864176 0.0182136633 -0.0123658990 0.5519973040
  -1.0443675518 -0.0123016238 0.0005900860 0.0186418071 -0.0115624731 0.5112479329
  -1.5055365562 -0.0000031590 0.0011827946 0.0000105040 0.7071008682 -0.0000123641
  -2.1457815170 -0.0792684257 2.5121219158 0.0795319080 -0.4358264208 0.3166430295
  -1.6636102200 -0.0215004086 -0.0294210911 -0.1323003173 -0.3390546143 0.1692509353
  -1.2707839012 0.0000334680 0.0011659227 -0.0000000887 0.7071065903 -0.0000002076
  -1.1617159843 -0.4687235355 6.2216267586 0.4803776443 -0.5438482165 0.4272538126
  -1.4778451920 -0.0012512207 0.0014467239 0.0268109962 -0.0268564429 0.2610145211
  -0.9766042233 -0.0043355227 0.0003565550 0.2762082219 0.6432811618 0.2330488414
  0.0011336207 -0.0000023060 1.2383992672 -0.0000005248 -0.0000000317 -0.0000000511
  1.0011166334 -0.4596720338 3.6390328407 0.1633753479 -0.7046147585 0.1056701615
  -1.8531141281 0.0007343292 0.0014578104 0.0384744108 -0.0210313462 0.2334485948
  -1.0480586290 -0.0147852898 0.0012013912 0.0431204326 0.0045895791 0.6846181750
  -1.5055353642 -0.0000056028 0.0011813045 0.0000105125 0.7071008682 -0.0000124091
  -0.4064104557 8.1463708878 8.3328666687 0.0000000743 -0.0000006263 -1.0000000000
  13.8370141983 10.2253370285 -6.3538579941 -0.1749028862 -0.7521456480 0.5945723653
}

frame 11 {
  -0.0000000251 -0.0000000089 0.0000013374 -0.7071068287 -0.0000000188 -0.0000000124
  -0.0175175872 4.5148844719 1.4526960850 -0.0000001064 0.0000000004 -1.0000000000
  -2.0376806259 -1.0987175703 0.5451019406 -0.0000000014 -0.0000001751 -0.0000000857
  2.5079936981 0.1487963647 3.5524599552 -0.0000000275 0.0000000224 0.0000000745
  -1.0437761545 1.6534510851 2.9099962711 0.4100379944 0.0365458168 -0.0265154652
  -8.3812913895 0.0000021160 -0.0005170703 -0.0000000289 -0.0000000023 0.0000001383
  -3.9075462818 0.0000006706 0.0005266666 0.0000001580 0.6717521548 0.2194640487
  -9.0582666397 -0.0000006929 0.0000072625 0.1891240776 0.3632553220 -0.4014606476
  -2.4121811390 -0.4690740108 4.9682650566 0.2278127223 -0.6577841640 0.2557729185
  -1.4861795902 -0.0092586577 0.0023775101 -0.0182543807 0.0115489280 0.4644549489
  -0.9848701954 -0.0127556324 0.0012269020 0.3776760995 0.5943309665 0.4060391784
  0.0011326671 -0.0000028163 1.2384004593 -0.0000005638 0.0000000335 -0.0000000130
  -0.0485578179 -0.4682642221 4.8929114342 0.2945401371 -0.6570017338 0.2687330842
  -1.8586761951 -0.0117338300 0.0021890104 0.0182136986 -0.0123658674 0.5519973040
  -1.0443683863 -0.0123023391 0.0005873740 0.0186418295 -0.0115624927 0.5112479329
  -1.5055375099 -0.0000060797 0.0011827573 0.0000105221 0.7071008682 -0.0000123690
  -2.1457831860 -0.0792682767 2.5121204853 0.0795318857 -0.4358264804 0.3166429698
  -1.6636109352 -0.0214982629 -0.0294208527 -0.1323003471 -0.3390546739 0.1692510396
  -1.2707843781 0.0000318289 0.0011654496 -0.0000001146 0.7071065903 -0.0000001877
  -1.1617164612 -0.4687228203 6.2216243744 0.4803776741 -0.5438483357 0.4272537827
  -1.4778459072 -0.0012509823 0.0014469028 0.0268109683 -0.0268564969 0.2610144317
  -0.9766050577 -0.0043356419 0.0003549680 0.2762081921 0.6432810426 0.2330488116
  0.0011321306 -0.0000021458 1.2383980751 -0.0000004987 -0.0000000305 -0.0000000438
  1.0011153221 -0.4596710205 3.6390311718 0.1633754224 -0.7046147585 0.1056701615
  -1.8531144857 0.0007367134 0.0014568269 0.0384744033 -0.0210313629 0.2334485501
  -1.0480580330 -0.0147845745 0.0012016296 0.0431204103 0.0045895851 0.6846181750
  -1.5055346489 -0.0000046566 0.0011826083 0.0000104981 0.7071008682 -0.0000124024
  -0.4064104557 8.1463708878 8.3328666687 0.0000000743 -0.0000006263 -1.0000000000
  14.3014163971 9.3307876587 -4.3288578987 -0.1980628967 -0.6936938167 0.6181513071
}

frame 12 {
  -0.0000000251 -0.0000000089 0.0000013374 -0.7071068287 -0.0000000188 -0.0000000124
  -0.0175175872 4.5148844719 1.4526960850 -0.0000001064 0.0000000004 -1.0000000000
  -2.0376806259 -1.0987175703 0.5451019406 -0.0000000014 -0.0000001751 -0.0000000857
  2.5079936981 0.1487963647 3.5524599552 -0.0000000275 0.0000000224 0.0000000745
  -1.0437765121 1.6534518003 2.9099972248 0.2507792711 -0.0825538784 -0.0443866365
  -8.3812904358 0.0000027418 -0.0005156994 -0.0000000126 0.0000000042 0.0000001434
  -3.9075450897 0.0000009537 0.0005278587 0.0000000745 0.7916920185 0.0025525296
  -9.0582656860 -0.0000002384 0.0000063777 0.2584112585 0.1928052753 -0.4073358476
  -2.4121787548 -0.4690743387 4.9682655334 0.2278127521 -0.6577842236 0.2557729483
  -1.4861797094 -0.0092600882 0.0023762882 -0.0182543378 0.0115488851 0.4644548297
  -0.9848693609 -0.0127556324 0.0012270510 0.3776761889 0.5943308473 0.4060391188
  0.0011325479 -0.0000023842 1.2383989096 -0.0000005579 0.0000000070 -0.0000000102
  -0.0485569350 -0.4682635069 4.8929114342 0.2945401669 -0.6570017338 0.2687330842
  -1.8586759567 -0.0117379054 0.0021875799 0.0182136782 -0.0123658767 0.5519973040
  -1.0443698168 -0.0123012066 0.0005896688 0.0186418165 -0.0115624666 0.5112478733
  -1.5055346489 -0.0000048876 0.0011804998 0.0000104688 0.7071008682 -0.0000123970
  -2.1457805634 -0.0792672038 2.5121197701 0.0795319229 -0.4358264804 0.3166429698
  -1.6636106968 -0.0215013325 -0.0294205770 -0.1323004067 -0.3390547037 0.1692510247
  -1.2707847357 0.0000321269 0.0011655092 -0.0000000790 0.7071065903 -0.0000001752
  -1.1617152691 -0.4687222838 6.2216248512 0.4803777039 -0.5438483357 0.4272538126
  -1.4778447151 -0.0012507439 0.0014468133 0.0268110186 -0.0268564634 0.2610144019
  -0.9766041040 -0.0043347478 0.0003553629 0.2762081623 0.6432811022 0.2330486774
  0.0011329055 -0.0000021458 1.2383987904 -0.0000005187 -0.0000000196 -0.0000000568
  1.0011159182 -0.4596714973 3.6390309334 0.1633754522 -0.7046146989 0.1056701094
  -1.8531149626 0.0007341206 0.0014592484 0.0384743884 -0.0210313015 0.2334485054
  -1.0480575562 -0.0147859119 0.0012027621 0.0431203507 0.0045896303 0.6846181750
  -1.5055361986 -0.0000048876 0.0011812150 0.0000105057 0.7071008682 -0.0000123886
  -0.4064104557 8.1463708878 8.3328666687 0.0000000743 -0.0000006263 -1.0000000000
  14.8445539474 7.9073147774 -0.9546858072 -0.2306279987 -0.5931938291 0.6411142349
}

frame 13 {
  -0.0000000251 -0.0000000089 0.0000013374 -0.7071068287 -0.0000000188 -0.0000000124
  -0.0175175872 4.5148844719 1.4526960850 -0.0000001064 0.0000000004 -1.0000000000
  -2.0376806259 -1.0987175703 0.5451019406 -0.0000000014 -0.0000001751 -0.0000000857
  2.5079936981 0.1487963647 3.5524599552 -0.0000000275 0.0000000224 0.0000000745
  -1.0437766314 1.6534522772 2.9099981785 0.1163410842 -0.2201904953 -0.0210607927
  -8.3812913895 0.0000030398 -0.0005167127 -0.0000000019 -0.0000000025 0.0000001395
  -3.9075484276 0.0000000000 0.0005253553 -0.0000001147 0.8327538371 -0.1911096573
  -9.0582647324 0.0000004768 0.0000075102 0.3205944002 0.0859002098 -0.3745085895
  -2.4121785164 -0.4690749645 4.9682655334 0.2278127223 -0.6577842236 0.2557729483
  -1.4861791134 -0.0092593729 0.0023759604 -0.0182543211 0.0115489047 0.4644548595
  -0.9848710895 -0.0127529502 0.0012254715 0.3776762486 0.5943308473 0.4060391486
  0.0011326969 -0.0000020862 1.2384004593 -0.0000005513 0.0000000112 0.0000000047
  -0.0485565662 -0.4682643414 4.8929104805 0.2945401371 -0.6570016742 0.2687330842
  -1.8586752415 -0.0117343068 0.0021873713 0.0182137024 -0.0123658553 0.5519972444
  -1.0443686247 -0.0123020411 0.0005882978 0.0186418481 -0.0115624582 0.5112479329
  -1.5055366755 -0.0000054836 0.0011822581 0.0000105139 0.7071008682 -0.0000123792
  -2.1457819939 -0.0792684555 2.5121202469 0.0795318931 -0.4358264208 0.3166430295
  -1.6636114120 -0.0215019584 -0.0294218659 -0.1323003024 -0.3390546441 0.1692509055
  -1.2707846165 0.0000318289 0.0011660457 -0.0000000790 0.7071065903 -0.0000002002
  -1.1617163420 -0.4687237740 6.2216248512 0.4803777337 -0.5438483953 0.4272538126
  -1.4778443575 -0.0012530386 0.0014465749 0.0268109962 -0.0268564299 0.2610144913
  -0.9766059518 -0.0043341815 0.0003556609 0.2762082815 0.6432811022 0.2330488712
  0.0011332929 -0.0000028014 1.2383971214 -0.0000005178 -0.0000000335 -0.0000000591
  1.0011155605 -0.4596722126 3.6390314102 0.1633753777 -0.7046147585 0.1056701541
  -1.8531148434 0.0007321835 0.0014582872 0.0384743661 -0.0210313108 0.2334486097
  -1.0480574369 -0.0147854090 0.0012014508 0.0431203470 0.0045896140 0.6846182346
  -1.5055371523 -0.0000050068 0.0011812970 0.0000105160 0.7071008682 -0.0000124172
  -0.4064104557 8.1463708878 8.3328666687 0.0000000743 -0.0000006263 -1.0000000000
  15.0566682816 6.2418932915 2.8139262199 -0.2613940239 -0.4864832759 0.6521955132
}

frame 14 {
  -0.0000000251 -0.0000000089 0.0000013374 -0.7071068287 -0.0000000188 -0.0000000124
  -0.0175175872 4.5148844719 1.4526960850 -0.0000001064 0.0000000004 -1.0000000000
  -2.0376806259 -1.0987175703 0.5451019406 -0.0000000014 -0.0000001751 -0.0000000857
  2.5079936981 0.1487963647 3.5524599552 -0.0000000275 0.0000000224 0.0000000745
  -1.0437763929 1.6534525156 2.9099991322 0.0674118251 -0.3418162465 0.0237910654
  -8.3812913895 0.0000031963 -0.0005165040 -0.0000000009 0.0000000084 0.0000001386
  -3.9075479507 0.0000002282 0.0005275011 -0.0000002918 0.8592258692 -0.2248175889
  -9.0582656860 0.0000007153 0.0000065565 0.3128606379 0.0907621235 -0.3587801754
  -2.4121799469 -0.4690732956 4.9682645798 0.2278126925 -0.6577842236 0.2557729781
  -1.4861811399 -0.0092600584 0.0023764372 -0.0182543583 0.0115489392 0.4644548595
  -0.9848687649 -0.0127525404 0.0012279153 0.3776761889 0.5943308473 0.4060390592
  0.0011327267 -0.0000022352 1.2384009361 -0.0000005600 0.0000000177 -0.0000000169
  -0.0485571623 -0.4682626724 4.8929109573 0.2945401371 -0.6570016742 0.2687331140
  -1.8586772680 -0.0117367506 0.0021884143 0.0182136502 -0.0123658497 0.5519973040
  -1.0443682671 -0.0123004913 0.0005875826 0.0186417773 -0.0115624219 0.5112479329
  -1.5055363178 -0.0000057220 0.0011818111 0.0000104951 0.7071008682 -0.0000123486
  -2.1457829475 -0.0792660713 2.5121190548 0.0795318857 -0.4358264208 0.3166430295
  -1.6636111736 -0.0215017796 -0.0294187069 -0.1323002577 -0.3390546441 0.1692509651
  -1.2707836628 0.0000323653 0.0011657476 -0.0000000711 0.7071065903 -0.0000001765
  -1.1617163420 -0.4687225819 6.2216248512 0.4803777337 -0.5438482761 0.4272538126
  -1.4778439999 -0.0012533218 0.0014462471 0.0268109795 -0.0268564783 0.2610145509
  -0.9766047001 -0.0043351650 0.0003556013 0.2762081027 0.6432811022 0.2330488116
  0.0011330843 -0.0000019073 1.2383997440 -0.0000005234 -0.0000000242 -0.0000000447
  1.0011149645 -0.4596705437 3.6390306950 0.1633753628 -0.7046147585 0.1056701988
  -1.8531156778 0.0007357597 0.0014582798 0.0384744033 -0.0210313257 0.2334485650
  -1.0480580330 -0.0147867203 0.0012007654 0.0431203656 0.0045896629 0.6846182346
  -1.5055370331 -0.0000051260 0.0011816621 0.0000105287 0.7071008682 -0.0000123634
  -0.4064104557 8.1463708878 8.3328666687 0.0000000743 -0.0000006263 -1.0000000000
  14.8971185684 4.4489660263 5.8379597664 -0.2861911058 -0.4158309996 0.6587700844
}

frame 15 {
  -0.0000000251 -0.0000000089 0.0000013374 -0.7071068287 -0.0000000188 -0.0000000124
  -0.0175175872 4.5148844719 1.4526960850 -0.0000001064 0.0000000004 -1.0000000000
  -2.0376806259 -1.0987175703 0.5451019406 -0.0000000014 -0.0000001751 -0.0000000857
  2.5079936981 0.1487963647 3.5524599552 -0.0000000275 0.0000000224 0.0000000745
  -1.0437761545 1.6534525156 2.9099991322 0.0642291158 -0.4715232253 0.0644895434
  -8.3812904358 0.0000030994 -0.0005157143 0.0000000009 -0.0000000300 0.0000001350
  -3.9075465202 -0.0000003576 0.0005276054 -0.0000000861 0.8985298276 -0.0740909651
  -9.0582647324 -0.0000000596 0.0000048727 0.2158478200 0.1914919764 -0.3890147805
  -2.4121794701 -0.4690747261 4.9682655334 0.2278127223 -0.6577842236 0.2557729185
  -1.4861807823 -0.0092602968 0.0023767948 -0.0182543211 0.0115489420 0.4644548595
  -0.9848697186 -0.0127527714 0.0012271404 0.3776761889 0.5943309069 0.4060391188
  0.0011326075 -0.0000023246 1.2383983135 -0.0000005416 0.0000000312 -0.0000000158
  -0.0485556722 -0.4682641029 4.8929109573 0.2945401371 -0.6570017338 0.2687330842
  -1.8586754799 -0.0117348433 0.0021869838 0.0182136633 -0.0123659307 0.5519973040
  -1.0443677902 -0.0123010874 0.0005885363 0.0186417811 -0.0115625495 0.5112480521
  -1.5055358410 -0.0000051260 0.0011818707 0.0000104966 0.7071008682 -0.0000123575
  -2.1457805634 -0.0792679787 2.5121207237 0.0795319229 -0.4358264804 0.3166429400
  -1.6636101007 -0.0215017796 -0.0294189453 -0.1323003322 -0.3390546739 0.1692510098
  -1.2707836628 0.0000303388 0.0011658669 -0.0000000540 0.7071065903 -0.0000001501
  -1.1617150307 -0.4687230587 6.2216243744 0.4803776741 -0.5438483357 0.4272537529
  -1.4778437614 -0.0012510568 0.0014465451 0.0268110074 -0.0268565118 0.2610145509
  -0.9766041040 -0.0043352842 0.0003558099 0.2762082517 0.6432810426 0.2330487520
  0.0011330098 -0.0000020266 1.2383992672 -0.0000005234 -0.0000000289 -0.0000000328
  1.0011165142 -0.4596707821 3.6390304565 0.1633753926 -0.7046147585 0.1056700945
  -1.8531148434 0.0007346272 0.0014582872 0.0384743959 -0.0210313406 0.2334485948
  -1.0480582714 -0.0147870928 0.0012013614 0.0431204140 0.0045895935 0.6846182346
  -1.5055361986 -0.0000053048 0.0011818409 0.0000105077 0.7071008682 -0.0000124075
  -0.4064104557 8.1463708878 8.3328666687 0.0000000743 -0.0000006263 -1.0000000000
  14.4636783600 1.8030658960 8.6365528107 -0.3390155733 -0.3691391945 0.6699432135
}

frame 16 {
  -0.0000000251 -0.0000000089 0.0000013374 -0.7071068287 -0.0000000188 -0.0000000124
  -0.0175175872 4.5148844719 1.4526960850 -0.0000001064 0.0000000004 -1.0000000000
  -2.0376806259 -1.0987175703 0.5451019406 -0.0000000014 -0.0000001751 -0.0000000857
  2.5079936981 0.1487963647 3.5524599552 -0.0000000275 0.0000000224 0.0000000745
  -1.0437760353 1.6534525156 2.9099991322 0.0493891053 -0.5912086964 0.0655148700
  -8.3812913895 0.0000033230 -0.0005164072 -0.0000000010 -0.0000000054 0.0000001460
  -3.9075460434 0.0000015050 0.0005267449 0.0000004677 0.8384110928 0.2619925737
  -9.0582666397 -0.0000007153 0.0000082403 0.0582494214 0.4050556421 -0.4308918715
  -2.4121794701 -0.4690755606 4.9682650566 0.2278127223 -0.6577842236 0.2557729185
  -1.4861789942 -0.0092607513 0.0023764372 -0.0182543248 0.0115489028 0.4644548297
  -0.9848697186 -0.0127535537 0.0012266636 0.3776762486 0.5943309069 0.4060390890
  0.0011326075 -0.0000025332 1.2383995056 -0.0000005728 0.0000000289 -0.0000000293
  -0.0485562086 -0.4682650566 4.8929100037 0.2945401669 -0.6570017338 0.2687330842
  -1.8586772680 -0.0117363408 0.0021873713 0.0182136651 -0.0123658385 0.5519973040
  -1.0443674326 -0.0123013854 0.0005888939 0.0186418053 -0.0115624368 0.5112480521
  -1.5055360794 -0.0000054240 0.0011811256 0.0000105073 0.7071008682 -0.0000123677
  -2.1457815170 -0.0792680383 2.5121202469 0.0795319304 -0.4358264804 0.3166429698
  -1.6636105776 -0.0215013027 -0.0294204950 -0.1323002875 -0.3390545845 0.1692510992
  -1.2707842588 0.0000333786 0.0011658967 -0.0000000342 0.7071065903 -0.0000001857
  -1.1617153883 -0.4687238038 6.2216243744 0.4803777039 -0.5438483357 0.4272538126
  -1.4778444767 -0.0012522191 0.0014465451 0.0268109571 -0.0268564280 0.2610144317
  -0.9766055942 -0.0043364167 0.0003554076 0.2762081623 0.6432810426 0.2330487072
  0.0011332035 -0.0000012517 1.2384004593 -0.0000005215 -0.0000000373 -0.0000000633
  1.0011162758 -0.4596719146 3.6390304565 0.1633754224 -0.7046147585 0.1056701392
  -1.8531141281 0.0007352233 0.0014576912 0.0384744033 -0.0210313201 0.2334485799
  -1.0480574369 -0.0147874653 0.0012018085 0.0431204215 0.0045895632 0.6846182942
  -1.5055365562 -0.0000040829 0.0011814237 0.0000104497 0.7071008682 -0.0000123647
  -0.4064104557 8.1463708878 8.3328666687 0.0000000743 -0.0000006263 -1.0000000000
  13.6445493698 -2.1858210564 11.8437833786 -0.4454452991 -0.3190273345 0.6803620458
}

frame 17 {
  -0.0000000251 -0.0000000089 0.0000013374 -0.7071068287 -0.0000000188 -0.0000000124
  -0.0175175872 4.5148844719 1.4526960850 -0.0000001064 0.0000000004 -1.0000000000
  -2.0376806259 -1.0987175703 0.5451019406 -0.0000000014 -0.0000001751 -0.0000000857
  2.5079936981 0.1487963647 3.5524599552 -0.0000000275 0.0000000224 0.0000000745
  -1.0437760353 1.6534525156 2.9099991322 0.0486226119 -0.6255709529 0.0590578914
  -8.3812923431 0.0000029653 -0.0005162726 -0.0000000005 -0.0000000026 0.0000001345
  -3.9075469971 0.0000003800 0.0005265868 0.0000004265 0.6281392574 0.5026741028
  -9.0582656860 0.0000010729 0.0000060797 0.0251242351 0.5934065580 -0.4025229514
  -2.4121797085 -0.4690737724 4.9682679176 0.2278127223 -0.6577842832 0.2557729483
  -1.4861810207 -0.0092605948 0.0023770481 -0.0182543248 0.0115489606 0.4644549489
  -0.9848710895 -0.0127522945 0.0012275577 0.3776762486 0.5943309069 0.4060391188
  0.0011330545 -0.0000029802 1.2383979559 -0.0000005774 0.0000000494 -0.0000000075
  -0.0485563278 -0.4682626128 4.8929138184 0.2945401371 -0.6570017338 0.2687330842
  -1.8586747646 -0.0117368698 0.0021865964 0.0182136130 -0.0123659279 0.5519972444
  -1.0443682671 -0.0123019218 0.0005881488 0.0186417382 -0.0115625151 0.5112479329
  -1.5055360794 -0.0000047684 0.0011811256 0.0000105235 0.7071008682 -0.0000123805
  -2.1457815170 -0.0792659223 2.5121216774 0.0795319304 -0.4358264506 0.3166429996
  -1.6636108160 -0.0215035677 -0.0294206142 -0.1323003173 -0.3390547335 0.1692510098
  -1.2707834244 0.0000318289 0.0011637807 -0.0000000527 0.7071065903 -0.0000001633
  -1.1617155075 -0.4687222242 6.2216272354 0.4803777039 -0.5438483357 0.4272537529
  -1.4778437614 -0.0012519360 0.0014451742 0.0268109981 -0.0268564746 0.2610144317
  -0.9766030908 -0.0043351650 0.0003551245 0.2762081623 0.6432811022 0.2330486923
  0.0011323392 -0.0000026226 1.2384011745 -0.0000005141 -0.0000000522 -0.0000000466
  1.0011160374 -0.4596680403 3.6390323639 0.1633754075 -0.7046147585 0.1056701541
  -1.8531138897 0.0007320642 0.0014577508 0.0384743735 -0.0210313145 0.2334485948
  -1.0480568409 -0.0147883892 0.0012018681 0.0431203991 0.0045896443 0.6846181750
  -1.5055353642 -0.0000054538 0.0011817217 0.0000104734 0.7071008682 -0.0000123884
  -0.4064104557 8.1463708878 8.3328666687 0.0000000743 -0.0000006263 -1.0000000000
  12.5095472336 -6.3989324570 14.6389589310 -0.5670867562 -0.2670193315 0.6755719185
}

frame 18 {
  -0.0000000251 -0.0000000089 0.0000013374 -0.7071068287 -0.0000000188 -0.0000000124
  -0.0175175872 4.5148844719 1.4526960850 -0.0000001064 0.0000000004 -1.0000000000
  -2.0376806259 -1.0987175703 0.5451019406 -0.0000000014 -0.0000001751 -0.0000000857
  2.5079936981 0.1487963647 3.5524599552 -0.0000000275 0.0000000224 0.0000000745
  -1.0437760353 1.6534525156 2.9099991322 0.0769351572 -0.6255728602 0.0804092437
  -8.3812923431 0.0000032559 -0.0005166493 -0.0000000009 0.0000000024 0.0000001460
  -3.9075486660 0.0000014231 0.0005261730 0.0000003415 0.4718250036 0.5385314226
  -9.0582656860 -0.0000002384 0.0000071526 0.0953951031 0.6603017449 -0.3472977877
  -2.4121787548 -0.4690723121 4.9682660103 0.2278127223 -0.6577842236 0.2557729483
  -1.4861803055 -0.0092613697 0.0023787022 -0.0182543285 0.0115489513 0.4644549489
  -0.9848703146 -0.0127544403 0.0012266636 0.3776762187 0.5943308473 0.4060391486
  0.0011324883 -0.0000005960 1.2383980751 -0.0000005364 0.0000000114 -0.0000000084
  -0.0485558510 -0.4682616591 4.8929123878 0.2945401371 -0.6570016742 0.2687330246
  -1.8586766720 -0.0117363930 0.0021883249 0.0182136800 -0.0123658590 0.5519973040
  -1.0443696976 -0.0123023987 0.0005889535 0.0186417922 -0.0115624350 0.5112479329
  -1.5055356026 -0.0000046939 0.0011805296 0.0000105037 0.7071008682 -0.0000123819
  -2.1457812786 -0.0792648941 2.5121209621 0.0795319229 -0.4358264208 0.3166429698
  -1.6636111736 -0.0215027928 -0.0294212103 -0.1323003471 -0.3390547633 0.1692509800
  -1.2707836628 0.0000342131 0.0011677742 -0.0000000869 0.7071065903 -0.0000001686
  -1.1617145538 -0.4687213302 6.2216248512 0.4803776741 -0.5438483357 0.4272537827
  -1.4778444767 -0.0012500286 0.0014461651 0.0268109478 -0.0268564355 0.2610144913
  -0.9766044617 -0.0043373108 0.0003560781 0.2762082219 0.6432811618 0.2330487669
  0.0011324883 -0.0000004768 1.2383971214 -0.0000005253 -0.0000000149 -0.0000000466
  1.0011161566 -0.4596671760 3.6390323639 0.1633753777 -0.7046147585 0.1056701392
  -1.8531131744 0.0007333755 0.0014576614 0.0384743735 -0.0210313406 0.2334485650
  -1.0480577946 -0.0147867203 0.0012020469 0.0431204401 0.0045895865 0.6846181750
  -1.5055379868 -0.0000064373 0.0011812449 0.0000104708 0.7071008682 -0.0000124121
  -0.4064104557 8.1463708878 8.3328666687 0.0000000743 -0.0000006263 -1.0000000000
  11.5541105270 -9.3010673523 16.3060474396 -0.6503129005 -0.2279076576 0.6589450240
}

frame 19 {
  -0.0000000251 -0.0000000089 0.0000013374 -0.7071068287 -0.0000000188 -0.0000000124
  -0.0175175872 4.5148844719 1.4526960850 -0.0000001064 0.0000000004 -1.0000000000
  -2.0376806259 -1.0987175703 0.5451019406 -0.0000000014 -0.0000001751 -0.0000000857
  2.5079936981 0.1487963647 3.5524599552 -0.0000000275 0.0000000224 0.0000000745
  -1.0437760353 1.6534525156 2.9099991322 0.0919475183 -0.6236754656 0.0919475183
  -8.3812913895 0.0000036731 -0.0005167350 0.0000000014 0.0000000036 0.0000001568
  -3.9075496197 0.0000009909 0.0005270541 0.0000004051 0.4231272340 0.5289086699
  -9.0582656860 -0.0000013113 0.0000083447 0.1307646483 0.6702280045 -0.3235573173
  -2.4121787548 -0.4690734744 4.9682669640 0.2278127223 -0.6577842236 0.2557729185
  -1.4861807823 -0.0092604160 0.0023763180 -0.0182543006 0.0115489010 0.4644549489
  -0.9848700166 -0.0127555132 0.0012280047 0.3776761889 0.5943309069 0.4060390890
  0.0011344403 -0.0000020266 1.2383975983 -0.0000005588 0.0000000638 -0.0000000289
  -0.0485565849 -0.4682635963 4.8929109573 0.2945401669 -0.6570017338 0.2687330544
  -1.8586747646 -0.0117373466 0.0021863878 0.0182136633 -0.0123659251 0.5519972444
  -1.0443670750 -0.0123009682 0.0005882531 0.0186417848 -0.0115625458 0.5112479925
  -1.5055371523 -0.0000058562 0.0011833310 0.0000105096 0.7071008682 -0.0000123795
  -2.1457803249 -0.0792678669 2.5121209621 0.0795319006 -0.4358265102 0.3166429698
  -1.6636128426 -0.0215007216 -0.0294201374 -0.1323003173 -0.3390547335 0.1692510098
  -1.2707836628 0.0000313520 0.0011672974 -0.0000000421 0.7071065903 -0.0000001778
  -1.1617157459 -0.4687233567 6.2216267586 0.4803776741 -0.5438483357 0.4272537827
  -1.4778456688 -0.0012516975 0.0014481544 0.0268109776 -0.0268564131 0.2610144913
  -0.9766025543 -0.0043349266 0.0003546178 0.2762081325 0.6432811022 0.2330487967
  0.0011335611 -0.0000023842 1.2383971214 -0.0000005141 -0.0000000009 -0.0000000522
  1.0011165142 -0.4596720040 3.6390306950 0.1633753777 -0.7046147585 0.1056701168
  -1.8531141281 0.0007317066 0.0014575720 0.0384743810 -0.0210312735 0.2334485650
  -1.0480554104 -0.0147867203 0.0012030602 0.0431203507 0.0045896429 0.6846181750
  -1.5055353642 -0.0000061989 0.0011810064 0.0000105077 0.7071008682 -0.0000123911
  -0.4064104557 8.1463708878 8.3328666687 0.0000000743 -0.0000006263 -1.0000000000
  11.2120428085 -10.2532491684 16.8074169159 -0.6769390702 -0.2143609673 0.6505261660
}

