MD5Version 10 // Parameters used during export: Reorient: False; Scale: 1.0
commandline ""

numFrames 10
numJoints 31
frameRate 24
numAnimatedComponents 186

hierarchy {
  "Origin" -1 63 0 //
  "RightShoulder_Dummy" 0 63 6 //
  "RightShoulder" 1 63 12 //
  "RightArm_Dummy" 2 63 18 //
  "RightArm" 3 63 24 //
  "RightArmRoll" 4 63 30 //
  "RightForeArm" 5 63 36 //
  "RightHand" 6 63 42 //
  "RightHandIndex1" 7 63 48 //
  "RightHandIndex2" 8 63 54 //
  "RightHandIndex3" 9 63 60 //
  "RightHandIndex4" 10 63 66 //
  "RightHandRing1" 7 63 72 //
  "RightHandRing2" 12 63 78 //
  "RightHandRing3" 13 63 84 //
  "RightHandRing4" 14 63 90 //
  "RightHandThumb1" 7 63 96 //
  "RightHandThumb2" 16 63 102 //
  "RightHandThumb3" 17 63 108 //
  "RightHandMiddle1" 7 63 114 //
  "RightHandMiddle2" 19 63 120 //
  "RightHandMiddle3" 20 63 126 //
  "RightHandMiddle4" 21 63 132 //
  "RightHandPinky1" 7 63 138 //
  "RightHandPinky2" 23 63 144 //
  "RightHandPinky3" 24 63 150 //
  "RightHandPinky4" 25 63 156 //
  "rightpad" 0 63 162 //
  "Melee" 0 63 168 //
  "Melee1" 28 63 174 //
  "Melee2" 29 63 180 //
}

bounds {
  ( -2.9052391052 -12.7025480270 0.3517316580 ) ( 18.3736820221 -5.7317566872 20.7392978668 )
  ( -1.8648529053 -12.7845859528 0.3517316580 ) ( 19.3317203522 -5.7578258514 19.9196033478 )
  ( -1.3818937540 -12.9936714172 0.3517316580 ) ( 21.9188270569 -5.8296127319 21.4613361359 )
  ( -1.3818937540 -13.1970710754 0.3517316580 ) ( 24.5694942474 -5.8134765625 22.7027530670 )
  ( -1.3818937540 -13.3323421478 -0.0320796967 ) ( 25.7663784027 -5.6006393433 22.8655548096 )
  ( -1.3818937540 -13.3549613953 -0.4654636383 ) ( 26.6279029846 -5.1044120789 22.0887470245 )
  ( -1.3818937540 -12.5874023438 -2.9201858044 ) ( 29.7032623291 -3.4616024494 18.0579490662 )
  ( -1.3818937540 -11.9769363403 -6.2216124535 ) ( 37.3457107544 -1.4979834557 9.7326412201 )
  ( -1.3818937540 -12.0690689087 -7.6979341507 ) ( 40.0253677368 -0.6461720467 7.1989002228 )
  ( -1.3818937540 -12.0945777893 -8.2819499969 ) ( 40.3668136597 -0.4449999332 7.1933808327 )
}

baseframe {
  ( 0.0000000000 0.0000000000 0.0000000000 ) ( -0.7071068287 -0.0000000000 -0.0000000000 )
  ( -0.0186605453 4.5159912109 1.4360997677 ) ( 0.0000280102 0.0000000016 -1.0000000000 )
  ( -2.0367097855 -1.0987091064 0.5481596589 ) ( 0.0000083447 0.0000000002 -0.0000279347 )
  ( 2.5132143497 0.1486579478 3.5487740040 ) ( -0.0000000000 -0.0000000000 -0.0000000000 )
  ( -1.0394111872 1.6535054445 2.9115278721 ) ( -0.0000195275 -0.7070870399 0.0000196410 )
  ( -8.3812847137 0.0000042481 0.0122467289 ) ( -0.0000000199 0.0000001187 -0.0000001589 )
  ( -3.9075412750 0.0000038572 0.0064787311 ) ( -0.0000000000 -0.0000002980 -0.0000000000 )
  ( -9.0582580566 0.0000030984 0.0137990611 ) ( -0.0000195275 0.7071262598 0.0000195286 )
  ( -2.4562108517 -0.4589804113 4.9792232513 ) ( 0.0000195005 -0.7071262598 -0.0000194994 )
  ( -1.4808013439 -0.0000023665 0.0022553869 ) ( 0.0001794795 -0.0001792844 0.1336774677 )
  ( -0.9798917770 -0.0000008648 0.0011381970 ) ( 0.0759933963 0.7029330134 0.0758283958 )
  ( 0.0011322881 -0.0000015907 1.2384006977 ) ( 0.0000000372 0.0000000035 0.0000000379 )
  ( -0.0923869684 -0.4588496685 4.9064965248 ) ( 0.0429671630 -0.7058849931 0.0428026877 )
  ( -1.8562849760 -0.0000013817 0.0025038412 ) ( 0.0001730661 -0.0001778290 0.1480355263 )
  ( -1.0458492041 -0.0000023897 0.0010347852 ) ( 0.0000889879 -0.0001018705 0.1002773046 )
  ( -1.5055357218 -0.0000026549 0.0011810474 ) ( 0.0000114150 0.7071009874 -0.0000114465 )
  ( -2.1882109642 -0.0633600801 2.5236830711 ) ( 0.0967313573 -0.4675333202 0.1567362249 )
  ( -1.6791052818 -0.0000239015 0.0014968514 ) ( 0.0000000014 -0.0000001944 -0.0000000186 )
  ( -1.2707813978 0.0000282526 0.0011651963 ) ( 0.0000001495 0.7071062922 -0.0000001442 )
  ( -1.2061427832 -0.4589325786 6.2291550636 ) ( 0.0000194864 -0.7071262598 -0.0000194854 )
  ( -1.4808018208 -0.0000020948 0.0022557802 ) ( 0.0001794997 -0.0001792818 0.1336775273 )
  ( -0.9798946381 -0.0000022332 0.0011384857 ) ( 0.0759933889 0.7029330134 0.0758283883 )
  ( 0.0011323692 -0.0000017502 1.2384005785 ) ( 0.0000000149 0.0000000035 0.0000000388 )
  ( 0.9575448036 -0.4587714672 3.6564393044 ) ( 0.0429671444 -0.7058849931 0.0428026579 )
  ( -1.8562816381 -0.0000014087 0.0025037199 ) ( 0.0001730594 -0.0001778291 0.1480355561 )
  ( -1.0458487272 -0.0000009410 0.0010346614 ) ( 0.0000889888 -0.0001018699 0.1002773046 )
  ( -1.5055395365 -0.0000035905 0.0011810367 ) ( 0.0000114884 0.7071009874 -0.0000113619 )
  ( -0.4129891396 8.1527709961 8.3131628036 ) ( 0.0000279307 0.0000000016 -1.0000000000 )
  ( 0.0000000000 0.0000000000 0.0000000000 ) ( 0.7071067095 0.0000000000 -0.7071068287 )
  ( -0.0000005285 0.0000004768 -7.0000000000 ) ( 0.0000000000 0.0000001033 0.0000000000 )
  ( -0.0000019749 0.0000004768 -7.0000000000 ) ( -0.0000000000 0.0000001192 -0.0000000000 )
}

frame 0 {
  -0.0000000251 -0.0000000089 0.0000013374 -0.7071068287 -0.0000000188 -0.0000000124
  -0.0175175872 4.5148844719 1.4526960850 -0.0000001064 0.0000000004 -1.0000000000
  -2.0376806259 -1.0987175703 0.5451019406 -0.0000000014 -0.0000001751 -0.0000000857
  2.5079936981 0.1487963647 3.5524599552 -0.0000000275 0.0000000224 0.0000000745
  -1.0437761545 1.6534479856 2.9099972248 0.8446620703 0.0259517692 -0.1322924197
  -8.3812894821 0.0000039935 -0.0005173683 -0.0000000023 -0.0000000000 0.0000001397
  -3.9075493813 0.0000016689 0.0005261898 0.0000002537 0.3022977412 0.3636326790
  -9.0582647324 0.0000007749 0.0000065565 -0.1313600689 0.8695276380 0.1289915591
  -2.4121794701 -0.4690735936 4.9682655334 0.2278127223 -0.6577842832 0.2557729185
  -1.4861822128 -0.0092610121 0.0023766756 -0.0182543322 0.0115488935 0.4644548297
  -0.9848694801 -0.0127587318 0.0012260675 0.3776762187 0.5943309069 0.4060391188
  0.0011348724 -0.0000016689 1.2383991480 -0.0000005295 0.0000000279 -0.0000000140
  -0.0485566854 -0.4682637453 4.8929114342 0.2945401371 -0.6570017338 0.2687330842
  -1.8586740494 -0.0117336512 0.0021872520 0.0182136390 -0.0123658832 0.5519973040
  -1.0443673134 -0.0123032331 0.0005883873 0.0186417364 -0.0115624862 0.5112478137
  -1.5055329800 -0.0000041723 0.0011822730 0.0000105059 0.7071008682 -0.0000123743
  -2.1457805634 -0.0792668462 2.5121216774 0.0795319304 -0.4358264804 0.3166430295
  -1.6636114120 -0.0215001106 -0.0294219591 -0.1323003620 -0.3390547633 0.1692510098
  -1.2707819939 0.0000333786 0.0011658669 -0.0000001054 0.7071065903 -0.0000002186
  -1.1617151499 -0.4687224627 6.2216248512 0.4803776741 -0.5438483357 0.4272537529
  -1.4778442383 -0.0012541562 0.0014455020 0.0268109925 -0.0268564951 0.2610144317
  -0.9766058922 -0.0043338239 0.0003551245 0.2762081623 0.6432811022 0.2330487221
  0.0011335611 -0.0000013709 1.2383999825 -0.0000005134 -0.0000000317 -0.0000000512
  1.0011163950 -0.4596706629 3.6390318871 0.1633754075 -0.7046147585 0.1056701243
  -1.8531147242 0.0007331371 0.0014596283 0.0384743884 -0.0210313275 0.2334485501
  -1.0480568409 -0.0147848129 0.0012010336 0.0431203991 0.0045895679 0.6846182346
  -1.5055336952 -0.0000046492 0.0011811256 0.0000104872 0.7071008682 -0.0000123680
  -0.4064104557 8.1463708878 8.3328666687 0.0000000743 -0.0000006263 -1.0000000000
  18.2698822021 18.5353469849 7.2721872330 -0.0204320364 -0.7622106075 -0.0037534107
  -0.0000002384 0.0000137091 -7.0001835823 -0.0000000009 0.0000001212 0.0000000005
  -0.0000013113 0.0000110120 -7.0001854897 -0.0000000012 0.0000001249 -0.0000000005
}

frame 1 {
  -0.0000000251 -0.0000000089 0.0000013374 -0.7071068287 -0.0000000188 -0.0000000124
  -0.0175175872 4.5148844719 1.4526960850 -0.0000001064 0.0000000004 -1.0000000000
  -2.0376806259 -1.0987175703 0.5451019406 -0.0000000014 -0.0000001751 -0.0000000857
  2.5079936981 0.1487963647 3.5524599552 -0.0000000275 0.0000000224 0.0000000745
  -1.0437762737 1.6534479856 2.9099972248 0.8487493992 -0.0011869336 -0.1210746542
  -8.3812913895 0.0000017881 -0.0005173683 0.0000000093 0.0000000037 0.0000001388
  -3.9075498581 0.0000007153 0.0005257130 0.0000002711 0.2900021374 0.3775296211
  -9.0582647324 0.0000011325 0.0000062585 -0.1426320672 0.8636050224 0.1339561790
  -2.4121780396 -0.4690730572 4.9682679176 0.2278127223 -0.6577841640 0.2557729483
  -1.4861806631 -0.0092624426 0.0023750663 -0.0182543248 0.0115488768 0.4644549191
  -0.9848701954 -0.0127521753 0.0012273788 0.3776761591 0.5943309069 0.4060390592
  0.0011333227 -0.0000028610 1.2383960485 -0.0000005419 0.0000000247 -0.0000000144
  -0.0485560298 -0.4682638049 4.8929114342 0.2945401073 -0.6570016146 0.2687330842
  -1.8586773872 -0.0117383003 0.0021883249 0.0182136800 -0.0123658990 0.5519972444
  -1.0443677902 -0.0123021603 0.0005871058 0.0186418220 -0.0115624992 0.5112480521
  -1.5055357218 -0.0000058115 0.0011814833 0.0000105069 0.7071008682 -0.0000123728
  -2.1457810402 -0.0792673230 2.5121214390 0.0795318857 -0.4358264208 0.3166429698
  -1.6636109352 -0.0215005875 -0.0294207484 -0.1323004067 -0.3390546143 0.1692509502
  -1.2707843781 0.0000302792 0.0011649132 -0.0000000632 0.7071065903 -0.0000001422
  -1.1617162228 -0.4687217474 6.2216253281 0.4803776443 -0.5438482165 0.4272537827
  -1.4778449535 -0.0012505651 0.0014467239 0.0268109404 -0.0268564634 0.2610144317
  -0.9766047001 -0.0043346882 0.0003548861 0.2762080729 0.6432811618 0.2330487370
  0.0011335909 -0.0000024736 1.2383964062 -0.0000005150 -0.0000000331 -0.0000000510
  1.0011157990 -0.4596698880 3.6390328407 0.1633753628 -0.7046146989 0.1056701466
  -1.8531155586 0.0007328987 0.0014570951 0.0384744182 -0.0210313592 0.2334485948
  -1.0480561256 -0.0147838593 0.0011997223 0.0431204364 0.0045896638 0.6846182346
  -1.5055322647 -0.0000045300 0.0011824369 0.0000104731 0.7071008682 -0.0000123779
  -0.4064104557 8.1463708878 8.3328666687 0.0000000743 -0.0000006263 -1.0000000000
  19.2175960541 17.3434505463 7.2439646721 -0.0499125458 -0.7595803142 0.0261757597
  0.0000006557 0.0000092387 -7.0001840591 0.0000000022 0.0000001268 0.0000000005
  -0.0000019670 0.0000116378 -7.0001845360 0.0000000020 0.0000001268 0.0000000005
}

frame 2 {
  -0.0000000251 -0.0000000089 0.0000013374 -0.7071068287 -0.0000000188 -0.0000000124
  -0.0175175872 4.5148844719 1.4526960850 -0.0000001064 0.0000000004 -1.0000000000
  -2.0376806259 -1.0987175703 0.5451019406 -0.0000000014 -0.0000001751 -0.0000000857
  2.5079936981 0.1487963647 3.5524599552 -0.0000000275 0.0000000224 0.0000000745
  -1.0437765121 1.6534479856 2.9099972248 0.8548038006 -0.0656952485 -0.0974237993
  -8.3812913895 0.0000021458 -0.0005171299 0.0000000023 0.0000000049 0.0000001326
  -3.9075491428 0.0000007153 0.0005270243 0.0000002728 0.2298487872 0.3993783593
  -9.0582666397 0.0000004768 0.0000075102 -0.1702414602 0.8511618376 0.1508887112
  -2.4121770859 -0.4690745473 4.9682664871 0.2278127670 -0.6577842832 0.2557729781
  -1.4861785173 -0.0092601776 0.0023781657 -0.0182543378 0.0115489112 0.4644549191
  -0.9848675728 -0.0127531290 0.0012270212 0.3776761591 0.5943309069 0.4060391784
  0.0011321306 -0.0000022650 1.2384002209 -0.0000005178 0.0000000168 -0.0000000186
  -0.0485540628 -0.4682641923 4.8929123878 0.2945400774 -0.6570016742 0.2687330842
  -1.8586764336 -0.0117349625 0.0021878481 0.0182136428 -0.0123658814 0.5519973040
  -1.0443668365 -0.0123004913 0.0005859733 0.0186417438 -0.0115625113 0.5112479329
  -1.5055373907 -0.0000052452 0.0011789203 0.0000105052 0.7071008682 -0.0000123764
  -2.1457815170 -0.0792680681 2.5121202469 0.0795319080 -0.4358264804 0.3166429698
  -1.6636115313 -0.0215008259 -0.0294190720 -0.1323003322 -0.3390546441 0.1692509651
  -1.2707829475 0.0000319481 0.0011646748 -0.0000000435 0.7071065903 -0.0000001633
  -1.1617133617 -0.4687240124 6.2216267586 0.4803777039 -0.5438483357 0.4272538424
  -1.4778456688 -0.0012490153 0.0014435053 0.0268109981 -0.0268564485 0.2610144317
  -0.9766044617 -0.0043334961 0.0003542304 0.2762082219 0.6432810426 0.2330487520
  0.0011343062 -0.0000027418 1.2383966446 -0.0000005215 -0.0000000126 -0.0000000512
  1.0011177063 -0.4596715868 3.6390318871 0.1633753777 -0.7046147585 0.1056701392
  -1.8531134129 0.0007328987 0.0014585257 0.0384744406 -0.0210313294 0.2334485948
  -1.0480585098 -0.0147848129 0.0012046099 0.0431204364 0.0045897318 0.6846182346
  -1.5055336952 -0.0000052452 0.0011806488 0.0000104918 0.7071008682 -0.0000123674
  -0.4064104557 8.1463708878 8.3328666687 0.0000000743 -0.0000006263 -1.0000000000
  21.7295341492 13.7436838150 7.1557493210 -0.1347185075 -0.7436512113 0.1163544357
  -0.0000013113 0.0000102632 -7.0001873970 0.0000000151 0.0000001225 0.0000000003
  -0.0000032187 0.0000129407 -7.0001845360 0.0000000075 0.0000001220 -0.0000000006
}

frame 3 {
  -0.0000000251 -0.0000000089 0.0000013374 -0.7071068287 -0.0000000188 -0.0000000124
  -0.0175175872 4.5148844719 1.4526960850 -0.0000001064 0.0000000004 -1.0000000000
  -2.0376806259 -1.0987175703 0.5451019406 -0.0000000014 -0.0000001751 -0.0000000857
  2.5079936981 0.1487963647 3.5524599552 -0.0000000275 0.0000000224 0.0000000745
  -1.0437767506 1.6534482241 2.9099972248 0.8563185334 -0.1148790494 -0.0809273496
  -8.3812923431 0.0000035763 -0.0005178750 -0.0000000121 0.0000000051 0.0000001360
  -3.9075479507 0.0000007153 0.0005266964 0.0000002762 0.1163647696 0.3813057542
  -9.0582656860 0.0000002384 0.0000071526 -0.1938747168 0.8405852914 0.1773984730
  -2.4121792316 -0.4690742791 4.9682698250 0.2278127372 -0.6577842236 0.2557729483
  -1.4861779213 -0.0092601776 0.0023748279 -0.0182543676 0.0115489634 0.4644549191
  -0.9848688841 -0.0127514601 0.0012270808 0.3776762187 0.5943308473 0.4060391188
  0.0011302829 -0.0000014603 1.2384008169 -0.0000005504 0.0000000130 -0.0000000107
  -0.0485582352 -0.4682646990 4.8929138184 0.2945400774 -0.6570016742 0.2687331140
  -1.8586769104 -0.0117354393 0.0021863580 0.0182136763 -0.0123658488 0.5519973040
  -1.0443682671 -0.0123007298 0.0005875230 0.0186418053 -0.0115624014 0.5112479329
  -1.5055351257 -0.0000055060 0.0011808276 0.0000105050 0.7071008682 -0.0000123799
  -2.1457827091 -0.0792680681 2.5121221542 0.0795318931 -0.4358264208 0.3166429698
  -1.6636111736 -0.0215007067 -0.0294204429 -0.1323003769 -0.3390546441 0.1692509800
  -1.2707867622 0.0000326633 0.0011639595 -0.0000000553 0.7071065903 -0.0000002213
  -1.1617164612 -0.4687236845 6.2216281891 0.4803776741 -0.5438483953 0.4272538126
  -1.4778455496 -0.0012550056 0.0014474392 0.0268110279 -0.0268565044 0.2610144317
  -0.9766039848 -0.0043358803 0.0003547668 0.2762082219 0.6432809830 0.2330486923
  0.0011336133 -0.0000016689 1.2384016514 -0.0000005178 -0.0000000250 -0.0000000489
  1.0011160374 -0.4596720636 3.6390347481 0.1633754075 -0.7046146989 0.1056701094
  -1.8531157970 0.0007343292 0.0014566183 0.0384744033 -0.0210313275 0.2334486246
  -1.0480575562 -0.0147869587 0.0011994839 0.0431204215 0.0045897011 0.6846182346
  -1.5055332184 -0.0000057220 0.0011832714 0.0000104839 0.7071008682 -0.0000124069
  -0.4064104557 8.1463708878 8.3328666687 0.0000000743 -0.0000006263 -1.0000000000
  24.2532062531 8.9232139587 7.0480194092 -0.2387427688 -0.7042883635 0.2369640321
  0.0000000596 0.0000105202 -7.0001845360 -0.0000000020 0.0000001187 0.0000000009
  -0.0000019073 0.0000102222 -7.0001840591 -0.0000000020 0.0000001164 -0.0000000005
}

frame 4 {
  -0.0000000251 -0.0000000089 0.0000013374 -0.7071068287 -0.0000000188 -0.0000000124
  -0.0175175872 4.5148844719 1.4526960850 -0.0000001064 0.0000000004 -1.0000000000
  -2.0376806259 -1.0987175703 0.5451019406 -0.0000000014 -0.0000001751 -0.0000000857
  2.5079936981 0.1487963647 3.5524599552 -0.0000000275 0.0000000224 0.0000000745
  -1.0437768698 1.6534482241 2.9099972248 0.8558775187 -0.1401845664 -0.0741471276
  -8.3812913895 0.0000033379 -0.0005164146 0.0000000056 -0.0000000021 0.0000001397
  -3.9075489044 0.0000005960 0.0005258769 0.0000002693 0.0234208442 0.3524836302
  -9.0582647324 0.0000007153 0.0000076294 -0.2175647467 0.8185701370 0.1967955530
  -2.4121797085 -0.4690741599 4.9682655334 0.2278127223 -0.6577842236 0.2557729781
  -1.4861807823 -0.0092611313 0.0023780465 -0.0182543583 0.0115489103 0.4644549191
  -0.9848698378 -0.0127543211 0.0012252033 0.3776761889 0.5943308473 0.4060391486
  0.0011317134 -0.0000019073 1.2383955717 -0.0000005625 0.0000000640 -0.0000000065
  -0.0485562682 -0.4682650268 4.8929104805 0.2945401073 -0.6570017338 0.2687330544
  -1.8586771488 -0.0117363930 0.0021885633 0.0182136614 -0.0123658748 0.5519972444
  -1.0443687439 -0.0123052597 0.0005888641 0.0186417680 -0.0115624759 0.5112479329
  -1.5055363178 -0.0000048578 0.0011796877 0.0000105083 0.7071008682 -0.0000123819
  -2.1457803249 -0.0792688429 2.5121226311 0.0795318633 -0.4358264208 0.3166429698
  -1.6636109352 -0.0215001106 -0.0294215363 -0.1323003024 -0.3390545845 0.1692510247
  -1.2707824707 0.0000317097 0.0011644363 -0.0000000659 0.7071065903 -0.0000001739
  -1.1617145538 -0.4687240124 6.2216258049 0.4803776741 -0.5438483357 0.4272537827
  -1.4778436422 -0.0012531430 0.0014452934 0.0268109906 -0.0268564597 0.2610144615
  -0.9766039848 -0.0043358803 0.0003551841 0.2762081623 0.6432811022 0.2330487370
  0.0011356771 -0.0000025034 1.2383954525 -0.0000005253 -0.0000000265 -0.0000000549
  1.0011161566 -0.4596711397 3.6390299797 0.1633753479 -0.7046146989 0.1056701764
  -1.8531138897 0.0007321835 0.0014584064 0.0384743400 -0.0210313126 0.2334485501
  -1.0480577946 -0.0147907734 0.0012036562 0.0431203321 0.0045895851 0.6846181750
  -1.5055361986 -0.0000045300 0.0011810660 0.0000105077 0.7071008682 -0.0000123674
  -0.4064104557 8.1463708878 8.3328666687 0.0000000743 -0.0000006263 -1.0000000000
  25.3529167175 4.9189167023 6.9707231522 -0.3188616335 -0.6520593166 0.3456076086
  0.0000007041 0.0000104308 -7.0001845360 0.0000000044 0.0000001180 0.0000000016
  -0.0000021458 0.0000135303 -7.0001854897 -0.0000000178 0.0000001173 0.0000000016
}

frame 5 {
  -0.0000000251 -0.0000000089 0.0000013374 -0.7071068287 -0.0000000188 -0.0000000124
  -0.0175175872 4.5148844719 1.4526960850 -0.0000001064 0.0000000004 -1.0000000000
  -2.0376806259 -1.0987175703 0.5451019406 -0.0000000014 -0.0000001751 -0.0000000857
  2.5079936981 0.1487963647 3.5524599552 -0.0000000275 0.0000000224 0.0000000745
  -1.0437769890 1.6534482241 2.9099972248 0.8555631042 -0.1539146155 -0.0692908093
  -8.3812913895 0.0000039339 -0.0005171895 -0.0000000063 0.0000000014 0.0000001490
  -3.9075498581 -0.0000004172 0.0005263686 0.0000002518 -0.0563792996 0.3378243148
  -9.0582637787 0.0000007153 0.0000060797 -0.2648988366 0.7698205709 0.1875853986
  -2.4121799469 -0.4690739512 4.9682683945 0.2278127223 -0.6577842236 0.2557729185
  -1.4861804247 -0.0092610121 0.0023773164 -0.0182543322 0.0115489336 0.4644549489
  -0.9848692417 -0.0127520561 0.0012253076 0.3776762486 0.5943307877 0.4060391486
  0.0011341572 -0.0000022352 1.2383998632 -0.0000005523 0.0000000129 -0.0000000200
  -0.0485565066 -0.4682631195 4.8929142952 0.2945401669 -0.6570017338 0.2687330842
  -1.8586747646 -0.0117375851 0.0021866374 0.0182136297 -0.0123658869 0.5519973040
  -1.0443686247 -0.0123003125 0.0005897060 0.0186417494 -0.0115624415 0.5112479329
  -1.5055356026 -0.0000060201 0.0011827052 0.0000105017 0.7071008682 -0.0000123726
  -2.1457824707 -0.0792668760 2.5121212006 0.0795318931 -0.4358264208 0.3166429400
  -1.6636102200 -0.0215013027 -0.0294208825 -0.1323002726 -0.3390546441 0.1692510098
  -1.2707848549 0.0000317097 0.0011668205 -0.0000000790 0.7071065903 -0.0000001422
  -1.1617159843 -0.4687235355 6.2216291428 0.4803777039 -0.5438483357 0.4272538126
  -1.4778447151 -0.0012529716 0.0014454126 0.0268109776 -0.0268564504 0.2610144317
  -0.9766039848 -0.0043382049 0.0003565699 0.2762081921 0.6432811022 0.2330486774
  0.0011334419 -0.0000030100 1.2383999825 -0.0000005160 -0.0000000224 -0.0000000470
  1.0011156797 -0.4596712887 3.6390326023 0.1633753926 -0.7046147585 0.1056701243
  -1.8531126976 0.0007300675 0.0014586151 0.0384744182 -0.0210313182 0.2334486097
  -1.0480571985 -0.0147863626 0.0012016892 0.0431203991 0.0045896391 0.6846181750
  -1.5055373907 -0.0000032783 0.0011816025 0.0000104779 0.7071008682 -0.0000123656
  -0.4064104557 8.1463708878 8.3328666687 0.0000000743 -0.0000006263 -1.0000000000
  25.4488735199 1.3136143684 6.6456289291 -0.4015907645 -0.5751605034 0.4601802826
  0.0000005960 0.0000118017 -7.0001864433 0.0000000041 0.0000001201 0.0000000007
  -0.0000013113 0.0000124574 -7.0001859665 0.0000000079 0.0000001187 -0.0000000007
}

frame 6 {
  -0.0000000251 -0.0000000089 0.0000013374 -0.7071068287 -0.0000000188 -0.0000000124
  -0.0175175872 4.5148844719 1.4526960850 -0.0000001064 0.0000000004 -1.0000000000
  -2.0376806259 -1.0987175703 0.5451019406 -0.0000000014 -0.0000001751 -0.0000000857
  2.5079936981 0.1487963647 3.5524599552 -0.0000000275 0.0000000224 0.0000000745
  -1.0437768698 1.6534482241 2.9099972248 0.8606392145 -0.1449579298 -0.0389530808
  -8.3812913895 0.0000025630 -0.0005163550 0.0000000093 0.0000000019 0.0000001434
  -3.9075489044 0.0000005960 0.0005274415 0.0000002250 -0.1223100722 0.2803685069
  -9.0582637787 0.0000007153 0.0000080615 -0.3131881058 0.6732648611 0.1417861283
  -2.4121799469 -0.4690743685 4.9682655334 0.2278127521 -0.6577842236 0.2557729483
  -1.4861787558 -0.0092597175 0.0023767352 -0.0182543509 0.0115489373 0.4644548595
  -0.9848697186 -0.0127565116 0.0012269020 0.3776761889 0.5943309069 0.4060390890
  0.0011330545 -0.0000019819 1.2383966446 -0.0000005610 0.0000000258 -0.0000000116
  -0.0485564470 -0.4682640731 4.8929104805 0.2945401967 -0.6570017338 0.2687330842
  -1.8586761951 -0.0117384046 0.0021871328 0.0182136856 -0.0123658841 0.5519973040
  -1.0443671942 -0.0123026073 0.0005891323 0.0186418146 -0.0115624489 0.5112478733
  -1.5055370331 -0.0000048652 0.0011818409 0.0000105030 0.7071008682 -0.0000123772
  -2.1457815170 -0.0792675614 2.5121195316 0.0795319527 -0.4358264506 0.3166429698
  -1.6636114120 -0.0214985609 -0.0294209123 -0.1323003471 -0.3390547037 0.1692510396
  -1.2707825899 0.0000333786 0.0011663437 -0.0000000685 0.7071065903 -0.0000001791
  -1.1617156267 -0.4687232971 6.2216248512 0.4803777039 -0.5438483357 0.4272538126
  -1.4778445959 -0.0012520179 0.0014460087 0.0268109795 -0.0268564727 0.2610144317
  -0.9766054153 -0.0043338165 0.0003557205 0.2762082517 0.6432810426 0.2330486923
  0.0011321306 -0.0000031888 1.2384002209 -0.0000005318 -0.0000000279 -0.0000000596
  1.0011157990 -0.4596712887 3.6390304565 0.1633754075 -0.7046147585 0.1056701168
  -1.8531157970 0.0007337779 0.0014587045 0.0384743884 -0.0210313443 0.2334485799
  -1.0480574369 -0.0147834420 0.0012022462 0.0431203991 0.0045895856 0.6846182346
  -1.5055350065 -0.0000064671 0.0011804290 0.0000104909 0.7071008682 -0.0000123917
  -0.4064104557 8.1463708878 8.3328666687 0.0000000743 -0.0000006263 -1.0000000000
  24.5982589722 -2.7831466198 5.9200353622 -0.5108360648 -0.4354012311 0.5952699780
  0.0000000000 0.0000092387 -7.0001840591 -0.0000000085 0.0000001187 -0.0000000019
  -0.0000023246 0.0000097752 -7.0001835823 -0.0000000047 0.0000001164 -0.0000000023
}

frame 7 {
  -0.0000000251 -0.0000000089 0.0000013374 -0.7071068287 -0.0000000188 -0.0000000124
  -0.0175175872 4.5148844719 1.4526960850 -0.0000001064 0.0000000004 -1.0000000000
  -2.0376806259 -1.0987175703 0.5451019406 -0.0000000014 -0.0000001751 -0.0000000857
  2.5079936981 0.1487963647 3.5524599552 -0.0000000275 0.0000000224 0.0000000745
  -1.0437767506 1.6534482241 2.9099972248 0.8676152229 -0.1287401766 0.0170269646
  -8.3812904358 0.0000022650 -0.0005170107 -0.0000000093 0.0000000037 0.0000001360
  -3.9075493813 -0.0000008047 0.0005264878 0.0000001142 -0.1304778308 0.2016431391
  -9.0582666397 0.0000000000 0.0000066161 -0.3373479545 0.5266929865 0.0772247836
  -2.4121818542 -0.4690734148 4.9682669640 0.2278127223 -0.6577842236 0.2557729185
  -1.4861776829 -0.0092591047 0.0023768544 -0.0182543285 0.0115489336 0.4644549489
  -0.9848687053 -0.0127559900 0.0012269616 0.3776762187 0.5943309069 0.4060391486
  0.0011312962 -0.0000018477 1.2383973598 -0.0000005383 0.0000000270 -0.0000000233
  -0.0485577583 -0.4682636261 4.8929109573 0.2945401371 -0.6570016742 0.2687330544
  -1.8586766720 -0.0117378235 0.0021884441 0.0182136633 -0.0123658590 0.5519973040
  -1.0443696976 -0.0123020411 0.0005906224 0.0186418127 -0.0115623605 0.5112479925
  -1.5055350065 -0.0000057817 0.0011842847 0.0000104923 0.7071008682 -0.0000123748
  -2.1457819939 -0.0792669654 2.5121192932 0.0795319229 -0.4358264208 0.3166429400
  -1.6636110544 -0.0215023160 -0.0294208825 -0.1323003173 -0.3390546739 0.1692510396
  -1.2707834244 0.0000341535 0.0011662245 -0.0000000817 0.7071065903 -0.0000001897
  -1.1617166996 -0.4687227607 6.2216272354 0.4803776443 -0.5438483357 0.4272537827
  -1.4778447151 -0.0012495220 0.0014463365 0.0268109571 -0.0268564783 0.2610144317
  -0.9766050577 -0.0043359995 0.0003541708 0.2762081325 0.6432810426 0.2330487669
  0.0011348724 -0.0000019073 1.2383984327 -0.0000005160 -0.0000000484 -0.0000000354
  1.0011157990 -0.4596705437 3.6390304565 0.1633754373 -0.7046146989 0.1056701243
  -1.8531138897 0.0007350445 0.0014596879 0.0384743959 -0.0210312810 0.2334485799
  -1.0480570793 -0.0147860050 0.0012027025 0.0431202576 0.0045896764 0.6846181750
  -1.5055356026 -0.0000047684 0.0011808872 0.0000105024 0.7071008682 -0.0000123871
  -0.4064104557 8.1463708878 8.3328666687 0.0000000743 -0.0000006263 -1.0000000000
  22.5956420898 -5.8787140846 5.0676131248 -0.5985907912 -0.2571093440 0.6961238384
  -0.0000001565 0.0000132173 -7.0001859665 0.0000000100 0.0000001192 0.0000000001
  -0.0000027418 0.0000100695 -7.0001854897 -0.0000000052 0.0000001173 -0.0000000016
}

frame 8 {
  -0.0000000251 -0.0000000089 0.0000013374 -0.7071068287 -0.0000000188 -0.0000000124
  -0.0175175872 4.5148844719 1.4526960850 -0.0000001064 0.0000000004 -1.0000000000
  -2.0376806259 -1.0987175703 0.5451019406 -0.0000000014 -0.0000001751 -0.0000000857
  2.5079936981 0.1487963647 3.5524599552 -0.0000000275 0.0000000224 0.0000000745
  -1.0437766314 1.6534482241 2.9099972248 0.8714790344 -0.1138454676 0.0731493384
  -8.3812904358 0.0000019073 -0.0005168915 0.0000000116 0.0000000019 0.0000001378
  -3.9075512886 -0.0000009537 0.0005273521 0.0000000769 -0.0973700657 0.1286270320
  -9.0582637787 0.0000004768 0.0000065565 -0.3382555246 0.3982586265 0.0398253687
  -2.4121809006 -0.4690743387 4.9682674408 0.2278127521 -0.6577842832 0.2557729483
  -1.4861776829 -0.0092604160 0.0023759604 -0.0182543155 0.0115488954 0.4644549489
  -0.9848695397 -0.0127529502 0.0012273788 0.3776763082 0.5943308473 0.4060391188
  0.0011349618 -0.0000028014 1.2383987904 -0.0000005625 0.0000000205 -0.0000000298
  -0.0485571623 -0.4682644308 4.8929138184 0.2945401967 -0.6570016742 0.2687331438
  -1.8586769104 -0.0117356777 0.0021877289 0.0182136483 -0.0123659195 0.5519973040
  -1.0443677902 -0.0123018026 0.0005871058 0.0186417475 -0.0115624862 0.5112480521
  -1.5055388212 -0.0000056624 0.0011837482 0.0000105129 0.7071008682 -0.0000123739
  -2.1457824707 -0.0792676508 2.5121216774 0.0795318931 -0.4358265102 0.3166429400
  -1.6636120081 -0.0215021074 -0.0294198394 -0.1323003471 -0.3390546441 0.1692509651
  -1.2707839012 0.0000336170 0.0011651516 -0.0000001238 0.7071065903 -0.0000001883
  -1.1617159843 -0.4687232077 6.2216258049 0.4803776741 -0.5438483357 0.4272537827
  -1.4778444767 -0.0012536645 0.0014452338 0.0268109702 -0.0268565156 0.2610144317
  -0.9766045809 -0.0043371916 0.0003578961 0.2762082219 0.6432811618 0.2330487221
  0.0011324286 -0.0000020862 1.2383991480 -0.0000005171 -0.0000000335 -0.0000000601
  1.0011150837 -0.4596706629 3.6390323639 0.1633754224 -0.7046147585 0.1056701392
  -1.8531141281 0.0007338524 0.0014605522 0.0384744070 -0.0210313369 0.2334485948
  -1.0480568409 -0.0147871971 0.0011985004 0.0431203991 0.0045896121 0.6846181750
  -1.5055346489 -0.0000042915 0.0011810660 0.0000104589 0.7071008682 -0.0000123766
  -0.4064104557 8.1463708878 8.3328666687 0.0000000743 -0.0000006263 -1.0000000000
  20.8479232788 -7.1387071609 4.3625950813 -0.6366870403 -0.1247971281 0.7360005975
  -0.0000002980 0.0000102371 -7.0001859665 -0.0000000095 0.0000001211 0.0000000009
  -0.0000018477 0.0000086725 -7.0001888275 -0.0000000014 0.0000001164 0.0000000009
}

frame 9 {
  -0.0000000251 -0.0000000089 0.0000013374 -0.7071068287 -0.0000000188 -0.0000000124
  -0.0175175872 4.5148844719 1.4526960850 -0.0000001064 0.0000000004 -1.0000000000
  -2.0376806259 -1.0987175703 0.5451019406 -0.0000000014 -0.0000001751 -0.0000000857
  2.5079936981 0.1487963647 3.5524599552 -0.0000000275 0.0000000224 0.0000000745
  -1.0437765121 1.6534482241 2.9099972248 0.8722533584 -0.1066015065 0.0983448327
  -8.3812904358 0.0000038147 -0.0005171299 -0.0000000233 0.0000000158 0.0000001406
  -3.9075498581 -0.0000007004 0.0005263090 0.0000000401 -0.0738661289 0.0939001143
  -9.0582685471 0.0000001192 0.0000081062 -0.3352773786 0.3500424623 0.0346369632
  -2.4121825695 -0.4690741301 4.9682650566 0.2278127223 -0.6577842236 0.2557729185
  -1.4861810207 -0.0092582703 0.0023728013 -0.0182543062 0.0115489298 0.4644548893
  -0.9848691821 -0.0127541721 0.0012269020 0.3776762187 0.5943308473 0.4060390890
  0.0011337996 -0.0000023097 1.2383995056 -0.0000005513 0.0000000037 -0.0000000149
  -0.0485562682 -0.4682636261 4.8929104805 0.2945401371 -0.6570016742 0.2687330544
  -1.8586759567 -0.0117359161 0.0021900535 0.0182136893 -0.0123658953 0.5519972444
  -1.0443673134 -0.0123028755 0.0005865097 0.0186418388 -0.0115625430 0.5112479925
  -1.5055369139 -0.0000050068 0.0011810660 0.0000105011 0.7071008682 -0.0000123687
  -2.1457834244 -0.0792672634 2.5121197701 0.0795319006 -0.4358265102 0.3166430295
  -1.6636109352 -0.0214999914 -0.0294202566 -0.1323003769 -0.3390547335 0.1692510545
  -1.2707837820 0.0000303388 0.0011646748 -0.0000000803 0.7071065903 -0.0000001620
  -1.1617176533 -0.4687232971 6.2216243744 0.4803776741 -0.5438483357 0.4272538126
  -1.4778449535 -0.0012509227 0.0014478862 0.0268109944 -0.0268564876 0.2610144317
  -0.9766051769 -0.0043367147 0.0003563166 0.2762081325 0.6432811022 0.2330487669
  0.0011312068 -0.0000022650 1.2383999825 -0.0000004973 -0.0000000242 -0.0000000466
  1.0011153221 -0.4596710205 3.6390309334 0.1633753926 -0.7046147585 0.1056701019
  -1.8531155586 0.0007336140 0.0014583170 0.0384743661 -0.0210313350 0.2334486097
  -1.0480568409 -0.0147855282 0.0012036413 0.0431203544 0.0045895693 0.6846182942
  -1.5055364370 -0.0000052452 0.0011805594 0.0000104728 0.7071008682 -0.0000123858
  -0.4064104557 8.1463708878 8.3328666687 0.0000000743 -0.0000006263 -1.0000000000
  20.2612018585 -7.3858242035 4.0929684639 -0.6449532509 -0.0811054185 0.7435560822
  0.0000001788 0.0000104755 -7.0001831055 -0.0000000084 0.0000001136 0.0000000019
  -0.0000020266 0.0000123680 -7.0001869202 -0.0000000079 0.0000001192 0.0000000047
}

