MD5Version 10 // Parameters used during export: Reorient: False; Scale: 1.0
commandline ""

numFrames 20
numJoints 29
frameRate 24
numAnimatedComponents 174

hierarchy {
  "Origin" -1 63 0 //
  "RightShoulder_Dummy" 0 63 6 //
  "RightShoulder" 1 63 12 //
  "RightArm_Dummy" 2 63 18 //
  "RightArm" 3 63 24 //
  "RightArmRoll" 4 63 30 //
  "RightForeArm" 5 63 36 //
  "RightHand" 6 63 42 //
  "RightHandIndex1" 7 63 48 //
  "RightHandIndex2" 8 63 54 //
  "RightHandIndex3" 9 63 60 //
  "RightHandIndex4" 10 63 66 //
  "RightHandRing1" 7 63 72 //
  "RightHandRing2" 12 63 78 //
  "RightHandRing3" 13 63 84 //
  "RightHandRing4" 14 63 90 //
  "RightHandThumb1" 7 63 96 //
  "RightHandThumb2" 16 63 102 //
  "RightHandThumb3" 17 63 108 //
  "RightHandMiddle1" 7 63 114 //
  "RightHandMiddle2" 19 63 120 //
  "RightHandMiddle3" 20 63 126 //
  "RightHandMiddle4" 21 63 132 //
  "RightHandPinky1" 7 63 138 //
  "RightHandPinky2" 23 63 144 //
  "RightHandPinky3" 24 63 150 //
  "RightHandPinky4" 25 63 156 //
  "rightpad" 0 63 162 //
  "Melee" 0 63 168 //
}

bounds {
  ( -1.3818937540 -22.0332183838 -11.1882724762 ) ( 26.3188323975 -5.7942371368 8.1285114288 )
  ( -1.3818937540 -22.0875034332 -9.8859586716 ) ( 25.8202209473 -5.8364129066 8.1253223419 )
  ( -1.3818937540 -21.5801277161 -5.9449424744 ) ( 23.5461101532 -5.7671089172 10.2495288849 )
  ( -1.3818937540 -19.9336624146 -1.8466987610 ) ( 19.8570041656 -0.6401863098 16.3249626160 )
  ( -1.3818937540 -18.7591648102 -0.6885070801 ) ( 18.5698204041 1.4083433151 19.5101089478 )
  ( -1.3818937540 -18.5372772217 0.0483313203 ) ( 19.7424335480 0.2619380951 21.8007545471 )
  ( -1.3818937540 -18.4866828918 0.3517316580 ) ( 21.7759284973 -2.6536512375 24.0634307861 )
  ( -1.3818937540 -18.5199413300 0.3517316580 ) ( 23.8392753601 -4.7371349335 25.4964904785 )
  ( -1.3818937540 -18.5809955597 0.3517316580 ) ( 25.1772842407 -4.8402447701 25.9157066345 )
  ( -1.3818937540 -18.5967788696 0.3517316580 ) ( 25.5937805176 -4.8951554298 25.9322700500 )
  ( -1.3818937540 -18.5949935913 0.3517316580 ) ( 25.1732769012 -4.8439779282 25.8641090393 )
  ( -1.3818937540 -18.5651416779 0.3517316580 ) ( 23.8238773346 -4.7476673126 25.3190002441 )
  ( -1.3818937540 -18.5338973999 0.3517316580 ) ( 21.7462768555 -2.6085610390 23.7800369263 )
  ( -1.3818937540 -18.5679168701 -0.0359584689 ) ( 19.7132377625 0.2978334427 21.5571289062 )
  ( -1.3818937540 -18.7591648102 -0.6885070801 ) ( 18.5698204041 1.4083433151 19.5101089478 )
  ( -1.3818937540 -19.6018295288 -1.7559804916 ) ( 19.2502326965 0.1483545303 17.1040649414 )
  ( -1.3818937540 -21.0311203003 -3.9765872955 ) ( 21.9782180786 -4.1035556793 12.9877738953 )
  ( -1.3818937540 -21.9248466492 -7.8368415833 ) ( 24.6490402222 -5.8453369141 8.1184272766 )
  ( -1.3818937540 -22.0846405029 -10.3769788742 ) ( 26.0205612183 -5.8238649368 8.1268882751 )
  ( -1.3818937540 -22.0332183838 -11.1882724762 ) ( 26.3188323975 -5.7942371368 8.1285114288 )
}

baseframe {
  ( 0.0000000000 0.0000000000 0.0000000000 ) ( -0.7071068287 -0.0000000000 -0.0000000000 )
  ( -0.0186605453 4.5159912109 1.4360997677 ) ( 0.0000280102 0.0000000016 -1.0000000000 )
  ( -2.0367097855 -1.0987091064 0.5481596589 ) ( 0.0000083447 0.0000000002 -0.0000279347 )
  ( 2.5132143497 0.1486579478 3.5487740040 ) ( -0.0000000000 -0.0000000000 -0.0000000000 )
  ( -1.0394111872 1.6535054445 2.9115278721 ) ( -0.0000195275 -0.7070870399 0.0000196410 )
  ( -8.3812847137 0.0000042481 0.0122467289 ) ( -0.0000000199 0.0000001187 -0.0000001589 )
  ( -3.9075412750 0.0000038572 0.0064787311 ) ( -0.0000000000 -0.0000002980 -0.0000000000 )
  ( -9.0582580566 0.0000030984 0.0137990611 ) ( -0.0000195275 0.7071262598 0.0000195286 )
  ( -2.4562108517 -0.4589804113 4.9792232513 ) ( 0.0000195005 -0.7071262598 -0.0000194994 )
  ( -1.4808013439 -0.0000023665 0.0022553869 ) ( 0.0001794795 -0.0001792844 0.1336774677 )
  ( -0.9798917770 -0.0000008648 0.0011381970 ) ( 0.0759933963 0.7029330134 0.0758283958 )
  ( 0.0011322881 -0.0000015907 1.2384006977 ) ( 0.0000000372 0.0000000035 0.0000000379 )
  ( -0.0923869684 -0.4588496685 4.9064965248 ) ( 0.0429671630 -0.7058849931 0.0428026877 )
  ( -1.8562849760 -0.0000013817 0.0025038412 ) ( 0.0001730661 -0.0001778290 0.1480355263 )
  ( -1.0458492041 -0.0000023897 0.0010347852 ) ( 0.0000889879 -0.0001018705 0.1002773046 )
  ( -1.5055357218 -0.0000026549 0.0011810474 ) ( 0.0000114150 0.7071009874 -0.0000114465 )
  ( -2.1882109642 -0.0633600801 2.5236830711 ) ( 0.0967313573 -0.4675333202 0.1567362249 )
  ( -1.6791052818 -0.0000239015 0.0014968514 ) ( 0.0000000014 -0.0000001944 -0.0000000186 )
  ( -1.2707813978 0.0000282526 0.0011651963 ) ( 0.0000001495 0.7071062922 -0.0000001442 )
  ( -1.2061427832 -0.4589325786 6.2291550636 ) ( 0.0000194864 -0.7071262598 -0.0000194854 )
  ( -1.4808018208 -0.0000020948 0.0022557802 ) ( 0.0001794997 -0.0001792818 0.1336775273 )
  ( -0.9798946381 -0.0000022332 0.0011384857 ) ( 0.0759933889 0.7029330134 0.0758283883 )
  ( 0.0011323692 -0.0000017502 1.2384005785 ) ( 0.0000000149 0.0000000035 0.0000000388 )
  ( 0.9575448036 -0.4587714672 3.6564393044 ) ( 0.0429671444 -0.7058849931 0.0428026579 )
  ( -1.8562816381 -0.0000014087 0.0025037199 ) ( 0.0001730594 -0.0001778291 0.1480355561 )
  ( -1.0458487272 -0.0000009410 0.0010346614 ) ( 0.0000889888 -0.0001018699 0.1002773046 )
  ( -1.5055395365 -0.0000035905 0.0011810367 ) ( 0.0000114884 0.7071009874 -0.0000113619 )
  ( -0.4129891396 8.1527709961 8.3131628036 ) ( 0.0000279307 0.0000000016 -1.0000000000 )
  ( 0.0000000000 0.0000000000 0.0000000000 ) ( 0.7071067095 0.0000000000 -0.7071068287 )
}

frame 0 {
  -0.0000000251 -0.0000000089 0.0000013374 -0.7071068287 -0.0000000188 -0.0000000124
  -0.0175175872 4.5148844719 1.4526960850 -0.0000001064 0.0000000004 -1.0000000000
  -2.0376806259 -1.0987175703 0.5451019406 -0.0000000014 -0.0000001751 -0.0000000857
  2.5079936981 0.1487963647 3.5524599552 -0.0000000275 0.0000000224 0.0000000745
  -1.0437760353 1.6534525156 2.9099991322 0.0919475183 -0.6236754656 0.0919475183
  -8.3812913895 0.0000036731 -0.0005167350 0.0000000014 0.0000000036 0.0000001568
  -3.9075496197 0.0000009909 0.0005270541 0.0000004051 0.4231272340 0.5289086699
  -9.0582656860 -0.0000013113 0.0000083447 0.1307646483 0.6702280045 -0.3235573173
  -2.4121787548 -0.4690734744 4.9682669640 0.2278127223 -0.6577842236 0.2557729185
  -1.4861807823 -0.0092604160 0.0023763180 -0.0182543006 0.0115489010 0.4644549489
  -0.9848700166 -0.0127555132 0.0012280047 0.3776761889 0.5943309069 0.4060390890
  0.0011344403 -0.0000020266 1.2383975983 -0.0000005588 0.0000000638 -0.0000000289
  -0.0485565849 -0.4682635963 4.8929109573 0.2945401669 -0.6570017338 0.2687330544
  -1.8586747646 -0.0117373466 0.0021863878 0.0182136633 -0.0123659251 0.5519972444
  -1.0443670750 -0.0123009682 0.0005882531 0.0186417848 -0.0115625458 0.5112479925
  -1.5055371523 -0.0000058562 0.0011833310 0.0000105096 0.7071008682 -0.0000123795
  -2.1457803249 -0.0792678669 2.5121209621 0.0795319006 -0.4358265102 0.3166429698
  -1.6636128426 -0.0215007216 -0.0294201374 -0.1323003173 -0.3390547335 0.1692510098
  -1.2707836628 0.0000313520 0.0011672974 -0.0000000421 0.7071065903 -0.0000001778
  -1.1617157459 -0.4687233567 6.2216267586 0.4803776741 -0.5438483357 0.4272537827
  -1.4778456688 -0.0012516975 0.0014481544 0.0268109776 -0.0268564131 0.2610144913
  -0.9766025543 -0.0043349266 0.0003546178 0.2762081325 0.6432811022 0.2330487967
  0.0011335611 -0.0000023842 1.2383971214 -0.0000005141 -0.0000000009 -0.0000000522
  1.0011165142 -0.4596720040 3.6390306950 0.1633753777 -0.7046147585 0.1056701168
  -1.8531141281 0.0007317066 0.0014575720 0.0384743810 -0.0210312735 0.2334485650
  -1.0480554104 -0.0147867203 0.0012030602 0.0431203507 0.0045896429 0.6846181750
  -1.5055353642 -0.0000061989 0.0011810064 0.0000105077 0.7071008682 -0.0000123911
  -0.4064104557 8.1463708878 8.3328666687 0.0000000743 -0.0000006263 -1.0000000000
  10.4468412399 -10.8969860077 16.7990169525 -0.6769390702 -0.2143609673 0.6505261660
}

frame 1 {
  -0.0000000251 -0.0000000089 0.0000013374 -0.7071068287 -0.0000000188 -0.0000000124
  -0.0175175872 4.5148844719 1.4526960850 -0.0000001064 0.0000000004 -1.0000000000
  -2.0376806259 -1.0987175703 0.5451019406 -0.0000000014 -0.0000001751 -0.0000000857
  2.5079936981 0.1487963647 3.5524599552 -0.0000000275 0.0000000224 0.0000000745
  -1.0437760353 1.6534525156 2.9099991322 0.0714931935 -0.6258484125 0.0763117671
  -8.3812894821 0.0000034869 -0.0005166437 0.0000000019 0.0000000083 0.0000001411
  -3.9075448513 0.0000010580 0.0005264487 0.0000004893 0.5060400367 0.5432368517
  -9.0582647324 -0.0000001192 0.0000081062 0.0764863193 0.6525105834 -0.3606896400
  -2.4121801853 -0.4690732360 4.9682655334 0.2278126925 -0.6577842236 0.2557729781
  -1.4861795902 -0.0092611313 0.0023759604 -0.0182543304 0.0115489019 0.4644549489
  -0.9848712087 -0.0127537251 0.0012265444 0.3776762486 0.5943309665 0.4060391188
  0.0011324883 -0.0000019073 1.2383990288 -0.0000005588 -0.0000000154 -0.0000000000
  -0.0485572368 -0.4682641327 4.8929109573 0.2945400774 -0.6570016146 0.2687330842
  -1.8586757183 -0.0117344856 0.0021864772 0.0182136577 -0.0123659205 0.5519973040
  -1.0443667173 -0.0123009682 0.0005888939 0.0186417978 -0.0115624927 0.5112479329
  -1.5055365562 -0.0000054836 0.0011825562 0.0000105057 0.7071008682 -0.0000123700
  -2.1457819939 -0.0792659819 2.5121200085 0.0795318782 -0.4358264208 0.3166430295
  -1.6636105776 -0.0215006471 -0.0294210240 -0.1323003322 -0.3390546143 0.1692509800
  -1.2707847357 0.0000321865 0.0011665821 -0.0000000606 0.7071065903 -0.0000001897
  -1.1617151499 -0.4687229395 6.2216248512 0.4803776741 -0.5438483357 0.4272537827
  -1.4778438807 -0.0012507439 0.0014455318 0.0268109981 -0.0268564969 0.2610144317
  -0.9766023159 -0.0043354034 0.0003569126 0.2762081623 0.6432811022 0.2330487520
  0.0011336803 -0.0000016689 1.2384009361 -0.0000005253 -0.0000000484 -0.0000000484
  1.0011157990 -0.4596717358 3.6390304565 0.1633753628 -0.7046147585 0.1056701690
  -1.8531150818 0.0007340908 0.0014582276 0.0384743810 -0.0210313685 0.2334486246
  -1.0480570793 -0.0147867203 0.0011999607 0.0431203917 0.0045896005 0.6846181750
  -1.5055351257 -0.0000055432 0.0011824667 0.0000105136 0.7071008682 -0.0000123766
  -0.4064104557 8.1463708878 8.3328666687 0.0000000743 -0.0000006263 -1.0000000000
  11.0390987396 -9.4222021103 15.7645702362 -0.6326584220 -0.2454031408 0.6641119719
}

frame 2 {
  -0.0000000251 -0.0000000089 0.0000013374 -0.7071068287 -0.0000000188 -0.0000000124
  -0.0175175872 4.5148844719 1.4526960850 -0.0000001064 0.0000000004 -1.0000000000
  -2.0376806259 -1.0987175703 0.5451019406 -0.0000000014 -0.0000001751 -0.0000000857
  2.5079936981 0.1487963647 3.5524599552 -0.0000000275 0.0000000224 0.0000000745
  -1.0437760353 1.6534525156 2.9099991322 0.0518184379 -0.6115714312 0.0650205389
  -8.3812923431 0.0000030324 -0.0005164240 -0.0000000003 -0.0000000074 0.0000001392
  -3.9075503349 -0.0000008792 0.0005262361 0.0000006640 0.7513054609 0.4112642109
  -9.0582685471 -0.0000012517 0.0000067949 0.0218355861 0.5182239413 -0.4246232808
  -2.4121792316 -0.4690734148 4.9682664871 0.2278127074 -0.6577842236 0.2557729185
  -1.4861782789 -0.0092605650 0.0023772120 -0.0182543267 0.0115489345 0.4644549191
  -0.9848694801 -0.0127547979 0.0012272596 0.3776762784 0.5943309665 0.4060391784
  0.0011327267 -0.0000013709 1.2383961678 -0.0000005476 0.0000000279 -0.0000000126
  -0.0485558510 -0.4682630301 4.8929109573 0.2945401371 -0.6570017338 0.2687330842
  -1.8586764336 -0.0117390156 0.0021878481 0.0182136539 -0.0123658469 0.5519973040
  -1.0443674326 -0.0123034716 0.0005894899 0.0186418071 -0.0115624452 0.5112479329
  -1.5055365562 -0.0000065565 0.0011817217 0.0000105076 0.7071008682 -0.0000123549
  -2.1457808018 -0.0792669579 2.5121200085 0.0795319229 -0.4358264208 0.3166430295
  -1.6636112928 -0.0215022191 -0.0294209570 -0.1323002875 -0.3390546441 0.1692509800
  -1.2707846165 0.0000325441 0.0011650324 -0.0000001185 0.7071065903 -0.0000002186
  -1.1617147923 -0.4687212110 6.2216248512 0.4803776741 -0.5438483357 0.4272537827
  -1.4778454304 -0.0012527704 0.0014452040 0.0268109720 -0.0268565025 0.2610144317
  -0.9766044021 -0.0043361187 0.0003556609 0.2762081027 0.6432811022 0.2330487072
  0.0011334419 -0.0000020266 1.2383990288 -0.0000005327 -0.0000000298 -0.0000000540
  1.0011167526 -0.4596701264 3.6390311718 0.1633753926 -0.7046147585 0.1056701168
  -1.8531135321 0.0007344102 0.0014587641 0.0384744331 -0.0210313313 0.2334485650
  -1.0480579138 -0.0147876740 0.0012010038 0.0431203917 0.0045895805 0.6846181750
  -1.5055338144 -0.0000051260 0.0011818409 0.0000105208 0.7071008682 -0.0000123489
  -0.4064104557 8.1463708878 8.3328666687 0.0000000743 -0.0000006263 -1.0000000000
  12.6006250381 -5.0575361252 12.8492021561 -0.4965724349 -0.3239748180 0.6829715967
}

frame 3 {
  -0.0000000251 -0.0000000089 0.0000013374 -0.7071068287 -0.0000000188 -0.0000000124
  -0.0175175872 4.5148844719 1.4526960850 -0.0000001064 0.0000000004 -1.0000000000
  -2.0376806259 -1.0987175703 0.5451019406 -0.0000000014 -0.0000001751 -0.0000000857
  2.5079936981 0.1487963647 3.5524599552 -0.0000000275 0.0000000224 0.0000000745
  -1.0437761545 1.6534525156 2.9099991322 0.0683311149 -0.5124975443 0.0753526464
  -8.3812913895 0.0000031888 -0.0005169660 -0.0000000000 0.0000000081 0.0000001439
  -3.9075450897 0.0000011325 0.0005278327 0.0000000777 0.9017881751 -0.0200359616
  -9.0582675934 0.0000006557 0.0000057518 0.2056711763 0.2654639184 -0.4002794623
  -2.4121794701 -0.4690749645 4.9682655334 0.2278127223 -0.6577841640 0.2557729185
  -1.4861786366 -0.0092611313 0.0023773909 -0.0182543155 0.0115489792 0.4644549489
  -0.9848691225 -0.0127546489 0.0012266636 0.3776762486 0.5943309069 0.4060391188
  0.0011327267 -0.0000021309 1.2383990288 -0.0000005573 0.0000000196 -0.0000000039
  -0.0485560298 -0.4682649374 4.8929119110 0.2945401073 -0.6570017338 0.2687330544
  -1.8586758375 -0.0117368102 0.0021873936 0.0182136837 -0.0123659335 0.5519972444
  -1.0443673134 -0.0123007298 0.0005891323 0.0186417960 -0.0115624964 0.5112478733
  -1.5055350065 -0.0000051260 0.0011819005 0.0000105379 0.7071008682 -0.0000123888
  -2.1457815170 -0.0792680979 2.5121214390 0.0795319304 -0.4358264804 0.3166429400
  -1.6636104584 -0.0214998722 -0.0294203758 -0.1323003471 -0.3390546441 0.1692509949
  -1.2707840204 0.0000324845 0.0011658669 -0.0000000645 0.7071065903 -0.0000001449
  -1.1617150307 -0.4687242508 6.2216248512 0.4803777039 -0.5438483357 0.4272538126
  -1.4778445959 -0.0012520254 0.0014461279 0.0268109515 -0.0268564746 0.2610144913
  -0.9766044617 -0.0043359399 0.0003545731 0.2762082219 0.6432811022 0.2330487967
  0.0011331439 -0.0000020266 1.2383992672 -0.0000005229 -0.0000000270 -0.0000000638
  1.0011165142 -0.4596720338 3.6390309334 0.1633754224 -0.7046147585 0.1056701466
  -1.8531141281 0.0007329583 0.0014583468 0.0384743959 -0.0210313331 0.2334484905
  -1.0480579138 -0.0147842206 0.0012012124 0.0431204177 0.0045896149 0.6846181750
  -1.5055364370 -0.0000051260 0.0011816621 0.0000105215 0.7071008682 -0.0000123868
  -0.4064104557 8.1463708878 8.3328666687 0.0000000743 -0.0000006263 -1.0000000000
  14.0803327560 0.2290128767 9.6234045029 -0.3429204226 -0.3918476403 0.6735177040
}

frame 4 {
  -0.0000000251 -0.0000000089 0.0000013374 -0.7071068287 -0.0000000188 -0.0000000124
  -0.0175175872 4.5148844719 1.4526960850 -0.0000001064 0.0000000004 -1.0000000000
  -2.0376806259 -1.0987175703 0.5451019406 -0.0000000014 -0.0000001751 -0.0000000857
  2.5079936981 0.1487963647 3.5524599552 -0.0000000275 0.0000000224 0.0000000745
  -1.0437762737 1.6534525156 2.9099991322 0.0645750463 -0.4257375598 0.0408743769
  -8.3812923431 0.0000034124 -0.0005173981 -0.0000000044 -0.0000000205 0.0000001362
  -3.9075469971 0.0000001341 0.0005264431 -0.0000001932 0.8402571678 -0.2823619843
  -9.0582656860 0.0000007153 0.0000069141 0.4002343714 0.1541357636 -0.3436516225
  -2.4121804237 -0.4690752029 4.9682636261 0.2278126925 -0.6577842236 0.2557729781
  -1.4861800671 -0.0092594624 0.0023764819 -0.0182543751 0.0115489326 0.4644549489
  -0.9848680496 -0.0127533674 0.0012274086 0.3776762187 0.5943308473 0.4060391188
  0.0011334410 -0.0000022650 1.2383979559 -0.0000005516 0.0000000345 0.0000000002
  -0.0485571623 -0.4682643414 4.8929100037 0.2945401371 -0.6570016742 0.2687331140
  -1.8586769104 -0.0117390156 0.0021886826 0.0182136893 -0.0123658609 0.5519971848
  -1.0443682671 -0.0123003721 0.0005881488 0.0186418649 -0.0115624638 0.5112478137
  -1.5055370331 -0.0000050068 0.0011816025 0.0000104928 0.7071008682 -0.0000123516
  -2.1457819939 -0.0792675018 2.5121200085 0.0795318857 -0.4358264208 0.3166430295
  -1.6636110544 -0.0215026140 -0.0294193029 -0.1323002726 -0.3390546441 0.1692509502
  -1.2707852125 0.0000321269 0.0011657476 -0.0000000711 0.7071065903 -0.0000001818
  -1.1617161036 -0.4687237740 6.2216238976 0.4803777337 -0.5438482761 0.4272538126
  -1.4778439999 -0.0012510419 0.0014463663 0.0268109757 -0.0268564839 0.2610144913
  -0.9766054153 -0.0043357611 0.0003548861 0.2762081325 0.6432811022 0.2330488116
  0.0011334419 -0.0000016689 1.2383985519 -0.0000005178 -0.0000000317 -0.0000000363
  1.0011159182 -0.4596722126 3.6390295029 0.1633753628 -0.7046147585 0.1056701988
  -1.8531146049 0.0007374287 0.0014579296 0.0384744257 -0.0210313629 0.2334485948
  -1.0480580330 -0.0147892237 0.0012024343 0.0431204140 0.0045896135 0.6846181750
  -1.5055359602 -0.0000049472 0.0011814237 0.0000105156 0.7071008682 -0.0000123944
  -0.4064104557 8.1463708878 8.3328666687 0.0000000743 -0.0000006263 -1.0000000000
  14.9824457169 3.5817079544 8.3278865814 -0.2861911058 -0.4158309996 0.6587700844
}

frame 5 {
  -0.0000000251 -0.0000000089 0.0000013374 -0.7071068287 -0.0000000188 -0.0000000124
  -0.0175175872 4.5148844719 1.4526960850 -0.0000001064 0.0000000004 -1.0000000000
  -2.0376806259 -1.0987175703 0.5451019406 -0.0000000014 -0.0000001751 -0.0000000857
  2.5079936981 0.1487963647 3.5524599552 -0.0000000275 0.0000000224 0.0000000745
  -1.0437765121 1.6534522772 2.9099991322 0.0870003477 -0.4001377225 -0.0024290790
  -8.3812913895 0.0000035465 -0.0005167127 -0.0000000056 0.0000000128 0.0000001406
  -3.9075477123 0.0000001788 0.0005297363 -0.0000004256 0.7861595154 -0.3257178962
  -9.0582675934 -0.0000000075 0.0000054836 0.4784705043 0.1300005317 -0.3266364932
  -2.4121794701 -0.4690747261 4.9682660103 0.2278126925 -0.6577842236 0.2557729483
  -1.4861798286 -0.0092601776 0.0023770332 -0.0182543341 0.0115489634 0.4644549489
  -0.9848694801 -0.0127557516 0.0012264252 0.3776761889 0.5943309069 0.4060390890
  0.0011320114 -0.0000012815 1.2383983135 -0.0000005527 0.0000000121 -0.0000000027
  -0.0485560894 -0.4682636261 4.8929123878 0.2945401371 -0.6570016742 0.2687330544
  -1.8586759567 -0.0117361546 0.0021865368 0.0182136446 -0.0123658990 0.5519973040
  -1.0443670750 -0.0123037100 0.0005899668 0.0186417885 -0.0115625262 0.5112479925
  -1.5055361986 -0.0000050068 0.0011816025 0.0000104849 0.7071008682 -0.0000123735
  -2.1457810402 -0.0792672634 2.5121212006 0.0795318782 -0.4358264208 0.3166429400
  -1.6636112928 -0.0215001106 -0.0294200182 -0.1323002875 -0.3390546441 0.1692509800
  -1.2707839012 0.0000310242 0.0011653900 -0.0000000606 0.7071065903 -0.0000001488
  -1.1617152691 -0.4687232971 6.2216267586 0.4803776741 -0.5438483357 0.4272537827
  -1.4778448343 -0.0012519360 0.0014458895 0.0268109608 -0.0268564634 0.2610144913
  -0.9766061306 -0.0043359995 0.0003551841 0.2762082219 0.6432811022 0.2330488116
  0.0011318922 -0.0000016689 1.2383996248 -0.0000005141 -0.0000000363 -0.0000000517
  1.0011162758 -0.4596707821 3.6390321255 0.1633753926 -0.7046147585 0.1056701392
  -1.8531159163 0.0007307529 0.0014586449 0.0384743810 -0.0210312866 0.2334485799
  -1.0480570793 -0.0147874355 0.0012015775 0.0431203395 0.0045896699 0.6846182346
  -1.5055372715 -0.0000062287 0.0011817217 0.0000104866 0.7071008682 -0.0000123871
  -0.4064104557 8.1463708878 8.3328666687 0.0000000743 -0.0000006263 -1.0000000000
  15.8554697037 5.3794403076 8.5430088043 -0.3136657178 -0.4239726663 0.6417114139
}

frame 6 {
  -0.0000000251 -0.0000000089 0.0000013374 -0.7071068287 -0.0000000188 -0.0000000124
  -0.0175175872 4.5148844719 1.4526960850 -0.0000001064 0.0000000004 -1.0000000000
  -2.0376806259 -1.0987175703 0.5451019406 -0.0000000014 -0.0000001751 -0.0000000857
  2.5079936981 0.1487963647 3.5524599552 -0.0000000275 0.0000000224 0.0000000745
  -1.0437769890 1.6534520388 2.9099991322 0.1646196097 -0.3806574941 -0.0627489239
  -8.3812894821 0.0000029802 -0.0005164146 0.0000000037 -0.0000000088 0.0000001392
  -3.9075458050 -0.0000011921 0.0005258322 -0.0000001490 0.7710281014 -0.2136166692
  -9.0582656860 0.0000022650 0.0000066757 0.4503158629 0.1413435638 -0.3398704231
  -2.4121804237 -0.4690725803 4.9682641029 0.2278126776 -0.6577842236 0.2557729185
  -1.4861803055 -0.0092620850 0.0023777485 -0.0182543341 0.0115489392 0.4644549489
  -0.9848706722 -0.0127512813 0.0012266636 0.3776761591 0.5943309069 0.4060391188
  0.0011329651 -0.0000025034 1.2383959293 -0.0000005588 0.0000000207 -0.0000000056
  -0.0485574007 -0.4682626724 4.8929114342 0.2945401669 -0.6570017338 0.2687330842
  -1.8586763144 -0.0117367506 0.0021880865 0.0182136428 -0.0123658665 0.5519973040
  -1.0443694592 -0.0123018026 0.0005886555 0.0186417475 -0.0115624499 0.5112479925
  -1.5055348873 -0.0000063181 0.0011820793 0.0000105048 0.7071008682 -0.0000123810
  -2.1457815170 -0.0792663097 2.5121197701 0.0795318931 -0.4358264208 0.3166430295
  -1.6636106968 -0.0214991570 -0.0294215679 -0.1323003322 -0.3390545845 0.1692509651
  -1.2707848549 0.0000336170 0.0011651516 -0.0000001054 0.7071065903 -0.0000001620
  -1.1617162228 -0.4687223434 6.2216243744 0.4803777039 -0.5438483357 0.4272537827
  -1.4778444767 -0.0012501478 0.0014454722 0.0268110055 -0.0268564448 0.2610145509
  -0.9766037464 -0.0043369532 0.0003559217 0.2762081623 0.6432811022 0.2330487370
  0.0011329129 -0.0000014305 1.2383998632 -0.0000005309 -0.0000000325 -0.0000000656
  1.0011160374 -0.4596691132 3.6390306950 0.1633753777 -0.7046147585 0.1056701392
  -1.8531155586 0.0007333755 0.0014589429 0.0384743884 -0.0210313387 0.2334485650
  -1.0480594635 -0.0147844553 0.0012010336 0.0431203507 0.0045895497 0.6846182346
  -1.5055363178 -0.0000042915 0.0011818409 0.0000105014 0.7071008682 -0.0000124029
  -0.4064104557 8.1463708878 8.3328666687 0.0000000743 -0.0000006263 -1.0000000000
  17.0178241730 6.7190284729 9.1529827118 -0.3812975883 -0.4377122521 0.6043342352
}

frame 7 {
  -0.0000000251 -0.0000000089 0.0000013374 -0.7071068287 -0.0000000188 -0.0000000124
  -0.0175175872 4.5148844719 1.4526960850 -0.0000001064 0.0000000004 -1.0000000000
  -2.0376806259 -1.0987175703 0.5451019406 -0.0000000014 -0.0000001751 -0.0000000857
  2.5079936981 0.1487963647 3.5524599552 -0.0000000275 0.0000000224 0.0000000745
  -1.0437773466 1.6534515619 2.9099981785 0.2685789168 -0.3579103053 -0.1216683164
  -8.3812923431 0.0000033379 -0.0005171299 -0.0000000075 0.0000000170 0.0000001467
  -3.9075455666 0.0000002384 0.0005276203 0.0000000475 0.7444707751 -0.0354761817
  -9.0582656860 0.0000000000 0.0000083447 0.3659090102 0.1696887463 -0.3669479787
  -2.4121804237 -0.4690731764 4.9682664871 0.2278127223 -0.6577842832 0.2557729483
  -1.4861786366 -0.0092613697 0.0023753643 -0.0182543155 0.0115489038 0.4644549489
  -0.9848682880 -0.0127559304 0.0012267828 0.3776763678 0.5943308473 0.4060391784
  0.0011337996 -0.0000016689 1.2384035587 -0.0000005718 0.0000000144 -0.0000000107
  -0.0485565662 -0.4682630301 4.8929128647 0.2945401669 -0.6570017338 0.2687330544
  -1.8586777449 -0.0117385983 0.0021869093 0.0182136912 -0.0123659065 0.5519973040
  -1.0443660021 -0.0123033524 0.0005889535 0.0186418127 -0.0115624536 0.5112479925
  -1.5055379868 -0.0000044107 0.0011831522 0.0000104989 0.7071008682 -0.0000123743
  -2.1457819939 -0.0792670250 2.5121214390 0.0795319453 -0.4358264804 0.3166429698
  -1.6636095047 -0.0215010643 -0.0294226408 -0.1323003471 -0.3390546441 0.1692510098
  -1.2707841396 0.0000302792 0.0011663437 -0.0000000896 0.7071065903 -0.0000002160
  -1.1617158651 -0.4687216282 6.2216248512 0.4803776741 -0.5438483357 0.4272537529
  -1.4778455496 -0.0012490749 0.0014450848 0.0268109869 -0.0268564783 0.2610144913
  -0.9766030312 -0.0043333769 0.0003556013 0.2762082815 0.6432809830 0.2330487520
  0.0011335611 -0.0000021458 1.2383993864 -0.0000005090 -0.0000000307 -0.0000000424
  1.0011153221 -0.4596703053 3.6390326023 0.1633754224 -0.7046147585 0.1056701168
  -1.8531137705 0.0007352829 0.0014588237 0.0384743996 -0.0210313071 0.2334485948
  -1.0480561256 -0.0147849023 0.0012033582 0.0431203581 0.0045896140 0.6846182346
  -1.5055378675 -0.0000050068 0.0011829138 0.0000105116 0.7071008682 -0.0000123595
  -0.4064104557 8.1463708878 8.3328666687 0.0000000743 -0.0000006263 -1.0000000000
  18.1732120514 7.4838294983 9.9500322342 -0.4633094370 -0.4498502612 0.5542395115
}

frame 8 {
  -0.0000000251 -0.0000000089 0.0000013374 -0.7071068287 -0.0000000188 -0.0000000124
  -0.0175175872 4.5148844719 1.4526960850 -0.0000001064 0.0000000004 -1.0000000000
  -2.0376806259 -1.0987175703 0.5451019406 -0.0000000014 -0.0000001751 -0.0000000857
  2.5079936981 0.1487963647 3.5524599552 -0.0000000275 0.0000000224 0.0000000745
  -1.0437774658 1.6534510851 2.9099981785 0.3480755687 -0.3372996747 -0.1597206593
  -8.3812913895 0.0000035763 -0.0005172491 -0.0000000000 0.0000000009 0.0000001276
  -3.9075503349 -0.0000007153 0.0005282164 0.0000002310 0.6980856061 0.0968175083
  -9.0582656860 0.0000004768 0.0000061393 0.2918427587 0.1970741749 -0.3877255321
  -2.4121801853 -0.4690750837 4.9682655334 0.2278127372 -0.6577842236 0.2557729483
  -1.4861809015 -0.0092648268 0.0023757219 -0.0182543583 0.0115489485 0.4644548595
  -0.9848685861 -0.0127520561 0.0012263656 0.3776761293 0.5943309665 0.4060391486
  0.0011339188 -0.0000021569 1.2383953333 -0.0000005500 0.0000000291 -0.0000000115
  -0.0485574156 -0.4682652354 4.8929119110 0.2945401371 -0.6570017338 0.2687330246
  -1.8586757183 -0.0117336959 0.0021864772 0.0182136837 -0.0123658804 0.5519972444
  -1.0443675518 -0.0123018026 0.0005897284 0.0186418220 -0.0115624527 0.5112479329
  -1.5055385828 -0.0000053644 0.0011814237 0.0000105002 0.7071008682 -0.0000123739
  -2.1457815170 -0.0792683661 2.5121192932 0.0795319229 -0.4358264208 0.3166429698
  -1.6636104584 -0.0214982033 -0.0294183493 -0.1323003471 -0.3390546441 0.1692509502
  -1.2707853317 0.0000319481 0.0011653900 -0.0000000685 0.7071065903 -0.0000001739
  -1.1617162228 -0.4687232375 6.2216253281 0.4803776741 -0.5438483357 0.4272537827
  -1.4778441191 -0.0012495816 0.0014462844 0.0268109739 -0.0268564615 0.2610144317
  -0.9766034484 -0.0043362379 0.0003548861 0.2762081921 0.6432811022 0.2330487221
  0.0011339188 -0.0000030994 1.2383996248 -0.0000005205 -0.0000000307 -0.0000000447
  1.0011163950 -0.4596717656 3.6390292645 0.1633753926 -0.7046147585 0.1056701168
  -1.8531167507 0.0007342100 0.0014576316 0.0384743847 -0.0210313164 0.2334485799
  -1.0480588675 -0.0147892237 0.0012018085 0.0431203917 0.0045896773 0.6846181750
  -1.5055345297 -0.0000039935 0.0011824965 0.0000104899 0.7071008682 -0.0000123786
  -0.4064104557 8.1463708878 8.3328666687 0.0000000743 -0.0000006263 -1.0000000000
  18.9610633850 7.7704224586 10.5752286911 -0.5232723355 -0.4557867944 0.5128667951
}

frame 9 {
  -0.0000000251 -0.0000000089 0.0000013374 -0.7071068287 -0.0000000188 -0.0000000124
  -0.0175175872 4.5148844719 1.4526960850 -0.0000001064 0.0000000004 -1.0000000000
  -2.0376806259 -1.0987175703 0.5451019406 -0.0000000014 -0.0000001751 -0.0000000857
  2.5079936981 0.1487963647 3.5524599552 -0.0000000275 0.0000000224 0.0000000745
  -1.0437775850 1.6534510851 2.9099981785 0.3754908144 -0.3296043575 -0.1716485769
  -8.3812913895 0.0000038147 -0.0005168915 0.0000000037 -0.0000000065 0.0000001378
  -3.9075493813 0.0000000000 0.0005258322 0.0000002421 0.6763972044 0.1401735842
  -9.0582656860 0.0000009537 0.0000064373 0.2652206123 0.2077876776 -0.3946870565
  -2.4121809006 -0.4690747559 4.9682664871 0.2278127223 -0.6577842236 0.2557729483
  -1.4861779213 -0.0092580914 0.0023775995 -0.0182543527 0.0115489271 0.4644548595
  -0.9848688841 -0.0127561688 0.0012259334 0.3776762187 0.5943309069 0.4060391486
  0.0011339784 -0.0000031590 1.2383991480 -0.0000005488 0.0000000306 -0.0000000105
  -0.0485580564 -0.4682644010 4.8929119110 0.2945401371 -0.6570016742 0.2687330544
  -1.8586740494 -0.0117337406 0.0021874905 0.0182136483 -0.0123658618 0.5519972444
  -1.0443710089 -0.0123012066 0.0005887970 0.0186417513 -0.0115624508 0.5112479329
  -1.5055338144 -0.0000038147 0.0011816323 0.0000104980 0.7071008682 -0.0000123853
  -2.1457827091 -0.0792673305 2.5121212006 0.0795319080 -0.4358264804 0.3166429698
  -1.6636114120 -0.0215020180 -0.0294226408 -0.1323003918 -0.3390546441 0.1692509949
  -1.2707843781 0.0000319481 0.0011677742 -0.0000000211 0.7071065903 -0.0000001528
  -1.1617180109 -0.4687237144 6.2216253281 0.4803776741 -0.5438483357 0.4272537827
  -1.4778449535 -0.0012522936 0.0014445782 0.0268110018 -0.0268564392 0.2610143423
  -0.9766055346 -0.0043359995 0.0003556050 0.2762081623 0.6432810426 0.2330487072
  0.0011327863 -0.0000033379 1.2383997440 -0.0000005257 -0.0000000317 -0.0000000484
  1.0011141300 -0.4596718550 3.6390304565 0.1633753926 -0.7046147585 0.1056701392
  -1.8531143665 0.0007334948 0.0014573336 0.0384743735 -0.0210313294 0.2334485948
  -1.0480561256 -0.0147856474 0.0012021065 0.0431203432 0.0045896242 0.6846182346
  -1.5055367947 -0.0000057817 0.0011820793 0.0000105080 0.7071008682 -0.0000123812
  -0.4064104557 8.1463708878 8.3328666687 0.0000000743 -0.0000006263 -1.0000000000
  19.2213840485 7.8191180229 10.7970714569 -0.5435926914 -0.4571828544 0.4978034794
}

frame 10 {
  -0.0000000251 -0.0000000089 0.0000013374 -0.7071068287 -0.0000000188 -0.0000000124
  -0.0175175872 4.5148844719 1.4526960850 -0.0000001064 0.0000000004 -1.0000000000
  -2.0376806259 -1.0987175703 0.5451019406 -0.0000000014 -0.0000001751 -0.0000000857
  2.5079936981 0.1487963647 3.5524599552 -0.0000000275 0.0000000224 0.0000000745
  -1.0437774658 1.6534510851 2.9099981785 0.3482955694 -0.3384438753 -0.1589985341
  -8.3812913895 0.0000042915 -0.0005164146 -0.0000000000 -0.0000000005 0.0000001471
  -3.9075453281 -0.0000002384 0.0005308390 0.0000001736 0.6990902424 0.0987559855
  -9.0582656860 0.0000009537 0.0000055432 0.2902276814 0.1979151964 -0.3884279430
  -2.4121804237 -0.4690747261 4.9682655334 0.2278127223 -0.6577842236 0.2557729483
  -1.4861782789 -0.0092625618 0.0023772717 -0.0182543416 0.0115489168 0.4644549191
  -0.9848691225 -0.0127534866 0.0012272596 0.3776761889 0.5943309069 0.4060392082
  0.0011346042 -0.0000030585 1.2383962870 -0.0000005264 0.0000000272 -0.0000000118
  -0.0485567153 -0.4682631493 4.8929114342 0.2945401371 -0.6570017338 0.2687330842
  -1.8586742878 -0.0117348209 0.0021875799 0.0182136539 -0.0123658394 0.5519973040
  -1.0443673134 -0.0123016238 0.0005888641 0.0186418127 -0.0115624042 0.5112479329
  -1.5055382252 -0.0000045300 0.0011799335 0.0000105049 0.7071008682 -0.0000123804
  -2.1457810402 -0.0792678893 2.5121202469 0.0795319080 -0.4358264208 0.3166430295
  -1.6636104584 -0.0215010643 -0.0294194221 -0.1323003471 -0.3390546441 0.1692509800
  -1.2707843781 0.0000329018 0.0011677742 -0.0000000263 0.7071065903 -0.0000001897
  -1.1617164612 -0.4687235653 6.2216248512 0.4803776741 -0.5438482761 0.4272537827
  -1.4778443575 -0.0012499690 0.0014460906 0.0268109739 -0.0268565007 0.2610143423
  -0.9766044617 -0.0043374300 0.0003550947 0.2762081623 0.6432811618 0.2330486625
  0.0011323690 -0.0000022650 1.2384008169 -0.0000005320 -0.0000000279 -0.0000000549
  1.0011150837 -0.4596708715 3.6390326023 0.1633753777 -0.7046147585 0.1056701392
  -1.8531132936 0.0007329881 0.0014602244 0.0384743959 -0.0210313648 0.2334485650
  -1.0480589867 -0.0147850513 0.0012021065 0.0431203991 0.0045895372 0.6846182346
  -1.5055372715 -0.0000050068 0.0011820793 0.0000105063 0.7071008682 -0.0000123865
  -0.4064104557 8.1463708878 8.3328666687 0.0000000743 -0.0000006263 -1.0000000000
  18.9520149231 7.7200546265 10.5743827820 -0.5231741667 -0.4556912482 0.5131224990
}

frame 11 {
  -0.0000000251 -0.0000000089 0.0000013374 -0.7071068287 -0.0000000188 -0.0000000124
  -0.0175175872 4.5148844719 1.4526960850 -0.0000001064 0.0000000004 -1.0000000000
  -2.0376806259 -1.0987175703 0.5451019406 -0.0000000014 -0.0000001751 -0.0000000857
  2.5079936981 0.1487963647 3.5524599552 -0.0000000275 0.0000000224 0.0000000745
  -1.0437773466 1.6534515619 2.9099981785 0.2693777382 -0.3614352345 -0.1189287007
  -8.3812923431 0.0000040531 -0.0005176067 0.0000000075 0.0000000007 0.0000001467
  -3.9075472355 -0.0000007153 0.0005278587 0.0000000295 0.7485735416 -0.0288976636
  -9.0582666397 -0.0000004768 0.0000095367 0.3598041534 0.1725281775 -0.3694293499
  -2.4121797085 -0.4690755606 4.9682674408 0.2278127074 -0.6577841640 0.2557729185
  -1.4861805439 -0.0092618465 0.0023777485 -0.0182543527 0.0115489969 0.4644549191
  -0.9848697186 -0.0127561688 0.0012269020 0.3776762187 0.5943309069 0.4060391188
  0.0011333227 -0.0000019073 1.2383985519 -0.0000005597 0.0000000182 -0.0000000182
  -0.0485566854 -0.4682645798 4.8929104805 0.2945401669 -0.6570016742 0.2687330842
  -1.8586772680 -0.0117364526 0.0021870211 0.0182136465 -0.0123658888 0.5519973040
  -1.0443665981 -0.0123019218 0.0005891323 0.0186417811 -0.0115624797 0.5112479329
  -1.5055352449 -0.0000048280 0.0011817217 0.0000105041 0.7071008682 -0.0000123788
  -2.1457808018 -0.0792679787 2.5121212006 0.0795319229 -0.4358264804 0.3166429996
  -1.6636121273 -0.0215005875 -0.0294195414 -0.1323003024 -0.3390547037 0.1692510247
  -1.2707831860 0.0000329018 0.0011658669 -0.0000000474 0.7071065903 -0.0000001475
  -1.1617155075 -0.4687232971 6.2216272354 0.4803776145 -0.5438483357 0.4272537827
  -1.4778449535 -0.0012495592 0.0014449954 0.0268109664 -0.0268564746 0.2610144019
  -0.9766069651 -0.0043381453 0.0003558397 0.2762081623 0.6432811022 0.2330486923
  0.0011326075 -0.0000028610 1.2383980751 -0.0000005192 -0.0000000317 -0.0000000554
  1.0011162758 -0.4596718550 3.6390316486 0.1633753926 -0.7046147585 0.1056701243
  -1.8531143665 0.0007338524 0.0014585406 0.0384743884 -0.0210313518 0.2334485650
  -1.0480574369 -0.0147873163 0.0012011528 0.0431204028 0.0045895907 0.6846181750
  -1.5055332184 -0.0000077486 0.0011808872 0.0000105116 0.7071008682 -0.0000124247
  -0.4064104557 8.1463708878 8.3328666687 0.0000000743 -0.0000006263 -1.0000000000
  18.1423435211 7.3132162094 9.9476785660 -0.4629165530 -0.4494972229 0.5551012754
}

frame 12 {
  -0.0000000251 -0.0000000089 0.0000013374 -0.7071068287 -0.0000000188 -0.0000000124
  -0.0175175872 4.5148844719 1.4526960850 -0.0000001064 0.0000000004 -1.0000000000
  -2.0376806259 -1.0987175703 0.5451019406 -0.0000000014 -0.0000001751 -0.0000000857
  2.5079936981 0.1487963647 3.5524599552 -0.0000000275 0.0000000224 0.0000000745
  -1.0437769890 1.6534520388 2.9099991322 0.1659979373 -0.3853635192 -0.0579985753
  -8.3812904358 0.0000034571 -0.0005160570 -0.0000000037 -0.0000000033 0.0000001541
  -3.9075474739 0.0000007153 0.0005269051 -0.0000002009 0.7790152431 -0.2026054263
  -9.0582656860 0.0000008345 0.0000090599 0.4390696883 0.1460886896 -0.3438356817
  -2.4121789932 -0.4690740108 4.9682650566 0.2278126925 -0.6577842236 0.2557729185
  -1.4861785173 -0.0092608929 0.0023765564 -0.0182543155 0.0115489149 0.4644548595
  -0.9848692417 -0.0127527714 0.0012266636 0.3776761889 0.5943309069 0.4060391486
  0.0011337996 -0.0000029802 1.2383964062 -0.0000005485 0.0000000270 -0.0000000177
  -0.0485556126 -0.4682633877 4.8929109573 0.2945401371 -0.6570017338 0.2687330842
  -1.8586736917 -0.0117344856 0.0021871328 0.0182137080 -0.0123658646 0.5519973040
  -1.0443682671 -0.0123031139 0.0005888045 0.0186418127 -0.0115624461 0.5112479925
  -1.5055341721 -0.0000056028 0.0011822581 0.0000104815 0.7071008682 -0.0000123800
  -2.1457800865 -0.0792672634 2.5121204853 0.0795319304 -0.4358264208 0.3166429102
  -1.6636109352 -0.0215008259 -0.0294220448 -0.1323003024 -0.3390546441 0.1692510098
  -1.2707843781 0.0000310540 0.0011649132 -0.0000001041 0.7071065903 -0.0000001594
  -1.1617143154 -0.4687225819 6.2216243744 0.4803776741 -0.5438483953 0.4272538126
  -1.4778436422 -0.0012483001 0.0014469624 0.0268110018 -0.0268564820 0.2610144317
  -0.9766061306 -0.0043359995 0.0003530532 0.2762082517 0.6432810426 0.2330487520
  0.0011325814 -0.0000030994 1.2383995056 -0.0000005187 -0.0000000294 -0.0000000702
  1.0011173487 -0.4596710205 3.6390304565 0.1633754224 -0.7046147585 0.1056701392
  -1.8531153202 0.0007317066 0.0014578700 0.0384743661 -0.0210313033 0.2334485501
  -1.0480579138 -0.0147874355 0.0012013316 0.0431203432 0.0045896331 0.6846181750
  -1.5055359602 -0.0000057220 0.0011816025 0.0000104849 0.7071008682 -0.0000123940
  -0.4064104557 8.1463708878 8.3328666687 0.0000000743 -0.0000006263 -1.0000000000
  16.9696903229 6.4529743195 9.1505661011 -0.3805755377 -0.4371011257 0.6056419015
}

frame 13 {
  -0.0000000251 -0.0000000089 0.0000013374 -0.7071068287 -0.0000000188 -0.0000000124
  -0.0175175872 4.5148844719 1.4526960850 -0.0000001064 0.0000000004 -1.0000000000
  -2.0376806259 -1.0987175703 0.5451019406 -0.0000000014 -0.0000001751 -0.0000000857
  2.5079936981 0.1487963647 3.5524599552 -0.0000000275 0.0000000224 0.0000000745
  -1.0437765121 1.6534522772 2.9099991322 0.0881946534 -0.4035575986 0.0016603864
  -8.3812904358 0.0000034869 -0.0005159974 -0.0000000019 0.0000000219 0.0000001378
  -3.9075443745 -0.0000001192 0.0005279779 -0.0000002291 0.7941751480 -0.3140863776
  -9.0582666397 0.0000002980 0.0000081062 0.4665166140 0.1350841969 -0.3299807608
  -2.4121804237 -0.4690737724 4.9682641029 0.2278126925 -0.6577842236 0.2557729483
  -1.4861781597 -0.0092601776 0.0023767948 -0.0182543639 0.0115489122 0.4644549489
  -0.9848690033 -0.0127553642 0.0012265444 0.3776761591 0.5943308473 0.4060391486
  0.0011335611 -0.0000033528 1.2384010553 -0.0000005465 0.0000000265 0.0000000014
  -0.0485564470 -0.4682631493 4.8929100037 0.2945401073 -0.6570016742 0.2687330842
  -1.8586752415 -0.0117356777 0.0021883249 0.0182136577 -0.0123658897 0.5519973040
  -1.0443673134 -0.0123006105 0.0005886555 0.0186418109 -0.0115624638 0.5112479329
  -1.5055342913 -0.0000042915 0.0011818409 0.0000104928 0.7071008682 -0.0000123865
  -2.1457810402 -0.0792670250 2.5121192932 0.0795319229 -0.4358264208 0.3166429400
  -1.6636115313 -0.0215013027 -0.0294208527 -0.1323002726 -0.3390545845 0.1692510247
  -1.2707849741 0.0000333190 0.0011661053 -0.0000000711 0.7071065903 -0.0000001567
  -1.1617156267 -0.4687235355 6.2216248512 0.4803777039 -0.5438483357 0.4272538126
  -1.4778459072 -0.0012522936 0.0014466047 0.0268109832 -0.0268564560 0.2610144913
  -0.9766044617 -0.0043356419 0.0003560781 0.2762081623 0.6432811618 0.2330488563
  0.0011329651 -0.0000023842 1.2383984327 -0.0000005178 -0.0000000242 -0.0000000231
  1.0011161566 -0.4596700668 3.6390306950 0.1633754075 -0.7046147585 0.1056700870
  -1.8531131744 0.0007340908 0.0014582872 0.0384743735 -0.0210312735 0.2334485203
  -1.0480579138 -0.0147879720 0.0012013167 0.0431203023 0.0045896475 0.6846181154
  -1.5055360794 -0.0000056624 0.0011819601 0.0000105037 0.7071008682 -0.0000124082
  -0.4064104557 8.1463708878 8.3328666687 0.0000000743 -0.0000006263 -1.0000000000
  15.8145885468 5.1545701027 8.5418872833 -0.3129948974 -0.4234153926 0.6427741647
}

frame 14 {
  -0.0000000251 -0.0000000089 0.0000013374 -0.7071068287 -0.0000000188 -0.0000000124
  -0.0175175872 4.5148844719 1.4526960850 -0.0000001064 0.0000000004 -1.0000000000
  -2.0376806259 -1.0987175703 0.5451019406 -0.0000000014 -0.0000001751 -0.0000000857
  2.5079936981 0.1487963647 3.5524599552 -0.0000000275 0.0000000224 0.0000000745
  -1.0437762737 1.6534525156 2.9099991322 0.0645750463 -0.4257375598 0.0408743769
  -8.3812923431 0.0000034124 -0.0005173981 -0.0000000044 -0.0000000205 0.0000001362
  -3.9075469971 0.0000001341 0.0005264431 -0.0000001932 0.8402571678 -0.2823619843
  -9.0582656860 0.0000007153 0.0000069141 0.4002343714 0.1541357636 -0.3436516225
  -2.4121804237 -0.4690752029 4.9682636261 0.2278126925 -0.6577842236 0.2557729781
  -1.4861800671 -0.0092594624 0.0023764819 -0.0182543751 0.0115489326 0.4644549489
  -0.9848680496 -0.0127533674 0.0012274086 0.3776762187 0.5943308473 0.4060391188
  0.0011334410 -0.0000022650 1.2383979559 -0.0000005516 0.0000000345 0.0000000002
  -0.0485571623 -0.4682643414 4.8929100037 0.2945401371 -0.6570016742 0.2687331140
  -1.8586769104 -0.0117390156 0.0021886826 0.0182136893 -0.0123658609 0.5519971848
  -1.0443682671 -0.0123003721 0.0005881488 0.0186418649 -0.0115624638 0.5112478137
  -1.5055370331 -0.0000050068 0.0011816025 0.0000104928 0.7071008682 -0.0000123516
  -2.1457819939 -0.0792675018 2.5121200085 0.0795318857 -0.4358264208 0.3166430295
  -1.6636110544 -0.0215026140 -0.0294193029 -0.1323002726 -0.3390546441 0.1692509502
  -1.2707852125 0.0000321269 0.0011657476 -0.0000000711 0.7071065903 -0.0000001818
  -1.1617161036 -0.4687237740 6.2216238976 0.4803777337 -0.5438482761 0.4272538126
  -1.4778439999 -0.0012510419 0.0014463663 0.0268109757 -0.0268564839 0.2610144913
  -0.9766054153 -0.0043357611 0.0003548861 0.2762081325 0.6432811022 0.2330488116
  0.0011334419 -0.0000016689 1.2383985519 -0.0000005178 -0.0000000317 -0.0000000363
  1.0011159182 -0.4596722126 3.6390295029 0.1633753628 -0.7046147585 0.1056701988
  -1.8531146049 0.0007374287 0.0014579296 0.0384744257 -0.0210313629 0.2334485948
  -1.0480580330 -0.0147892237 0.0012024343 0.0431204140 0.0045896135 0.6846181750
  -1.5055359602 -0.0000049472 0.0011814237 0.0000105156 0.7071008682 -0.0000123944
  -0.4064104557 8.1463708878 8.3328666687 0.0000000743 -0.0000006263 -1.0000000000
  14.9824457169 3.5817079544 8.3278865814 -0.2861911058 -0.4158309996 0.6587700844
}

frame 15 {
  -0.0000000251 -0.0000000089 0.0000013374 -0.7071068287 -0.0000000188 -0.0000000124
  -0.0175175872 4.5148844719 1.4526960850 -0.0000001064 0.0000000004 -1.0000000000
  -2.0376806259 -1.0987175703 0.5451019406 -0.0000000014 -0.0000001751 -0.0000000857
  2.5079936981 0.1487963647 3.5524599552 -0.0000000275 0.0000000224 0.0000000745
  -1.0437761545 1.6534525156 2.9099991322 0.0685810000 -0.4891977012 0.0705017895
  -8.3812904358 0.0000030398 -0.0005160794 -0.0000000028 -0.0000000156 0.0000001374
  -3.9075477123 0.0000008941 0.0005286708 -0.0000000260 0.8987262845 -0.0892862976
  -9.0582675934 0.0000003576 0.0000056475 0.2467407733 0.2312427908 -0.3878811002
  -2.4121794701 -0.4690742493 4.9682679176 0.2278127819 -0.6577842832 0.2557729185
  -1.4861800671 -0.0092595816 0.0023775101 -0.0182542894 0.0115489513 0.4644549191
  -0.9848682880 -0.0127543211 0.0012259483 0.3776763082 0.5943308473 0.4060391486
  0.0011330843 -0.0000026524 1.2383998632 -0.0000005409 0.0000000130 -0.0000000148
  -0.0485564470 -0.4682633877 4.8929123878 0.2945401967 -0.6570017338 0.2687330544
  -1.8586765528 -0.0117373466 0.0021876097 0.0182136651 -0.0123658394 0.5519973040
  -1.0443689823 -0.0123023391 0.0005892664 0.0186418016 -0.0115624182 0.5112480521
  -1.5055382252 -0.0000058413 0.0011820495 0.0000105007 0.7071008682 -0.0000123634
  -2.1457810402 -0.0792670250 2.5121212006 0.0795319527 -0.4358264804 0.3166429996
  -1.6636121273 -0.0215017796 -0.0294218063 -0.1323002726 -0.3390545845 0.1692510247
  -1.2707839012 0.0000333786 0.0011662245 -0.0000001120 0.7071065903 -0.0000002134
  -1.1617152691 -0.4687225819 6.2216253281 0.4803777039 -0.5438483357 0.4272538424
  -1.4778447151 -0.0012537092 0.0014464259 0.0268109925 -0.0268564560 0.2610144317
  -0.9766050577 -0.0043356419 0.0003554663 0.2762081325 0.6432810426 0.2330486476
  0.0011334047 -0.0000020266 1.2383980751 -0.0000005215 -0.0000000272 -0.0000000397
  1.0011160374 -0.4596706629 3.6390321255 0.1633754671 -0.7046147585 0.1056701094
  -1.8531148434 0.0007331967 0.0014583766 0.0384743363 -0.0210313126 0.2334485650
  -1.0480573177 -0.0147866011 0.0012017488 0.0431203432 0.0045896200 0.6846181750
  -1.5055335760 -0.0000052154 0.0011819005 0.0000105208 0.7071008682 -0.0000124280
  -0.4064104557 8.1463708878 8.3328666687 0.0000000743 -0.0000006263 -1.0000000000
  14.2427968979 1.0538200140 9.1626501083 -0.3218326867 -0.4000921547 0.6697631478
}

frame 16 {
  -0.0000000251 -0.0000000089 0.0000013374 -0.7071068287 -0.0000000188 -0.0000000124
  -0.0175175872 4.5148844719 1.4526960850 -0.0000001064 0.0000000004 -1.0000000000
  -2.0376806259 -1.0987175703 0.5451019406 -0.0000000014 -0.0000001751 -0.0000000857
  2.5079936981 0.1487963647 3.5524599552 -0.0000000275 0.0000000224 0.0000000745
  -1.0437760353 1.6534525156 2.9099991322 0.0575864501 -0.5849858522 0.0727345124
  -8.3812913895 0.0000030994 -0.0005160253 0.0000000012 -0.0000000079 0.0000001309
  -3.9075481892 0.0000000298 0.0005266713 0.0000004988 0.8462870717 0.2633404136
  -9.0582675934 -0.0000002086 0.0000077933 0.0595550016 0.4195608795 -0.4295227230
  -2.4121792316 -0.4690751731 4.9682664871 0.2278126478 -0.6577842236 0.2557728887
  -1.4861799479 -0.0092605725 0.0023761392 -0.0182543099 0.0115488786 0.4644548297
  -0.9848693013 -0.0127531141 0.0012273192 0.3776761591 0.5943307877 0.4060390890
  0.0011327863 -0.0000034422 1.2383978367 -0.0000005555 0.0000000214 -0.0000000159
  -0.0485561490 -0.4682644010 4.8929123878 0.2945401371 -0.6570017338 0.2687330842
  -1.8586745262 -0.0117349485 0.0021876097 0.0182136819 -0.0123659084 0.5519971848
  -1.0443675518 -0.0123023987 0.0005884171 0.0186418016 -0.0115624797 0.5112479329
  -1.5055361986 -0.0000049174 0.0011817217 0.0000105090 0.7071008682 -0.0000123911
  -2.1457808018 -0.0792675614 2.5121209621 0.0795318931 -0.4358264208 0.3166430295
  -1.6636121273 -0.0215009451 -0.0294203758 -0.1323002875 -0.3390546441 0.1692510098
  -1.2707853317 0.0000320077 0.0011664927 -0.0000000915 0.7071065903 -0.0000001778
  -1.1617151499 -0.4687227309 6.2216262817 0.4803776741 -0.5438483357 0.4272537827
  -1.4778442383 -0.0012523532 0.0014465153 0.0268109981 -0.0268564690 0.2610144317
  -0.9766057730 -0.0043369830 0.0003542602 0.2762081921 0.6432810426 0.2330486923
  0.0011336803 -0.0000013709 1.2383985519 -0.0000005178 -0.0000000261 -0.0000000494
  1.0011166334 -0.4596717358 3.6390323639 0.1633754224 -0.7046147585 0.1056701168
  -1.8531140089 0.0007344633 0.0014581680 0.0384743810 -0.0210313387 0.2334485501
  -1.0480580330 -0.0147855580 0.0012014508 0.0431203432 0.0045895982 0.6846181750
  -1.5055366755 -0.0000048280 0.0011821389 0.0000105129 0.7071008682 -0.0000123884
  -0.4064104557 8.1463708878 8.3328666687 0.0000000743 -0.0000006263 -1.0000000000
  13.1936702728 -2.9306497574 11.4502153397 -0.4292818606 -0.3558300138 0.6824485660
}

frame 17 {
  -0.0000000251 -0.0000000089 0.0000013374 -0.7071068287 -0.0000000188 -0.0000000124
  -0.0175175872 4.5148844719 1.4526960850 -0.0000001064 0.0000000004 -1.0000000000
  -2.0376806259 -1.0987175703 0.5451019406 -0.0000000014 -0.0000001751 -0.0000000857
  2.5079936981 0.1487963647 3.5524599552 -0.0000000275 0.0000000224 0.0000000745
  -1.0437760353 1.6534525156 2.9099991322 0.0539970808 -0.6230236888 0.0640371665
  -8.3812894821 0.0000033826 -0.0005168738 -0.0000000010 0.0000000015 0.0000001446
  -3.9075524807 -0.0000005960 0.0005272045 0.0000005398 0.6359196901 0.5095194578
  -9.0582656860 -0.0000013113 0.0000063777 0.0206744391 0.5985074043 -0.4020729661
  -2.4121799469 -0.4690743685 4.9682650566 0.2278127074 -0.6577842236 0.2557729185
  -1.4861803055 -0.0092604160 0.0023771636 -0.0182543397 0.0115489056 0.4644548297
  -0.9848693013 -0.0127545595 0.0012273788 0.3776761889 0.5943307877 0.4060391486
  0.0011335313 -0.0000016689 1.2383991480 -0.0000005681 0.0000000307 -0.0000000224
  -0.0485564470 -0.4682643414 4.8929095268 0.2945401371 -0.6570017338 0.2687331140
  -1.8586757183 -0.0117360353 0.0021870136 0.0182136912 -0.0123658786 0.5519973040
  -1.0443694592 -0.0123012066 0.0005887449 0.0186418220 -0.0115624545 0.5112480521
  -1.5055357218 -0.0000050068 0.0011820793 0.0000104997 0.7071008682 -0.0000123700
  -2.1457819939 -0.0792674124 2.5121202469 0.0795318931 -0.4358264208 0.3166430295
  -1.6636123657 -0.0215014219 -0.0294215679 -0.1323003322 -0.3390546441 0.1692510098
  -1.2707833052 0.0000323057 0.0011669248 -0.0000000336 0.7071065903 -0.0000001864
  -1.1617163420 -0.4687232971 6.2216238976 0.4803776443 -0.5438483357 0.4272537827
  -1.4778430462 -0.0012522936 0.0014452934 0.0268109851 -0.0268565193 0.2610144019
  -0.9766041636 -0.0043346882 0.0003532171 0.2762080431 0.6432811618 0.2330487072
  0.0011336207 0.0000000000 1.2384001017 -0.0000005402 -0.0000000242 -0.0000000633
  1.0011156797 -0.4596717358 3.6390297413 0.1633753777 -0.7046147585 0.1056701615
  -1.8531146049 0.0007331967 0.0014579892 0.0384744294 -0.0210313052 0.2334485948
  -1.0480573177 -0.0147874355 0.0012017488 0.0431203805 0.0045896955 0.6846182346
  -1.5055372715 -0.0000050664 0.0011801720 0.0000104918 0.7071008682 -0.0000123805
  -0.4064104557 8.1463708878 8.3328666687 0.0000000743 -0.0000006263 -1.0000000000
  11.8706979752 -7.1319966316 14.1847209930 -0.5602545738 -0.2899143398 0.6778503060
}

frame 18 {
  -0.0000000251 -0.0000000089 0.0000013374 -0.7071068287 -0.0000000188 -0.0000000124
  -0.0175175872 4.5148844719 1.4526960850 -0.0000001064 0.0000000004 -1.0000000000
  -2.0376806259 -1.0987175703 0.5451019406 -0.0000000014 -0.0000001751 -0.0000000857
  2.5079936981 0.1487963647 3.5524599552 -0.0000000275 0.0000000224 0.0000000745
  -1.0437760353 1.6534525156 2.9099991322 0.0780902132 -0.6254456639 0.0813854858
  -8.3812923431 0.0000032559 -0.0005161725 -0.0000000009 0.0000000063 0.0000001389
  -3.9075441360 0.0000019744 0.0005266797 0.0000003869 0.4746454656 0.5423869491
  -9.0582656860 0.0000003576 0.0000078678 0.0937539712 0.6615471244 -0.3478343189
  -2.4121804237 -0.4690750837 4.9682655334 0.2278126776 -0.6577841640 0.2557729483
  -1.4861812592 -0.0092613697 0.0023763180 -0.0182543434 0.0115489038 0.4644549191
  -0.9848691225 -0.0127559900 0.0012265444 0.3776761591 0.5943309665 0.4060390294
  0.0011332631 -0.0000030994 1.2383999825 -0.0000005327 0.0000000349 -0.0000000140
  -0.0485569239 -0.4682658911 4.8929109573 0.2945401073 -0.6570016146 0.2687330842
  -1.8586764336 -0.0117392540 0.0021865368 0.0182136819 -0.0123658776 0.5519973040
  -1.0443685055 -0.0123009682 0.0005885959 0.0186418202 -0.0115624825 0.5112479329
  -1.5055344105 -0.0000054389 0.0011826754 0.0000105053 0.7071008682 -0.0000123766
  -2.1457824707 -0.0792680979 2.5121200085 0.0795318782 -0.4358264506 0.3166429996
  -1.6636110544 -0.0215023160 -0.0294206142 -0.1323003322 -0.3390547037 0.1692510396
  -1.2707830667 0.0000327826 0.0011653900 -0.0000000738 0.7071065903 -0.0000002002
  -1.1617165804 -0.4687222242 6.2216253281 0.4803776741 -0.5438483953 0.4272538424
  -1.4778425694 -0.0012514591 0.0014458187 0.0268109925 -0.0268564988 0.2610144317
  -0.9766062498 -0.0043387413 0.0003553033 0.2762081623 0.6432810426 0.2330486476
  0.0011323690 -0.0000009537 1.2383995056 -0.0000005178 -0.0000000671 -0.0000000447
  1.0011162758 -0.4596723914 3.6390306950 0.1633754075 -0.7046147585 0.1056701764
  -1.8531155586 0.0007340908 0.0014572442 0.0384743661 -0.0210313201 0.2334485203
  -1.0480582714 -0.0147852898 0.0012014508 0.0431203581 0.0045895674 0.6846181750
  -1.5055336952 -0.0000054240 0.0011820197 0.0000105011 0.7071008682 -0.0000123740
  -0.4064104557 8.1463708878 8.3328666687 0.0000000743 -0.0000006263 -1.0000000000
  10.8122081757 -9.9744806290 16.1383781433 -0.6490201950 -0.2343135476 0.6596137881
}

frame 19 {
  -0.0000000251 -0.0000000089 0.0000013374 -0.7071068287 -0.0000000188 -0.0000000124
  -0.0175175872 4.5148844719 1.4526960850 -0.0000001064 0.0000000004 -1.0000000000
  -2.0376806259 -1.0987175703 0.5451019406 -0.0000000014 -0.0000001751 -0.0000000857
  2.5079936981 0.1487963647 3.5524599552 -0.0000000275 0.0000000224 0.0000000745
  -1.0437760353 1.6534525156 2.9099991322 0.0919475183 -0.6236754656 0.0919475183
  -8.3812913895 0.0000036731 -0.0005167350 0.0000000014 0.0000000036 0.0000001568
  -3.9075496197 0.0000009909 0.0005270541 0.0000004051 0.4231272340 0.5289086699
  -9.0582656860 -0.0000013113 0.0000083447 0.1307646483 0.6702280045 -0.3235573173
  -2.4121787548 -0.4690734744 4.9682669640 0.2278127223 -0.6577842236 0.2557729185
  -1.4861807823 -0.0092604160 0.0023763180 -0.0182543006 0.0115489010 0.4644549489
  -0.9848700166 -0.0127555132 0.0012280047 0.3776761889 0.5943309069 0.4060390890
  0.0011344403 -0.0000020266 1.2383975983 -0.0000005588 0.0000000638 -0.0000000289
  -0.0485565849 -0.4682635963 4.8929109573 0.2945401669 -0.6570017338 0.2687330544
  -1.8586747646 -0.0117373466 0.0021863878 0.0182136633 -0.0123659251 0.5519972444
  -1.0443670750 -0.0123009682 0.0005882531 0.0186417848 -0.0115625458 0.5112479925
  -1.5055371523 -0.0000058562 0.0011833310 0.0000105096 0.7071008682 -0.0000123795
  -2.1457803249 -0.0792678669 2.5121209621 0.0795319006 -0.4358265102 0.3166429698
  -1.6636128426 -0.0215007216 -0.0294201374 -0.1323003173 -0.3390547335 0.1692510098
  -1.2707836628 0.0000313520 0.0011672974 -0.0000000421 0.7071065903 -0.0000001778
  -1.1617157459 -0.4687233567 6.2216267586 0.4803776741 -0.5438483357 0.4272537827
  -1.4778456688 -0.0012516975 0.0014481544 0.0268109776 -0.0268564131 0.2610144913
  -0.9766025543 -0.0043349266 0.0003546178 0.2762081325 0.6432811022 0.2330487967
  0.0011335611 -0.0000023842 1.2383971214 -0.0000005141 -0.0000000009 -0.0000000522
  1.0011165142 -0.4596720040 3.6390306950 0.1633753777 -0.7046147585 0.1056701168
  -1.8531141281 0.0007317066 0.0014575720 0.0384743810 -0.0210312735 0.2334485650
  -1.0480554104 -0.0147867203 0.0012030602 0.0431203507 0.0045896429 0.6846181750
  -1.5055353642 -0.0000061989 0.0011810064 0.0000105077 0.7071008682 -0.0000123911
  -0.4064104557 8.1463708878 8.3328666687 0.0000000743 -0.0000006263 -1.0000000000
  10.4468412399 -10.8969860077 16.7990169525 -0.6769390702 -0.2143609673 0.6505261660
}

