MD5Version 10 // Parameters used during export: Reorient: False; Scale: 1.0
commandline ""

numFrames 20
numJoints 29
frameRate 24
numAnimatedComponents 174

hierarchy {
  "Origin" -1 63 0 //
  "RightShoulder_Dummy" 0 63 6 //
  "RightShoulder" 1 63 12 //
  "RightArm_Dummy" 2 63 18 //
  "RightArm" 3 63 24 //
  "RightArmRoll" 4 63 30 //
  "RightForeArm" 5 63 36 //
  "RightHand" 6 63 42 //
  "RightHandIndex1" 7 63 48 //
  "RightHandIndex2" 8 63 54 //
  "RightHandIndex3" 9 63 60 //
  "RightHandIndex4" 10 63 66 //
  "RightHandRing1" 7 63 72 //
  "RightHandRing2" 12 63 78 //
  "RightHandRing3" 13 63 84 //
  "RightHandRing4" 14 63 90 //
  "RightHandThumb1" 7 63 96 //
  "RightHandThumb2" 16 63 102 //
  "RightHandThumb3" 17 63 108 //
  "RightHandMiddle1" 7 63 114 //
  "RightHandMiddle2" 19 63 120 //
  "RightHandMiddle3" 20 63 126 //
  "RightHandMiddle4" 21 63 132 //
  "RightHandPinky1" 7 63 138 //
  "RightHandPinky2" 23 63 144 //
  "RightHandPinky3" 24 63 150 //
  "RightHandPinky4" 25 63 156 //
  "rightpad" 0 63 162 //
  "Melee" 0 63 168 //
}

bounds {
  ( -1.3818937540 -22.0332183838 -11.1882724762 ) ( 26.3188323975 -5.7942371368 8.1285114288 )
  ( -1.3818937540 -22.1853446960 -9.8144559860 ) ( 26.3019943237 -5.8841924667 8.1054210663 )
  ( -1.3818937540 -22.0264396667 -6.0033664703 ) ( 26.0734977722 -6.0862574577 8.0060834885 )
  ( -1.3818937540 -21.4023494720 -1.8564558029 ) ( 25.5585632324 -4.4696178436 7.9231023788 )
  ( -1.3818937540 -19.3770942688 0.3517316580 ) ( 25.2952194214 -1.4913816452 8.8953666687 )
  ( -1.3818937540 -17.4454765320 0.3517316580 ) ( 25.8727684021 0.3221740723 10.1139526367 )
  ( -1.3818937540 -15.7134914398 0.3517316580 ) ( 27.4843521118 2.3525195122 11.6641883850 )
  ( -1.3818937540 -14.2380599976 0.3517316580 ) ( 29.5567016602 4.1021051407 13.2241516113 )
  ( -1.3818937540 -13.2864847183 0.3517316580 ) ( 31.2122936249 5.1836957932 14.3043165207 )
  ( -1.3818937540 -12.8951301575 0.3517316580 ) ( 31.8320121765 5.5497822762 14.7021274567 )
  ( -1.3818937540 -13.3087692261 0.3517316580 ) ( 31.1752395630 5.0639634132 14.6148252487 )
  ( -1.3818937540 -14.3141708374 0.3517316580 ) ( 29.2939987183 4.0296802521 14.1286277771 )
  ( -1.3818937540 -15.8392086029 0.3517316580 ) ( 26.9168243408 2.6281681061 13.1988000870 )
  ( -1.3818937540 -17.5828819275 0.3517316580 ) ( 25.0875415802 1.0405950546 12.0635299683 )
  ( -1.3818937540 -19.3770942688 0.3517316580 ) ( 24.4483985901 -0.5099067688 11.0382175446 )
  ( -1.3818937540 -21.1183166504 -1.0750536919 ) ( 24.7189636230 -2.9329757690 9.5935792923 )
  ( -1.3818937540 -21.8370361328 -4.2920541763 ) ( 25.3626346588 -6.0423469543 7.9642615318 )
  ( -1.3818937540 -22.1363086700 -7.8178982735 ) ( 25.9629898071 -6.0146985054 8.0526876450 )
  ( -1.3818937540 -22.1474361420 -10.3351774216 ) ( 26.2494411469 -5.8472719193 8.1155385971 )
  ( -1.3818937540 -22.0332183838 -11.1882724762 ) ( 26.3188323975 -5.7942371368 8.1285114288 )
}

baseframe {
  ( 0.0000000000 0.0000000000 0.0000000000 ) ( -0.7071068287 -0.0000000000 -0.0000000000 )
  ( -0.0186605453 4.5159912109 1.4360997677 ) ( 0.0000280102 0.0000000016 -1.0000000000 )
  ( -2.0367097855 -1.0987091064 0.5481596589 ) ( 0.0000083447 0.0000000002 -0.0000279347 )
  ( 2.5132143497 0.1486579478 3.5487740040 ) ( -0.0000000000 -0.0000000000 -0.0000000000 )
  ( -1.0394111872 1.6535054445 2.9115278721 ) ( -0.0000195275 -0.7070870399 0.0000196410 )
  ( -8.3812847137 0.0000042481 0.0122467289 ) ( -0.0000000199 0.0000001187 -0.0000001589 )
  ( -3.9075412750 0.0000038572 0.0064787311 ) ( -0.0000000000 -0.0000002980 -0.0000000000 )
  ( -9.0582580566 0.0000030984 0.0137990611 ) ( -0.0000195275 0.7071262598 0.0000195286 )
  ( -2.4562108517 -0.4589804113 4.9792232513 ) ( 0.0000195005 -0.7071262598 -0.0000194994 )
  ( -1.4808013439 -0.0000023665 0.0022553869 ) ( 0.0001794795 -0.0001792844 0.1336774677 )
  ( -0.9798917770 -0.0000008648 0.0011381970 ) ( 0.0759933963 0.7029330134 0.0758283958 )
  ( 0.0011322881 -0.0000015907 1.2384006977 ) ( 0.0000000372 0.0000000035 0.0000000379 )
  ( -0.0923869684 -0.4588496685 4.9064965248 ) ( 0.0429671630 -0.7058849931 0.0428026877 )
  ( -1.8562849760 -0.0000013817 0.0025038412 ) ( 0.0001730661 -0.0001778290 0.1480355263 )
  ( -1.0458492041 -0.0000023897 0.0010347852 ) ( 0.0000889879 -0.0001018705 0.1002773046 )
  ( -1.5055357218 -0.0000026549 0.0011810474 ) ( 0.0000114150 0.7071009874 -0.0000114465 )
  ( -2.1882109642 -0.0633600801 2.5236830711 ) ( 0.0967313573 -0.4675333202 0.1567362249 )
  ( -1.6791052818 -0.0000239015 0.0014968514 ) ( 0.0000000014 -0.0000001944 -0.0000000186 )
  ( -1.2707813978 0.0000282526 0.0011651963 ) ( 0.0000001495 0.7071062922 -0.0000001442 )
  ( -1.2061427832 -0.4589325786 6.2291550636 ) ( 0.0000194864 -0.7071262598 -0.0000194854 )
  ( -1.4808018208 -0.0000020948 0.0022557802 ) ( 0.0001794997 -0.0001792818 0.1336775273 )
  ( -0.9798946381 -0.0000022332 0.0011384857 ) ( 0.0759933889 0.7029330134 0.0758283883 )
  ( 0.0011323692 -0.0000017502 1.2384005785 ) ( 0.0000000149 0.0000000035 0.0000000388 )
  ( 0.9575448036 -0.4587714672 3.6564393044 ) ( 0.0429671444 -0.7058849931 0.0428026579 )
  ( -1.8562816381 -0.0000014087 0.0025037199 ) ( 0.0001730594 -0.0001778291 0.1480355561 )
  ( -1.0458487272 -0.0000009410 0.0010346614 ) ( 0.0000889888 -0.0001018699 0.1002773046 )
  ( -1.5055395365 -0.0000035905 0.0011810367 ) ( 0.0000114884 0.7071009874 -0.0000113619 )
  ( -0.4129891396 8.1527709961 8.3131628036 ) ( 0.0000279307 0.0000000016 -1.0000000000 )
  ( 0.0000000000 0.0000000000 0.0000000000 ) ( 0.7071067095 0.0000000000 -0.7071068287 )
}

frame 0 {
  -0.0000000251 -0.0000000089 0.0000013374 -0.7071068287 -0.0000000188 -0.0000000124
  -0.0175175872 4.5148844719 1.4526960850 -0.0000001064 0.0000000004 -1.0000000000
  -2.0376806259 -1.0987175703 0.5451019406 -0.0000000014 -0.0000001751 -0.0000000857
  2.5079936981 0.1487963647 3.5524599552 -0.0000000275 0.0000000224 0.0000000745
  -1.0437760353 1.6534525156 2.9099991322 0.0919475183 -0.6236754656 0.0919475183
  -8.3812913895 0.0000036731 -0.0005167350 0.0000000014 0.0000000036 0.0000001568
  -3.9075496197 0.0000009909 0.0005270541 0.0000004051 0.4231272340 0.5289086699
  -9.0582656860 -0.0000013113 0.0000083447 0.1307646483 0.6702280045 -0.3235573173
  -2.4121787548 -0.4690734744 4.9682669640 0.2278127223 -0.6577842236 0.2557729185
  -1.4861807823 -0.0092604160 0.0023763180 -0.0182543006 0.0115489010 0.4644549489
  -0.9848700166 -0.0127555132 0.0012280047 0.3776761889 0.5943309069 0.4060390890
  0.0011344403 -0.0000020266 1.2383975983 -0.0000005588 0.0000000638 -0.0000000289
  -0.0485565849 -0.4682635963 4.8929109573 0.2945401669 -0.6570017338 0.2687330544
  -1.8586747646 -0.0117373466 0.0021863878 0.0182136633 -0.0123659251 0.5519972444
  -1.0443670750 -0.0123009682 0.0005882531 0.0186417848 -0.0115625458 0.5112479925
  -1.5055371523 -0.0000058562 0.0011833310 0.0000105096 0.7071008682 -0.0000123795
  -2.1457803249 -0.0792678669 2.5121209621 0.0795319006 -0.4358265102 0.3166429698
  -1.6636128426 -0.0215007216 -0.0294201374 -0.1323003173 -0.3390547335 0.1692510098
  -1.2707836628 0.0000313520 0.0011672974 -0.0000000421 0.7071065903 -0.0000001778
  -1.1617157459 -0.4687233567 6.2216267586 0.4803776741 -0.5438483357 0.4272537827
  -1.4778456688 -0.0012516975 0.0014481544 0.0268109776 -0.0268564131 0.2610144913
  -0.9766025543 -0.0043349266 0.0003546178 0.2762081325 0.6432811022 0.2330487967
  0.0011335611 -0.0000023842 1.2383971214 -0.0000005141 -0.0000000009 -0.0000000522
  1.0011165142 -0.4596720040 3.6390306950 0.1633753777 -0.7046147585 0.1056701168
  -1.8531141281 0.0007317066 0.0014575720 0.0384743810 -0.0210312735 0.2334485650
  -1.0480554104 -0.0147867203 0.0012030602 0.0431203507 0.0045896429 0.6846181750
  -1.5055353642 -0.0000061989 0.0011810064 0.0000105077 0.7071008682 -0.0000123911
  -0.4064104557 8.1463708878 8.3328666687 0.0000000743 -0.0000006263 -1.0000000000
  10.4468412399 -10.8969860077 16.7990169525 -0.6769390702 -0.2143609673 0.6505261660
}

frame 1 {
  -0.0000000251 -0.0000000089 0.0000013374 -0.7071068287 -0.0000000188 -0.0000000124
  -0.0175175872 4.5148844719 1.4526960850 -0.0000001064 0.0000000004 -1.0000000000
  -2.0376806259 -1.0987175703 0.5451019406 -0.0000000014 -0.0000001751 -0.0000000857
  2.5079936981 0.1487963647 3.5524599552 -0.0000000275 0.0000000224 0.0000000745
  -1.0437759161 1.6534525156 2.9099991322 0.0468449891 -0.6306412220 0.0817279071
  -8.3812932968 0.0000031292 -0.0005162358 -0.0000000014 -0.0000000005 0.0000001397
  -3.9075462818 0.0000002682 0.0005263835 0.0000004672 0.5263173580 0.5238749981
  -9.0582656860 0.0000010729 0.0000083447 0.1111009195 0.6038957834 -0.3750666976
  -2.4121789932 -0.4690757394 4.9682641029 0.2278126925 -0.6577842236 0.2557729483
  -1.4861788750 -0.0092623234 0.0023764372 -0.0182543453 0.0115489336 0.4644549489
  -0.9848707318 -0.0127553940 0.0012276173 0.3776761889 0.5943308473 0.4060391486
  0.0011315346 -0.0000010729 1.2383966446 -0.0000005662 0.0000000102 -0.0000000112
  -0.0485559702 -0.4682631493 4.8929104805 0.2945401371 -0.6570016742 0.2687331438
  -1.8586757183 -0.0117392540 0.0021879673 0.0182136595 -0.0123658814 0.5519973040
  -1.0443701744 -0.0123028755 0.0005888939 0.0186417438 -0.0115624433 0.5112480521
  -1.5055358410 -0.0000021458 0.0011814833 0.0000104938 0.7071008682 -0.0000123792
  -2.1457822323 -0.0792663991 2.5121192932 0.0795318931 -0.4358264208 0.3166429698
  -1.6636099815 -0.0215023458 -0.0294200182 -0.1323003173 -0.3390546441 0.1692510098
  -1.2707848549 0.0000320077 0.0011663437 -0.0000001054 0.7071065903 -0.0000001594
  -1.1617165804 -0.4687229991 6.2216243744 0.4803776443 -0.5438482761 0.4272537529
  -1.4778436422 -0.0012497902 0.0014455914 0.0268109385 -0.0268564336 0.2610144317
  -0.9766051769 -0.0043368340 0.0003544092 0.2762081325 0.6432811618 0.2330488265
  0.0011327267 -0.0000026226 1.2383956909 -0.0000005178 -0.0000000391 -0.0000000447
  1.0011157990 -0.4596713781 3.6390299797 0.1633753479 -0.7046147585 0.1056701839
  -1.8531160355 0.0007355213 0.0014581904 0.0384743623 -0.0210313480 0.2334485352
  -1.0480573177 -0.0147857666 0.0012024641 0.0431203358 0.0045896033 0.6846181750
  -1.5055365562 -0.0000047088 0.0011816025 0.0000105129 0.7071008682 -0.0000124135
  -0.4064104557 8.1463708878 8.3328666687 0.0000000743 -0.0000006263 -1.0000000000
  10.3712358475 -9.5179605484 16.2830524445 -0.6539039016 -0.1926966608 0.6728612781
}

frame 2 {
  -0.0000000251 -0.0000000089 0.0000013374 -0.7071068287 -0.0000000188 -0.0000000124
  -0.0175175872 4.5148844719 1.4526960850 -0.0000001064 0.0000000004 -1.0000000000
  -2.0376806259 -1.0987175703 0.5451019406 -0.0000000014 -0.0000001751 -0.0000000857
  2.5079936981 0.1487963647 3.5524599552 -0.0000000275 0.0000000224 0.0000000745
  -1.0437755585 1.6534525156 2.9100000858 -0.0401008725 -0.6389045119 0.0822562277
  -8.3812913895 0.0000035167 -0.0005167723 0.0000000042 -0.0000000086 0.0000001411
  -3.9075434208 0.0000001788 0.0005265772 0.0000005590 0.8050979376 0.3086737394
  -9.0582675934 0.0000001192 0.0000065565 0.1806550026 0.3223685622 -0.4519405067
  -2.4121789932 -0.4690760970 4.9682655334 0.2278126627 -0.6577841043 0.2557729483
  -1.4861795902 -0.0092641115 0.0023770332 -0.0182543434 0.0115490258 0.4644549489
  -0.9848701954 -0.0127547979 0.0012269020 0.3776761889 0.5943309665 0.4060391188
  0.0011327267 -0.0000028610 1.2384014130 -0.0000005588 0.0000000242 -0.0000000130
  -0.0485564470 -0.4682650566 4.8929114342 0.2945400774 -0.6570016146 0.2687330842
  -1.8586764336 -0.0117371082 0.0021870136 0.0182136446 -0.0123659549 0.5519973040
  -1.0443675518 -0.0123023987 0.0005888939 0.0186418723 -0.0115625625 0.5112479329
  -1.5055351257 -0.0000054836 0.0011827946 0.0000105050 0.7071008682 -0.0000123832
  -2.1457812786 -0.0792682171 2.5121202469 0.0795318931 -0.4358264208 0.3166429698
  -1.6636096239 -0.0215021670 -0.0294207335 -0.1323003471 -0.3390546441 0.1692509651
  -1.2707846165 0.0000312328 0.0011677742 -0.0000000659 0.7071065903 -0.0000001646
  -1.1617156267 -0.4687248468 6.2216258049 0.4803775847 -0.5438482761 0.4272538126
  -1.4778439999 -0.0012514591 0.0014450550 0.0268109925 -0.0268564746 0.2610144317
  -0.9766052961 -0.0043361187 0.0003569126 0.2762081921 0.6432810426 0.2330487818
  0.0011332035 -0.0000034571 1.2383980751 -0.0000005467 -0.0000000224 -0.0000000577
  1.0011154413 -0.4596728086 3.6390318871 0.1633753479 -0.7046147585 0.1056701392
  -1.8531146049 0.0007345974 0.0014573336 0.0384743400 -0.0210313816 0.2334485501
  -1.0480573177 -0.0147874355 0.0012018681 0.0431203283 0.0045895278 0.6846181750
  -1.5055356026 -0.0000054240 0.0011801720 0.0000105156 0.7071008682 -0.0000124438
  -0.4064104557 8.1463708878 8.3328666687 0.0000000743 -0.0000006263 -1.0000000000
  10.2260169983 -5.6838130951 14.7811040878 -0.5871660709 -0.1336418390 0.7260862589
}

frame 3 {
  -0.0000000251 -0.0000000089 0.0000013374 -0.7071068287 -0.0000000188 -0.0000000124
  -0.0175175872 4.5148844719 1.4526960850 -0.0000001064 0.0000000004 -1.0000000000
  -2.0376806259 -1.0987175703 0.5451019406 -0.0000000014 -0.0000001751 -0.0000000857
  2.5079936981 0.1487963647 3.5524599552 -0.0000000275 0.0000000224 0.0000000745
  -1.0437754393 1.6534527540 2.9100000858 -0.0858363286 -0.5688367486 0.1178404242
  -8.3812923431 0.0000031665 -0.0005166531 -0.0000000123 0.0000000019 0.0000001441
  -3.9075467587 -0.0000008792 0.0005268455 -0.0000003101 0.8779993057 -0.2851356864
  -9.0582675934 0.0000002980 0.0000079274 0.5007281303 -0.1258657575 -0.3044580817
  -2.4121804237 -0.4690744877 4.9682650566 0.2278127223 -0.6577842236 0.2557729483
  -1.4861798286 -0.0092594735 0.0023771226 -0.0182544179 0.0115489326 0.4644549489
  -0.9848684072 -0.0127547383 0.0012269095 0.3776761293 0.5943309069 0.4060392678
  0.0011326075 -0.0000028163 1.2383995056 -0.0000005614 0.0000000373 -0.0000000205
  -0.0485564619 -0.4682644606 4.8929104805 0.2945400476 -0.6570016742 0.2687330544
  -1.8586766720 -0.0117325187 0.0021874309 0.0182136334 -0.0123659000 0.5519972444
  -1.0443661213 -0.0123022795 0.0005881190 0.0186417513 -0.0115624461 0.5112479329
  -1.5055350065 -0.0000045449 0.0011803806 0.0000105208 0.7071008682 -0.0000123858
  -2.1457810402 -0.0792669058 2.5121197701 0.0795318931 -0.4358264804 0.3166429698
  -1.6636109352 -0.0215010643 -0.0294201374 -0.1323003471 -0.3390546143 0.1692510694
  -1.2707839012 0.0000318885 0.0011670589 -0.0000000731 0.7071065903 -0.0000001837
  -1.1617163420 -0.4687229395 6.2216243744 0.4803776443 -0.5438482761 0.4272537827
  -1.4778432846 -0.0012537837 0.0014467537 0.0268110428 -0.0268564671 0.2610144913
  -0.9766060114 -0.0043361187 0.0003532767 0.2762082517 0.6432810426 0.2330487520
  0.0011337996 -0.0000021569 1.2383983135 -0.0000005355 -0.0000000373 -0.0000000510
  1.0011165142 -0.4596710801 3.6390299797 0.1633753479 -0.7046146989 0.1056701094
  -1.8531157970 0.0007348359 0.0014575720 0.0384743661 -0.0210313499 0.2334485650
  -1.0480575562 -0.0147854090 0.0012027621 0.0431203283 0.0045896163 0.6846181750
  -1.5055352449 -0.0000048876 0.0011817813 0.0000105287 0.7071008682 -0.0000124016
  -0.4064104557 8.1463708878 8.3328666687 0.0000000743 -0.0000006263 -1.0000000000
  10.1656713486 -1.3531053066 12.7652778625 -0.5129320025 -0.0728808120 0.7700417638
}

frame 4 {
  -0.0000000251 -0.0000000089 0.0000013374 -0.7071068287 -0.0000000188 -0.0000000124
  -0.0175175872 4.5148844719 1.4526960850 -0.0000001064 0.0000000004 -1.0000000000
  -2.0376806259 -1.0987175703 0.5451019406 -0.0000000014 -0.0000001751 -0.0000000857
  2.5079936981 0.1487963647 3.5524599552 -0.0000000275 0.0000000224 0.0000000745
  -1.0437756777 1.6534525156 2.9100000858 -0.1249012202 -0.4534318447 0.0813323334
  -8.3812904358 0.0000027418 -0.0005171299 0.0000000037 -0.0000000205 0.0000001411
  -3.9075481892 0.0000010729 0.0005294085 -0.0000005304 0.7368122339 -0.5689686537
  -9.0582656860 0.0000001788 0.0000066757 0.6490514874 -0.3417910933 -0.1329913735
  -2.4121794701 -0.4690729380 4.9682660103 0.2278127223 -0.6577842236 0.2557729483
  -1.4861803055 -0.0092606097 0.0023771524 -0.0182543024 0.0115489326 0.4644549191
  -0.9848690033 -0.0127544403 0.0012269020 0.3776763380 0.5943307877 0.4060390294
  0.0011328459 -0.0000026822 1.2383999825 -0.0000005662 0.0000000112 -0.0000000279
  -0.0485560894 -0.4682625532 4.8929119110 0.2945401371 -0.6570017338 0.2687330842
  -1.8586763144 -0.0117385536 0.0021883249 0.0182136968 -0.0123658711 0.5519973040
  -1.0443671942 -0.0123025775 0.0005887449 0.0186417792 -0.0115624228 0.5112479329
  -1.5055354834 -0.0000054836 0.0011812449 0.0000105050 0.7071008682 -0.0000123700
  -2.1457817554 -0.0792667866 2.5121216774 0.0795319229 -0.4358264804 0.3166430295
  -1.6636110544 -0.0215014219 -0.0294208527 -0.1323003471 -0.3390546441 0.1692510396
  -1.2707846165 0.0000317097 0.0011672378 -0.0000000616 0.7071065903 -0.0000001528
  -1.1617157459 -0.4687221050 6.2216267586 0.4803777039 -0.5438482761 0.4272538126
  -1.4778448343 -0.0012511015 0.0014466047 0.0268110111 -0.0268564448 0.2610144913
  -0.9766041636 -0.0043352842 0.0003553033 0.2762082517 0.6432810426 0.2330487370
  0.0011326075 -0.0000013709 1.2383979559 -0.0000005281 -0.0000000224 -0.0000000573
  1.0011161566 -0.4596697092 3.6390316486 0.1633753777 -0.7046147585 0.1056701168
  -1.8531149626 0.0007331818 0.0014584064 0.0384743884 -0.0210313424 0.2334486395
  -1.0480585098 -0.0147850215 0.0012016296 0.0431203581 0.0045895628 0.6846182346
  -1.5055353642 -0.0000046492 0.0011829734 0.0000105024 0.7071008682 -0.0000123911
  -0.4064104557 8.1463708878 8.3328666687 0.0000000743 -0.0000006263 -1.0000000000
  10.1645383835 1.0237071514 10.9224290848 -0.4831929207 -0.0496908724 0.7840870619
}

frame 5 {
  -0.0000000251 -0.0000000089 0.0000013374 -0.7071068287 -0.0000000188 -0.0000000124
  -0.0175175872 4.5148844719 1.4526960850 -0.0000001064 0.0000000004 -1.0000000000
  -2.0376806259 -1.0987175703 0.5451019406 -0.0000000014 -0.0000001751 -0.0000000857
  2.5079936981 0.1487963647 3.5524599552 -0.0000000275 0.0000000224 0.0000000745
  -1.0437760353 1.6534525156 2.9100000858 -0.0933074057 -0.3619873524 0.0267487280
  -8.3812923431 0.0000033379 -0.0005171299 0.0000000093 0.0000000124 0.0000001350
  -3.9075469971 -0.0000002384 0.0005279779 -0.0000004750 0.7421911359 -0.5318258405
  -9.0582656860 0.0000014305 0.0000061989 0.6285673380 -0.4003798664 -0.1350691468
  -2.4121787548 -0.4690740108 4.9682660103 0.2278127372 -0.6577842236 0.2557729483
  -1.4861798286 -0.0092601776 0.0023765564 -0.0182543676 0.0115489559 0.4644549489
  -0.9848688841 -0.0127535025 0.0012274981 0.3776762187 0.5943309665 0.4060391784
  0.0011334419 -0.0000022650 1.2383995056 -0.0000005318 0.0000000298 -0.0000000354
  -0.0485553741 -0.4682643414 4.8929119110 0.2945401073 -0.6570016742 0.2687330544
  -1.8586759567 -0.0117363334 0.0021883249 0.0182136577 -0.0123659791 0.5519973040
  -1.0443663597 -0.0123027563 0.0005895495 0.0186418071 -0.0115625113 0.5112479329
  -1.5055365562 -0.0000061989 0.0011818409 0.0000105103 0.7071008682 -0.0000123753
  -2.1457800865 -0.0792675018 2.5121204853 0.0795319229 -0.4358264804 0.3166429400
  -1.6636109352 -0.0215004683 -0.0294204950 -0.1323003322 -0.3390545845 0.1692510694
  -1.2707839012 0.0000333190 0.0011663437 -0.0000000817 0.7071065903 -0.0000002157
  -1.1617141962 -0.4687232971 6.2216253281 0.4803777039 -0.5438483357 0.4272538424
  -1.4778437614 -0.0012525320 0.0014466047 0.0268109608 -0.0268564373 0.2610144019
  -0.9766057134 -0.0043350458 0.0003547072 0.2762081921 0.6432809830 0.2330486923
  0.0011328459 -0.0000020266 1.2383978367 -0.0000005104 -0.0000000112 -0.0000000447
  1.0011167526 -0.4596705437 3.6390314102 0.1633753479 -0.7046146989 0.1056700945
  -1.8531147242 0.0007334501 0.0014586449 0.0384743884 -0.0210313480 0.2334485650
  -1.0480567217 -0.0147880018 0.0012005568 0.0431204028 0.0045895730 0.6846182346
  -1.5055358410 -0.0000056028 0.0011814833 0.0000105182 0.7071008682 -0.0000124016
  -0.4064104557 8.1463708878 8.3328666687 0.0000000743 -0.0000006263 -1.0000000000
  10.8290548325 1.8546975851 8.9047870636 -0.4875078797 -0.0750311464 0.7895998955
}

frame 6 {
  -0.0000000251 -0.0000000089 0.0000013374 -0.7071068287 -0.0000000188 -0.0000000124
  -0.0175175872 4.5148844719 1.4526960850 -0.0000001064 0.0000000004 -1.0000000000
  -2.0376806259 -1.0987175703 0.5451019406 -0.0000000014 -0.0000001751 -0.0000000857
  2.5079936981 0.1487963647 3.5524599552 -0.0000000275 0.0000000224 0.0000000745
  -1.0437765121 1.6534522772 2.9099991322 0.0305564925 -0.2707961798 -0.0228240881
  -8.3812923431 0.0000030100 -0.0005171001 0.0000000028 0.0000000033 0.0000001383
  -3.9075472355 0.0000011921 0.0005263686 -0.0000003428 0.8002517223 -0.2958262861
  -9.0582656860 0.0000009537 0.0000078678 0.5646448731 -0.3287495673 -0.2415995598
  -2.4121804237 -0.4690732956 4.9682655334 0.2278127819 -0.6577842832 0.2557729185
  -1.4861798286 -0.0092594624 0.0023770332 -0.0182543676 0.0115489699 0.4644549489
  -0.9848691225 -0.0127543807 0.0012297630 0.3776762187 0.5943309069 0.4060391784
  0.0011340380 -0.0000021458 1.2383989096 -0.0000005383 0.0000000242 -0.0000000019
  -0.0485563278 -0.4682625532 4.8929109573 0.2945401371 -0.6570016742 0.2687330246
  -1.8586753607 -0.0117373466 0.0021872520 0.0182135850 -0.0123659475 0.5519973040
  -1.0443673134 -0.0123022795 0.0005886555 0.0186417177 -0.0115625449 0.5112479329
  -1.5055367947 -0.0000060797 0.0011821985 0.0000104853 0.7071008682 -0.0000123726
  -2.1457817554 -0.0792664289 2.5121209621 0.0795319304 -0.4358264804 0.3166430295
  -1.6636103392 -0.0215005875 -0.0294216871 -0.1323003024 -0.3390545845 0.1692510247
  -1.2707846165 0.0000325143 0.0011658669 -0.0000000863 0.7071065903 -0.0000001613
  -1.1617157459 -0.4687221050 6.2216262817 0.4803777337 -0.5438483357 0.4272537529
  -1.4778453112 -0.0012513399 0.0014470816 0.0268109683 -0.0268564168 0.2610144317
  -0.9766037464 -0.0043352842 0.0003560781 0.2762081325 0.6432811022 0.2330487818
  0.0011312962 -0.0000017881 1.2383986712 -0.0000005122 -0.0000000298 -0.0000000410
  1.0011160374 -0.4596697092 3.6390311718 0.1633753926 -0.7046147585 0.1056701541
  -1.8531155586 0.0007329434 0.0014575720 0.0384744368 -0.0210313108 0.2334485948
  -1.0480581522 -0.0147863626 0.0012023449 0.0431203619 0.0045896443 0.6846182346
  -1.5055346489 -0.0000054836 0.0011817217 0.0000105156 0.7071008682 -0.0000124280
  -0.4064104557 8.1463708878 8.3328666687 0.0000000743 -0.0000006263 -1.0000000000
  12.6569786072 2.3815402985 6.2087631226 -0.4969125986 -0.1473054439 0.8002211452
}

frame 7 {
  -0.0000000251 -0.0000000089 0.0000013374 -0.7071068287 -0.0000000188 -0.0000000124
  -0.0175175872 4.5148844719 1.4526960850 -0.0000001064 0.0000000004 -1.0000000000
  -2.0376806259 -1.0987175703 0.5451019406 -0.0000000014 -0.0000001751 -0.0000000857
  2.5079936981 0.1487963647 3.5524599552 -0.0000000275 0.0000000224 0.0000000745
  -1.0437767506 1.6534520388 2.9099981785 0.1889164150 -0.1863683611 -0.0552308820
  -8.3812904358 0.0000032187 -0.0005170107 0.0000000028 0.0000000105 0.0000001453
  -3.9075484276 -0.0000019073 0.0005257130 0.0000000097 0.7521739602 -0.0028536071
  -9.0582656860 0.0000003576 0.0000079870 0.5038964152 -0.1568805724 -0.3395604789
  -2.4121785164 -0.4690746069 4.9682641029 0.2278126925 -0.6577842236 0.2557729483
  -1.4861798286 -0.0092619061 0.0023757815 -0.0182543378 0.0115489187 0.4644549489
  -0.9848696589 -0.0127539337 0.0012272298 0.3776762187 0.5943309665 0.4060390592
  0.0011312962 -0.0000027418 1.2383980751 -0.0000005644 -0.0000000054 -0.0000000224
  -0.0485552549 -0.4682637453 4.8929100037 0.2945401371 -0.6570016146 0.2687330842
  -1.8586759567 -0.0117371082 0.0021884441 0.0182136651 -0.0123659074 0.5519973040
  -1.0443699360 -0.0123013258 0.0005882382 0.0186417811 -0.0115624508 0.5112479925
  -1.5055356026 -0.0000051260 0.0011814237 0.0000104918 0.7071008682 -0.0000123805
  -2.1457810402 -0.0792679489 2.5121197701 0.0795318931 -0.4358265102 0.3166430295
  -1.6636114120 -0.0214989483 -0.0294209719 -0.1323003620 -0.3390546441 0.1692510098
  -1.2707843781 0.0000319309 0.0011655092 -0.0000000919 0.7071065903 -0.0000001847
  -1.1617141962 -0.4687237740 6.2216243744 0.4803776145 -0.5438483357 0.4272537827
  -1.4778447151 -0.0012511462 0.0014460087 0.0268109459 -0.0268564299 0.2610144913
  -0.9766042233 -0.0043354034 0.0003544986 0.2762082517 0.6432811618 0.2330488265
  0.0011326969 -0.0000017285 1.2383975983 -0.0000005178 -0.0000000186 -0.0000000410
  1.0011165142 -0.4596706629 3.6390299797 0.1633753777 -0.7046147585 0.1056701243
  -1.8531143665 0.0007333159 0.0014587641 0.0384744108 -0.0210312828 0.2334485948
  -1.0480573177 -0.0147860050 0.0011999607 0.0431203991 0.0045896322 0.6846182346
  -1.5055357218 -0.0000044703 0.0011825562 0.0000105228 0.7071008682 -0.0000123825
  -0.4064104557 8.1463708878 8.3328666687 0.0000000743 -0.0000006263 -1.0000000000
  14.9234781265 2.8504786491 3.5065591335 -0.5024927258 -0.2394373566 0.8023118973
}

frame 8 {
  -0.0000000251 -0.0000000089 0.0000013374 -0.7071068287 -0.0000000188 -0.0000000124
  -0.0175175872 4.5148844719 1.4526960850 -0.0000001064 0.0000000004 -1.0000000000
  -2.0376806259 -1.0987175703 0.5451019406 -0.0000000014 -0.0000001751 -0.0000000857
  2.5079936981 0.1487963647 3.5524599552 -0.0000000275 0.0000000224 0.0000000745
  -1.0437767506 1.6534515619 2.9099972248 0.3007826805 -0.1209522262 -0.0687248036
  -8.3812913895 0.0000025034 -0.0005164146 0.0000000149 0.0000000075 0.0000001481
  -3.9075455666 -0.0000004768 0.0005273819 0.0000002543 0.6263796091 0.1651113778
  -9.0582656860 -0.0000001192 0.0000069141 0.4773782194 -0.0031908036 -0.3600436151
  -2.4121797085 -0.4690752029 4.9682669640 0.2278127223 -0.6577842236 0.2557728589
  -1.4861799479 -0.0092586577 0.0023770183 -0.0182543471 0.0115488898 0.4644548595
  -0.9848695993 -0.0127554834 0.0012278408 0.3776761889 0.5943308473 0.4060391784
  0.0011331551 -0.0000021756 1.2383990288 -0.0000005723 0.0000000224 -0.0000000121
  -0.0485556722 -0.4682649374 4.8929119110 0.2945401371 -0.6570017338 0.2687330544
  -1.8586754799 -0.0117367357 0.0021869093 0.0182136726 -0.0123659456 0.5519973040
  -1.0443675518 -0.0123018771 0.0005867686 0.0186418761 -0.0115625029 0.5112479925
  -1.5055361986 -0.0000057220 0.0011814684 0.0000105063 0.7071008682 -0.0000123621
  -2.1457827091 -0.0792700052 2.5121219158 0.0795319304 -0.4358265102 0.3166429698
  -1.6636106968 -0.0214973390 -0.0294198059 -0.1323003471 -0.3390546441 0.1692509800
  -1.2707846165 0.0000338312 0.0011664899 -0.0000000632 0.7071065903 -0.0000001600
  -1.1617161036 -0.4687240124 6.2216262817 0.4803776741 -0.5438483357 0.4272537529
  -1.4778450727 -0.0012526577 0.0014449558 0.0268110186 -0.0268563963 0.2610143423
  -0.9766051769 -0.0043355823 0.0003560334 0.2762080729 0.6432811618 0.2330486774
  0.0011332780 -0.0000020862 1.2383989096 -0.0000005211 -0.0000000182 -0.0000000447
  1.0011155605 -0.4596720338 3.6390323639 0.1633754075 -0.7046147585 0.1056700870
  -1.8531148434 0.0007325411 0.0014596283 0.0384743959 -0.0210313201 0.2334485799
  -1.0480577946 -0.0147869587 0.0012010187 0.0431204364 0.0045896792 0.6846181750
  -1.5055334568 -0.0000053346 0.0011820644 0.0000105142 0.7071008682 -0.0000123881
  -0.4064104557 8.1463708878 8.3328666687 0.0000000743 -0.0000006263 -1.0000000000
  16.6500606537 3.2763004303 1.7060948610 -0.5020381212 -0.3085021377 0.7943772078
}

frame 9 {
  -0.0000000251 -0.0000000089 0.0000013374 -0.7071068287 -0.0000000188 -0.0000000124
  -0.0175175872 4.5148844719 1.4526960850 -0.0000001064 0.0000000004 -1.0000000000
  -2.0376806259 -1.0987175703 0.5451019406 -0.0000000014 -0.0000001751 -0.0000000857
  2.5079936981 0.1487963647 3.5524599552 -0.0000000275 0.0000000224 0.0000000745
  -1.0437767506 1.6534513235 2.9099972248 0.3373379707 -0.0962311476 -0.0706757903
  -8.3812904358 0.0000038147 -0.0005165339 -0.0000000144 -0.0000000009 0.0000001434
  -3.9075489044 0.0000030994 0.0005273819 0.0000002662 0.5671629310 0.2054881752
  -9.0582656860 0.0000001192 0.0000073910 0.4718466997 0.0515577905 -0.3554791212
  -2.4121785164 -0.4690753222 4.9682679176 0.2278126776 -0.6577842236 0.2557729483
  -1.4861803055 -0.0092598572 0.0023766495 -0.0182543118 0.0115489243 0.4644548595
  -0.9848692417 -0.0127545595 0.0012270510 0.3776762784 0.5943310261 0.4060391486
  0.0011318624 -0.0000016987 1.2384002209 -0.0000005623 -0.0000000130 -0.0000000144
  -0.0485549867 -0.4682644010 4.8929123878 0.2945401371 -0.6570016742 0.2687330842
  -1.8586761951 -0.0117372852 0.0021881002 0.0182137061 -0.0123659372 0.5519973040
  -1.0443680286 -0.0123014748 0.0005881786 0.0186418500 -0.0115624396 0.5112479925
  -1.5055336952 -0.0000044778 0.0011801403 0.0000105156 0.7071008682 -0.0000123858
  -2.1457796097 -0.0792679787 2.5121207237 0.0795318931 -0.4358264208 0.3166429698
  -1.6636109352 -0.0214988887 -0.0294207707 -0.1323002428 -0.3390546441 0.1692509651
  -1.2707834244 0.0000273008 0.0011663437 -0.0000000826 0.7071065903 -0.0000001732
  -1.1617132425 -0.4687231183 6.2216258049 0.4803775847 -0.5438483357 0.4272537827
  -1.4778444767 -0.0012532324 0.0014459118 0.0268109720 -0.0268564485 0.2610144615
  -0.9766048193 -0.0043355227 0.0003569424 0.2762081623 0.6432811618 0.2330487520
  0.0011339188 -0.0000026226 1.2383995056 -0.0000005206 -0.0000000366 -0.0000000484
  1.0011157990 -0.4596720934 3.6390323639 0.1633753926 -0.7046147585 0.1056701690
  -1.8531153202 0.0007321239 0.0014584512 0.0384743698 -0.0210313033 0.2334485948
  -1.0480573177 -0.0147853419 0.0012004375 0.0431202762 0.0045896443 0.6846182346
  -1.5055356026 -0.0000054538 0.0011814833 0.0000104905 0.7071008682 -0.0000124253
  -0.4064104557 8.1463708878 8.3328666687 0.0000000743 -0.0000006263 -1.0000000000
  17.2773132324 3.4476528168 1.1264631748 -0.5020332336 -0.3331311345 0.7883391976
}

frame 10 {
  -0.0000000251 -0.0000000089 0.0000013374 -0.7071068287 -0.0000000188 -0.0000000124
  -0.0175175872 4.5148844719 1.4526960850 -0.0000001064 0.0000000004 -1.0000000000
  -2.0376806259 -1.0987175703 0.5451019406 -0.0000000014 -0.0000001751 -0.0000000857
  2.5079936981 0.1487963647 3.5524599552 -0.0000000275 0.0000000224 0.0000000745
  -1.0437767506 1.6534515619 2.9099972248 0.3005698621 -0.1221021935 -0.0689970106
  -8.3812913895 0.0000019073 -0.0005170107 -0.0000000196 0.0000000037 0.0000001406
  -3.9075458050 0.0000009537 0.0005271435 0.0000002153 0.6269379854 0.1649063826
  -9.0582666397 -0.0000010729 0.0000091791 0.4735678434 0.0045358185 -0.3649116755
  -2.4121782780 -0.4690752625 4.9682664871 0.2278126776 -0.6577842832 0.2557729781
  -1.4861798286 -0.0092623234 0.0023763403 -0.0182543173 0.0115488954 0.4644548893
  -0.9848693013 -0.0127546191 0.0012266934 0.3776762187 0.5943308473 0.4060390890
  0.0011323132 -0.0000017583 1.2383978367 -0.0000005593 0.0000000251 -0.0000000233
  -0.0485548377 -0.4682648778 4.8929114342 0.2945401371 -0.6570017338 0.2687331438
  -1.8586764336 -0.0117370039 0.0021872371 0.0182137024 -0.0123658581 0.5519973040
  -1.0443691015 -0.0123015307 0.0005891370 0.0186418574 -0.0115624666 0.5112479329
  -1.5055357218 -0.0000070333 0.0011831969 0.0000104971 0.7071008682 -0.0000123753
  -2.1457798481 -0.0792685747 2.5121214390 0.0795318931 -0.4358264208 0.3166429400
  -1.6636106968 -0.0214980543 -0.0294209644 -0.1323003024 -0.3390546441 0.1692509502
  -1.2707841396 0.0000336736 0.0011654273 -0.0000000624 0.7071065903 -0.0000001738
  -1.1617138386 -0.4687240720 6.2216267586 0.4803776145 -0.5438483357 0.4272537827
  -1.4778439999 -0.0012530908 0.0014464865 0.0268110074 -0.0268564411 0.2610144317
  -0.9766064286 -0.0043345392 0.0003548414 0.2762080431 0.6432811022 0.2330487669
  0.0011331290 -0.0000022650 1.2383980751 -0.0000005122 -0.0000000156 -0.0000000447
  1.0011174679 -0.4596716166 3.6390306950 0.1633753479 -0.7046147585 0.1056701392
  -1.8531150818 0.0007317066 0.0014578700 0.0384744033 -0.0210313238 0.2334485501
  -1.0480570793 -0.0147853196 0.0012003779 0.0431204736 0.0045896019 0.6846181750
  -1.5055357218 -0.0000047982 0.0011800751 0.0000104871 0.7071008682 -0.0000124203
  -0.4064104557 8.1463708878 8.3328666687 0.0000000743 -0.0000006263 -1.0000000000
  16.7408771515 3.3144960403 1.6987813711 -0.5018822551 -0.3164119124 0.7903529406
}

frame 11 {
  -0.0000000251 -0.0000000089 0.0000013374 -0.7071068287 -0.0000000188 -0.0000000124
  -0.0175175872 4.5148844719 1.4526960850 -0.0000001064 0.0000000004 -1.0000000000
  -2.0376806259 -1.0987175703 0.5451019406 -0.0000000014 -0.0000001751 -0.0000000857
  2.5079936981 0.1487963647 3.5524599552 -0.0000000275 0.0000000224 0.0000000745
  -1.0437767506 1.6534520388 2.9099981785 0.1879733205 -0.1905925274 -0.0557828583
  -8.3812913895 0.0000030994 -0.0005161762 0.0000000037 0.0000000137 0.0000001462
  -3.9075455666 0.0000000000 0.0005257130 0.0000000060 0.7532801628 -0.0044917534
  -9.0582656860 -0.0000001192 0.0000081658 0.4980742931 -0.1310312599 -0.3503178656
  -2.4121782780 -0.4690739214 4.9682655334 0.2278126925 -0.6577842236 0.2557729185
  -1.4861800671 -0.0092604756 0.0023764968 -0.0182543155 0.0115489159 0.4644548893
  -0.9848701358 -0.0127522051 0.0012281239 0.3776761591 0.5943309069 0.4060390890
  0.0011338294 -0.0000019073 1.2384010553 -0.0000005579 0.0000000335 -0.0000000075
  -0.0485554934 -0.4682636857 4.8929114342 0.2945401371 -0.6570017338 0.2687330544
  -1.8586755991 -0.0117366910 0.0021879077 0.0182135813 -0.0123658860 0.5519973040
  -1.0443667173 -0.0123027563 0.0005884171 0.0186417289 -0.0115624201 0.5112479329
  -1.5055346489 -0.0000041723 0.0011819005 0.0000104918 0.7071008682 -0.0000123674
  -2.1457805634 -0.0792671740 2.5121207237 0.0795318931 -0.4358264804 0.3166429400
  -1.6636099815 -0.0214998126 -0.0294210613 -0.1323003620 -0.3390546739 0.1692509949
  -1.2707844973 0.0000334503 0.0011659861 -0.0000000662 0.7071065903 -0.0000001844
  -1.1617133617 -0.4687220752 6.2216243744 0.4803777039 -0.5438483357 0.4272537827
  -1.4778449535 -0.0012514144 0.0014447570 0.0268109888 -0.0268564913 0.2610144317
  -0.9766051769 -0.0043348670 0.0003566146 0.2762081325 0.6432811022 0.2330486625
  0.0011335909 -0.0000023842 1.2383972406 -0.0000005364 -0.0000000130 -0.0000000559
  1.0011171103 -0.4596710801 3.6390304565 0.1633754224 -0.7046147585 0.1056701243
  -1.8531136513 0.0007348061 0.0014594793 0.0384743810 -0.0210313406 0.2334486246
  -1.0480573177 -0.0147858858 0.0012014508 0.0431204624 0.0045896103 0.6846182346
  -1.5055348873 -0.0000046492 0.0011803508 0.0000105287 0.7071008682 -0.0000123977
  -0.4064104557 8.1463708878 8.3328666687 0.0000000743 -0.0000006263 -1.0000000000
  15.1640357971 2.9513354301 3.4884095192 -0.4949855208 -0.2633623779 0.7955713272
}

frame 12 {
  -0.0000000251 -0.0000000089 0.0000013374 -0.7071068287 -0.0000000188 -0.0000000124
  -0.0175175872 4.5148844719 1.4526960850 -0.0000001064 0.0000000004 -1.0000000000
  -2.0376806259 -1.0987175703 0.5451019406 -0.0000000014 -0.0000001751 -0.0000000857
  2.5079936981 0.1487963647 3.5524599552 -0.0000000275 0.0000000224 0.0000000745
  -1.0437765121 1.6534522772 2.9099991322 0.0290345065 -0.2784202993 -0.0224874727
  -8.3812913895 0.0000028610 -0.0005170405 -0.0000000000 -0.0000000162 0.0000001392
  -3.9075474739 0.0000001788 0.0005263090 -0.0000004010 0.7998279333 -0.2994782329
  -9.0582656860 0.0000003576 0.0000057220 0.5605811477 -0.2828731835 -0.2660561502
  -2.4121797085 -0.4690737724 4.9682664871 0.2278127670 -0.6577842832 0.2557729781
  -1.4861805439 -0.0092608333 0.0023782253 -0.0182543602 0.0115489848 0.4644549191
  -0.9848692417 -0.0127519369 0.0012258291 0.3776761591 0.5943309069 0.4060391784
  0.0011324883 -0.0000009537 1.2383997440 -0.0000005420 0.0000000317 0.0000000019
  -0.0485565662 -0.4682639837 4.8929119110 0.2945401371 -0.6570016742 0.2687330842
  -1.8586769104 -0.0117352009 0.0021879673 0.0182137303 -0.0123658981 0.5519973040
  -1.0443685055 -0.0123027563 0.0005874634 0.0186418816 -0.0115624145 0.5112479925
  -1.5055360794 -0.0000054836 0.0011816025 0.0000104997 0.7071008682 -0.0000123640
  -2.1457829475 -0.0792669058 2.5121219158 0.0795319304 -0.4358264506 0.3166430295
  -1.6636114120 -0.0214995146 -0.0294206142 -0.1323003769 -0.3390545845 0.1692509502
  -1.2707831860 0.0000318326 0.0011659861 -0.0000000924 0.7071065903 -0.0000001734
  -1.1617152691 -0.4687229395 6.2216272354 0.4803777337 -0.5438483953 0.4272538424
  -1.4778447151 -0.0012509227 0.0014469624 0.0268109385 -0.0268564653 0.2610144317
  -0.9766061902 -0.0043357611 0.0003556013 0.2762081027 0.6432811022 0.2330487072
  0.0011328459 -0.0000022650 1.2383992672 -0.0000005234 -0.0000000484 -0.0000000494
  1.0011157990 -0.4596706629 3.6390326023 0.1633754075 -0.7046147585 0.1056701168
  -1.8531153202 0.0007340163 0.0014570951 0.0384743176 -0.0210313406 0.2334485203
  -1.0480570793 -0.0147876143 0.0012024641 0.0431203395 0.0045895372 0.6846182346
  -1.5055345297 -0.0000052452 0.0011812449 0.0000105208 0.7071008682 -0.0000124174
  -0.4064104557 8.1463708878 8.3328666687 0.0000000743 -0.0000006263 -1.0000000000
  13.0917901993 2.5402402878 6.1335806847 -0.4790149331 -0.1905590892 0.7925577760
}

frame 13 {
  -0.0000000251 -0.0000000089 0.0000013374 -0.7071068287 -0.0000000188 -0.0000000124
  -0.0175175872 4.5148844719 1.4526960850 -0.0000001064 0.0000000004 -1.0000000000
  -2.0376806259 -1.0987175703 0.5451019406 -0.0000000014 -0.0000001751 -0.0000000857
  2.5079936981 0.1487963647 3.5524599552 -0.0000000275 0.0000000224 0.0000000745
  -1.0437760353 1.6534525156 2.9100000858 -0.0939066112 -0.3692755401 0.0284279324
  -8.3812913895 0.0000028014 -0.0005169511 -0.0000000075 0.0000000102 0.0000001336
  -3.9075491428 0.0000007153 0.0005289316 -0.0000005118 0.7403652668 -0.5345223546
  -9.0582656860 0.0000002384 0.0000060797 0.6254817247 -0.3445895910 -0.1769527048
  -2.4121787548 -0.4690725803 4.9682660103 0.2278126925 -0.6577841640 0.2557729483
  -1.4861798286 -0.0092623234 0.0023760796 -0.0182543378 0.0115488991 0.4644549787
  -0.9848678112 -0.0127546489 0.0012269020 0.3776761889 0.5943309069 0.4060391486
  0.0011327267 -0.0000028610 1.2383980751 -0.0000005364 0.0000000410 -0.0000000014
  -0.0485560894 -0.4682621956 4.8929104805 0.2945401073 -0.6570017338 0.2687330842
  -1.8586761951 -0.0117388964 0.0021865368 0.0182136558 -0.0123659037 0.5519972444
  -1.0443681479 -0.0123015642 0.0005887747 0.0186417829 -0.0115625439 0.5112478137
  -1.5055363178 -0.0000051260 0.0011823177 0.0000105208 0.7071008682 -0.0000123779
  -2.1457808018 -0.0792663097 2.5121197701 0.0795319229 -0.4358265102 0.3166429698
  -1.6636117697 -0.0215015411 -0.0294210166 -0.1323003620 -0.3390545845 0.1692510247
  -1.2707849741 0.0000312328 0.0011662543 -0.0000000683 0.7071065903 -0.0000001768
  -1.1617152691 -0.4687223434 6.2216253281 0.4803777039 -0.5438482761 0.4272538424
  -1.4778444767 -0.0012508631 0.0014457703 0.0268109925 -0.0268564895 0.2610144615
  -0.9766036272 -0.0043361187 0.0003558397 0.2762081623 0.6432811022 0.2330487370
  0.0011334419 -0.0000024587 1.2384003401 -0.0000005125 -0.0000000447 -0.0000000468
  1.0011155605 -0.4596694708 3.6390309334 0.1633753479 -0.7046147585 0.1056701243
  -1.8531146049 0.0007331371 0.0014573336 0.0384744108 -0.0210313331 0.2334486246
  -1.0480576754 -0.0147871375 0.0012010336 0.0431204885 0.0045896037 0.6846182346
  -1.5055372715 -0.0000047684 0.0011818409 0.0000104997 0.7071008682 -0.0000124174
  -0.4064104557 8.1463708878 8.3328666687 0.0000000743 -0.0000006263 -1.0000000000
  11.4286603928 2.0455906391 8.7122659683 -0.4622971117 -0.1329175532 0.7816960216
}

frame 14 {
  -0.0000000251 -0.0000000089 0.0000013374 -0.7071068287 -0.0000000188 -0.0000000124
  -0.0175175872 4.5148844719 1.4526960850 -0.0000001064 0.0000000004 -1.0000000000
  -2.0376806259 -1.0987175703 0.5451019406 -0.0000000014 -0.0000001751 -0.0000000857
  2.5079936981 0.1487963647 3.5524599552 -0.0000000275 0.0000000224 0.0000000745
  -1.0437756777 1.6534525156 2.9100000858 -0.1249012202 -0.4534318447 0.0813323334
  -8.3812904358 0.0000027418 -0.0005171299 0.0000000037 -0.0000000205 0.0000001411
  -3.9075481892 0.0000010729 0.0005294085 -0.0000005304 0.7368122339 -0.5689686537
  -9.0582656860 0.0000001788 0.0000066757 0.6366399527 -0.2883996069 -0.1834591925
  -2.4121797085 -0.4690730572 4.9682664871 0.2278127223 -0.6577841640 0.2557729781
  -1.4861786366 -0.0092597902 0.0023791790 -0.0182543844 0.0115489746 0.4644548297
  -0.9848693609 -0.0127538592 0.0012257099 0.3776760697 0.5943309665 0.4060391784
  0.0011329651 -0.0000021458 1.2383971214 -0.0000005621 0.0000000298 -0.0000000340
  -0.0485571623 -0.4682632685 4.8929119110 0.2945400476 -0.6570016742 0.2687330842
  -1.8586753607 -0.0117368400 0.0021873713 0.0182137005 -0.0123659037 0.5519973040
  -1.0443681479 -0.0123015642 0.0005888343 0.0186418649 -0.0115624927 0.5112479925
  -1.5055352449 -0.0000051260 0.0011818409 0.0000105524 0.7071008682 -0.0000123542
  -2.1457817554 -0.0792665482 2.5121209621 0.0795318857 -0.4358264208 0.3166429400
  -1.6636116505 -0.0215008259 -0.0294209719 -0.1323003024 -0.3390546441 0.1692510247
  -1.2707841396 0.0000325590 0.0011660159 -0.0000000854 0.7071065903 -0.0000002022
  -1.1617155075 -0.4687222242 6.2216253281 0.4803776443 -0.5438483357 0.4272537827
  -1.4778443575 -0.0012528896 0.0014462471 0.0268110037 -0.0268565379 0.2610145211
  -0.9766047001 -0.0043355227 0.0003542900 0.2762082517 0.6432810426 0.2330487669
  0.0011332035 -0.0000017881 1.2383997440 -0.0000005355 -0.0000000261 -0.0000000575
  1.0011159182 -0.4596714973 3.6390314102 0.1633753479 -0.7046146989 0.1056701094
  -1.8531157970 0.0007326007 0.0014587641 0.0384744108 -0.0210312922 0.2334485799
  -1.0480580330 -0.0147870332 0.0012002587 0.0431203991 0.0045896932 0.6846182346
  -1.5055373907 -0.0000047684 0.0011812449 0.0000104997 0.7071008682 -0.0000124016
  -0.4064104557 8.1463708878 8.3328666687 0.0000000743 -0.0000006263 -1.0000000000
  10.8379049301 1.2296432257 10.5512981415 -0.4567589760 -0.1137502640 0.7747820020
}

frame 15 {
  -0.0000000251 -0.0000000089 0.0000013374 -0.7071068287 -0.0000000188 -0.0000000124
  -0.0175175872 4.5148844719 1.4526960850 -0.0000001064 0.0000000004 -1.0000000000
  -2.0376806259 -1.0987175703 0.5451019406 -0.0000000014 -0.0000001751 -0.0000000857
  2.5079936981 0.1487963647 3.5524599552 -0.0000000275 0.0000000224 0.0000000745
  -1.0437754393 1.6534525156 2.9100000858 -0.0951472670 -0.5477313995 0.1167868972
  -8.3812904358 0.0000034571 -0.0005162358 0.0000000009 -0.0000000084 0.0000001416
  -3.9075491428 0.0000000596 0.0005291104 -0.0000005150 0.8524724841 -0.3630191088
  -9.0582647324 0.0000004470 0.0000070333 0.5228806734 -0.1211063191 -0.3056640625
  -2.4121799469 -0.4690744877 4.9682650566 0.2278126925 -0.6577842236 0.2557729483
  -1.4861795902 -0.0092600305 0.0023774505 -0.0182542987 0.0115489373 0.4644549489
  -0.9848680496 -0.0127553046 0.0012267828 0.3776763082 0.5943309069 0.4060391188
  0.0011339188 -0.0000029653 1.2383992672 -0.0000005683 0.0000000410 -0.0000000316
  -0.0485573411 -0.4682638645 4.8929104805 0.2945400476 -0.6570016146 0.2687330842
  -1.8586751223 -0.0117372088 0.0021882206 0.0182136856 -0.0123659400 0.5519973040
  -1.0443685055 -0.0123023987 0.0005880445 0.0186417829 -0.0115625476 0.5112479329
  -1.5055353642 -0.0000050962 0.0011816323 0.0000104734 0.7071008682 -0.0000123700
  -2.1457810402 -0.0792679787 2.5121200085 0.0795318931 -0.4358264208 0.3166430295
  -1.6636115313 -0.0215015411 -0.0294204354 -0.1323003322 -0.3390546441 0.1692510098
  -1.2707841396 0.0000326633 0.0011660159 -0.0000000777 0.7071065903 -0.0000001821
  -1.1617166996 -0.4687233567 6.2216243744 0.4803777039 -0.5438483357 0.4272538424
  -1.4778447151 -0.0012510717 0.0014454722 0.0268108863 -0.0268564429 0.2610143721
  -0.9766046405 -0.0043367222 0.0003558695 0.2762080729 0.6432811022 0.2330487370
  0.0011331737 -0.0000019073 1.2383993864 -0.0000005299 -0.0000000559 -0.0000000633
  1.0011148453 -0.4596717954 3.6390309334 0.1633753479 -0.7046146989 0.1056701466
  -1.8531143665 0.0007350268 0.0014590286 0.0384744257 -0.0210313816 0.2334485501
  -1.0480573177 -0.0147874802 0.0012012720 0.0431204513 0.0045895753 0.6846181750
  -1.5055347681 -0.0000055730 0.0011816323 0.0000105261 0.7071008682 -0.0000123805
  -0.4064104557 8.1463708878 8.3328666687 0.0000000743 -0.0000006263 -1.0000000000
  10.7991952896 -0.6125232577 12.1189985275 -0.4795958102 -0.1245680749 0.7650604844
}

frame 16 {
  -0.0000000251 -0.0000000089 0.0000013374 -0.7071068287 -0.0000000188 -0.0000000124
  -0.0175175872 4.5148844719 1.4526960850 -0.0000001064 0.0000000004 -1.0000000000
  -2.0376806259 -1.0987175703 0.5451019406 -0.0000000014 -0.0000001751 -0.0000000857
  2.5079936981 0.1487963647 3.5524599552 -0.0000000275 0.0000000224 0.0000000745
  -1.0437754393 1.6534525156 2.9100000858 -0.0628261790 -0.6281459332 0.0979132205
  -8.3812885284 0.0000032485 -0.0005167723 0.0000000050 -0.0000000028 0.0000001397
  -3.9075469971 0.0000010133 0.0005270243 0.0000003484 0.8868302107 0.1089834645
  -9.0582656860 0.0000000596 0.0000070333 0.2599285543 0.2026925981 -0.4460416734
  -2.4121792316 -0.4690737128 4.9682641029 0.2278127223 -0.6577842236 0.2557729483
  -1.4861805439 -0.0092606097 0.0023753643 -0.0182543136 0.0115489252 0.4644549787
  -0.9848676920 -0.0127531290 0.0012270212 0.3776762784 0.5943308473 0.4060390890
  0.0011324286 -0.0000028014 1.2383999825 -0.0000005635 0.0000000298 0.0000000116
  -0.0485560894 -0.4682634473 4.8929109573 0.2945401371 -0.6570016742 0.2687330842
  -1.8586754799 -0.0117377639 0.0021880865 0.0182136446 -0.0123658776 0.5519973040
  -1.0443694592 -0.0123019218 0.0005886555 0.0186418202 -0.0115624238 0.5112479925
  -1.5055365562 -0.0000053644 0.0011818409 0.0000105156 0.7071008682 -0.0000123884
  -2.1457805634 -0.0792671740 2.5121195316 0.0795318931 -0.4358264208 0.3166429400
  -1.6636103392 -0.0215004049 -0.0294205472 -0.1323002875 -0.3390546441 0.1692510247
  -1.2707842588 0.0000313818 0.0011648238 -0.0000000882 0.7071065903 -0.0000001686
  -1.1617150307 -0.4687218070 6.2216243744 0.4803776741 -0.5438482761 0.4272537529
  -1.4778445959 -0.0012545586 0.0014458895 0.0268109851 -0.0268564839 0.2610144913
  -0.9766027331 -0.0043349266 0.0003545284 0.2762081623 0.6432811618 0.2330487669
  0.0011330843 -0.0000020266 1.2383981943 -0.0000005169 -0.0000000373 -0.0000000447
  1.0011155605 -0.4596707225 3.6390309334 0.1633753777 -0.7046147585 0.1056701615
  -1.8531148434 0.0007353351 0.0014591217 0.0384743959 -0.0210312903 0.2334485650
  -1.0480563641 -0.0147871971 0.0012006760 0.0431203730 0.0045896727 0.6846182346
  -1.5055377483 -0.0000042319 0.0011818409 0.0000105103 0.7071008682 -0.0000124174
  -0.4064104557 8.1463708878 8.3328666687 0.0000000743 -0.0000006263 -1.0000000000
  10.6627225876 -3.8504664898 13.8828277588 -0.5388910174 -0.1511463374 0.7386237979
}

frame 17 {
  -0.0000000251 -0.0000000089 0.0000013374 -0.7071068287 -0.0000000188 -0.0000000124
  -0.0175175872 4.5148844719 1.4526960850 -0.0000001064 0.0000000004 -1.0000000000
  -2.0376806259 -1.0987175703 0.5451019406 -0.0000000014 -0.0000001751 -0.0000000857
  2.5079936981 0.1487963647 3.5524599552 -0.0000000275 0.0000000224 0.0000000745
  -1.0437756777 1.6534525156 2.9100000858 -0.0073175975 -0.6371961236 0.0766553879
  -8.3812904358 0.0000032485 -0.0005165339 0.0000000028 -0.0000000058 0.0000001392
  -3.9075484276 0.0000001192 0.0005266964 0.0000004615 0.6768903136 0.4517620206
  -9.0582666397 0.0000014305 0.0000071377 0.1115421504 0.4999853075 -0.4307278395
  -2.4121794701 -0.4690744281 4.9682655334 0.2278126925 -0.6577842236 0.2557729781
  -1.4861812592 -0.0092598200 0.0023763180 -0.0182543211 0.0115489792 0.4644549489
  -0.9848706126 -0.0127519965 0.0012253523 0.3776762486 0.5943309069 0.4060390890
  0.0011339188 -0.0000019073 1.2383999825 -0.0000005476 0.0000000577 -0.0000000279
  -0.0485568047 -0.4682637453 4.8929109573 0.2945401073 -0.6570016742 0.2687330246
  -1.8586766720 -0.0117380619 0.0021866560 0.0182136465 -0.0123659102 0.5519973040
  -1.0443688631 -0.0123014450 0.0005885363 0.0186417997 -0.0115624964 0.5112480521
  -1.5055358410 -0.0000058413 0.0011813641 0.0000105103 0.7071008682 -0.0000123819
  -2.1457815170 -0.0792667866 2.5121188164 0.0795319080 -0.4358264804 0.3166429698
  -1.6636111736 -0.0215016007 -0.0294207931 -0.1323003024 -0.3390546441 0.1692510396
  -1.2707844973 0.0000326037 0.0011668205 -0.0000001133 0.7071065903 -0.0000002134
  -1.1617159843 -0.4687210321 6.2216238976 0.4803776741 -0.5438482761 0.4272537529
  -1.4778453112 -0.0012516975 0.0014452934 0.0268110260 -0.0268564131 0.2610144317
  -0.9766045809 -0.0043358803 0.0003554821 0.2762081623 0.6432811022 0.2330486923
  0.0011329651 -0.0000027418 1.2384011745 -0.0000005178 0.0000000149 -0.0000000577
  1.0011162758 -0.4596700668 3.6390302181 0.1633753777 -0.7046147585 0.1056701392
  -1.8531150818 0.0007331371 0.0014580488 0.0384743325 -0.0210312828 0.2334485948
  -1.0480577946 -0.0147848129 0.0012016296 0.0431202948 0.0045895805 0.6846182346
  -1.5055360794 -0.0000038147 0.0011816025 0.0000104471 0.7071008682 -0.0000124029
  -0.4064104557 8.1463708878 8.3328666687 0.0000000743 -0.0000006263 -1.0000000000
  10.5271177292 -7.4415979385 15.4566717148 -0.6098126769 -0.1832359880 0.6989310980
}

frame 18 {
  -0.0000000251 -0.0000000089 0.0000013374 -0.7071068287 -0.0000000188 -0.0000000124
  -0.0175175872 4.5148844719 1.4526960850 -0.0000001064 0.0000000004 -1.0000000000
  -2.0376806259 -1.0987175703 0.5451019406 -0.0000000014 -0.0000001751 -0.0000000857
  2.5079936981 0.1487963647 3.5524599552 -0.0000000275 0.0000000224 0.0000000745
  -1.0437759161 1.6534525156 2.9099991322 0.0627574474 -0.6280209422 0.0853317901
  -8.3812913895 0.0000026003 -0.0005167034 -0.0000000002 0.0000000034 0.0000001253
  -3.9075477123 -0.0000002086 0.0005270904 0.0000004504 0.4867192507 0.5295930505
  -9.0582656860 0.0000008345 0.0000076294 0.1145313233 0.6367843151 -0.3560365438
  -2.4121801853 -0.4690738022 4.9682650566 0.2278126925 -0.6577842236 0.2557729185
  -1.4861807823 -0.0092620850 0.0023757219 -0.0182543527 0.0115489094 0.4644548595
  -0.9848686457 -0.0127532482 0.0012267828 0.3776761889 0.5943309069 0.4060390890
  0.0011335611 -0.0000030994 1.2383999825 -0.0000005513 0.0000000284 -0.0000000205
  -0.0485564470 -0.4682606459 4.8929109573 0.2945401073 -0.6570016146 0.2687331140
  -1.8586766720 -0.0117373466 0.0021873116 0.0182136968 -0.0123658897 0.5519972444
  -1.0443658829 -0.0123009682 0.0005888343 0.0186418127 -0.0115625001 0.5112479329
  -1.5055364370 -0.0000063628 0.0011821985 0.0000105019 0.7071008682 -0.0000123764
  -2.1457824707 -0.0792659670 2.5121204853 0.0795319080 -0.4358264804 0.3166429698
  -1.6636111736 -0.0215006471 -0.0294204950 -0.1323003322 -0.3390546143 0.1692509651
  -1.2707848549 0.0000337362 0.0011668205 -0.0000000711 0.7071065903 -0.0000001607
  -1.1617161036 -0.4687227905 6.2216243744 0.4803776741 -0.5438483357 0.4272538126
  -1.4778441191 -0.0012545586 0.0014461037 0.0268109385 -0.0268564783 0.2610144317
  -0.9766041040 -0.0043358803 0.0003566742 0.2762081921 0.6432811022 0.2330486625
  0.0011333227 -0.0000009537 1.2383985519 -0.0000005364 -0.0000000037 -0.0000000540
  1.0011155605 -0.4596694410 3.6390309334 0.1633753628 -0.7046147585 0.1056701764
  -1.8531150818 0.0007331371 0.0014588535 0.0384743772 -0.0210313145 0.2334486097
  -1.0480580330 -0.0147871971 0.0012010336 0.0431203581 0.0045896405 0.6846182346
  -1.5055375099 -0.0000057220 0.0011816025 0.0000105366 0.7071008682 -0.0000124135
  -0.4064104557 8.1463708878 8.3328666687 0.0000000743 -0.0000006263 -1.0000000000
  10.4610013962 -10.0201129913 16.4710540771 -0.6602126956 -0.2065204233 0.6637616158
}

frame 19 {
  -0.0000000251 -0.0000000089 0.0000013374 -0.7071068287 -0.0000000188 -0.0000000124
  -0.0175175872 4.5148844719 1.4526960850 -0.0000001064 0.0000000004 -1.0000000000
  -2.0376806259 -1.0987175703 0.5451019406 -0.0000000014 -0.0000001751 -0.0000000857
  2.5079936981 0.1487963647 3.5524599552 -0.0000000275 0.0000000224 0.0000000745
  -1.0437760353 1.6534525156 2.9099991322 0.0919475183 -0.6236754656 0.0919475183
  -8.3812913895 0.0000036731 -0.0005167350 0.0000000014 0.0000000036 0.0000001568
  -3.9075496197 0.0000009909 0.0005270541 0.0000004051 0.4231272340 0.5289086699
  -9.0582656860 -0.0000013113 0.0000083447 0.1307646483 0.6702280045 -0.3235573173
  -2.4121787548 -0.4690734744 4.9682669640 0.2278127223 -0.6577842236 0.2557729185
  -1.4861807823 -0.0092604160 0.0023763180 -0.0182543006 0.0115489010 0.4644549489
  -0.9848700166 -0.0127555132 0.0012280047 0.3776761889 0.5943309069 0.4060390890
  0.0011344403 -0.0000020266 1.2383975983 -0.0000005588 0.0000000638 -0.0000000289
  -0.0485565849 -0.4682635963 4.8929109573 0.2945401669 -0.6570017338 0.2687330544
  -1.8586747646 -0.0117373466 0.0021863878 0.0182136633 -0.0123659251 0.5519972444
  -1.0443670750 -0.0123009682 0.0005882531 0.0186417848 -0.0115625458 0.5112479925
  -1.5055371523 -0.0000058562 0.0011833310 0.0000105096 0.7071008682 -0.0000123795
  -2.1457803249 -0.0792678669 2.5121209621 0.0795319006 -0.4358265102 0.3166429698
  -1.6636128426 -0.0215007216 -0.0294201374 -0.1323003173 -0.3390547335 0.1692510098
  -1.2707836628 0.0000313520 0.0011672974 -0.0000000421 0.7071065903 -0.0000001778
  -1.1617157459 -0.4687233567 6.2216267586 0.4803776741 -0.5438483357 0.4272537827
  -1.4778456688 -0.0012516975 0.0014481544 0.0268109776 -0.0268564131 0.2610144913
  -0.9766025543 -0.0043349266 0.0003546178 0.2762081325 0.6432811022 0.2330487967
  0.0011335611 -0.0000023842 1.2383971214 -0.0000005141 -0.0000000009 -0.0000000522
  1.0011165142 -0.4596720040 3.6390306950 0.1633753777 -0.7046147585 0.1056701168
  -1.8531141281 0.0007317066 0.0014575720 0.0384743810 -0.0210312735 0.2334485650
  -1.0480554104 -0.0147867203 0.0012030602 0.0431203507 0.0045896429 0.6846181750
  -1.5055353642 -0.0000061989 0.0011810064 0.0000105077 0.7071008682 -0.0000123911
  -0.4064104557 8.1463708878 8.3328666687 0.0000000743 -0.0000006263 -1.0000000000
  10.4468412399 -10.8969860077 16.7990169525 -0.6769390702 -0.2143609673 0.6505261660
}

